laser_day1/2024-03-08 F(t) Al target 1/Newfile5.csv

X,CH1,Start,Increment,
Sequence,Volt,-5.999999e-04,2.000000e-07,
0,-7.812500e-04,
1,-7.812500e-04,
2,-7.812500e-04,
3,-9.375000e-04,
4,-9.375000e-04,
5,-9.375000e-04,
6,-6.250000e-04,
7,-6.250000e-04,
8,-6.250000e-04,
9,-4.687500e-04,
10,-7.812500e-04,
11,-7.812500e-04,
12,-7.812500e-04,
13,-9.375000e-04,
14,-1.093750e-03,
15,-4.687500e-04,
16,-7.812500e-04,
17,-9.375000e-04,
18,-3.125000e-04,
19,-7.812500e-04,
20,-9.375000e-04,
21,-7.812500e-04,
22,-9.375000e-04,
23,-6.250000e-04,
24,-4.687500e-04,
25,-6.250000e-04,
26,-7.812500e-04,
27,-7.812500e-04,
28,-7.812500e-04,
29,-6.250000e-04,
30,-4.687500e-04,
31,-4.687500e-04,
32,-4.687500e-04,
33,-6.250000e-04,
34,-6.250000e-04,
35,-6.250000e-04,
36,-9.375000e-04,
37,-9.375000e-04,
38,-1.093750e-03,
39,-9.375000e-04,
40,-9.375000e-04,
41,-6.250000e-04,
42,-4.687500e-04,
43,-7.812500e-04,
44,-4.687500e-04,
45,-7.812500e-04,
46,-9.375000e-04,
47,-7.812500e-04,
48,-9.375000e-04,
49,-7.812500e-04,
50,-1.093750e-03,
51,-7.812500e-04,
52,-4.687500e-04,
53,-6.250000e-04,
54,-7.812500e-04,
55,-7.812500e-04,
56,-9.375000e-04,
57,-6.250000e-04,
58,-7.812500e-04,
59,-9.375000e-04,
60,-6.250000e-04,
61,-9.375000e-04,
62,-6.250000e-04,
63,-6.250000e-04,
64,-6.250000e-04,
65,-1.093750e-03,
66,-9.375000e-04,
67,-6.250000e-04,
68,-6.250000e-04,
69,-7.812500e-04,
70,-6.250000e-04,
71,-9.375000e-04,
72,-4.687500e-04,
73,-6.250000e-04,
74,-4.687500e-04,
75,-6.250000e-04,
76,-7.812500e-04,
77,-6.250000e-04,
78,-4.687500e-04,
79,-6.250000e-04,
80,-7.812500e-04,
81,-6.250000e-04,
82,-7.812500e-04,
83,-4.687500e-04,
84,-7.812500e-04,
85,-6.250000e-04,
86,-6.250000e-04,
87,-6.250000e-04,
88,-4.687500e-04,
89,-7.812500e-04,
90,-1.562500e-04,
91,-7.812500e-04,
92,-7.812500e-04,
93,-4.687500e-04,
94,-7.812500e-04,
95,-6.250000e-04,
96,-9.375000e-04,
97,-7.812500e-04,
98,-4.687500e-04,
99,-6.250000e-04,
100,-6.250000e-04,
101,-7.812500e-04,
102,-9.375000e-04,
103,-6.250000e-04,
104,-7.812500e-04,
105,-6.250000e-04,
106,-6.250000e-04,
107,-4.687500e-04,
108,-4.687500e-04,
109,-9.375000e-04,
110,-7.812500e-04,
111,-4.687500e-04,
112,-7.812500e-04,
113,-7.812500e-04,
114,-7.812500e-04,
115,-7.812500e-04,
116,-6.250000e-04,
117,-9.375000e-04,
118,-9.375000e-04,
119,-6.250000e-04,
120,-7.812500e-04,
121,-7.812500e-04,
122,-9.375000e-04,
123,-6.250000e-04,
124,-4.687500e-04,
125,-7.812500e-04,
126,-9.375000e-04,
127,-7.812500e-04,
128,-9.375000e-04,
129,-6.250000e-04,
130,-6.250000e-04,
131,-4.687500e-04,
132,-7.812500e-04,
133,-6.250000e-04,
134,-6.250000e-04,
135,-6.250000e-04,
136,-9.375000e-04,
137,-6.250000e-04,
138,-6.250000e-04,
139,-6.250000e-04,
140,-6.250000e-04,
141,-4.687500e-04,
142,-6.250000e-04,
143,-6.250000e-04,
144,-9.375000e-04,
145,-9.375000e-04,
146,-4.687500e-04,
147,-7.812500e-04,
148,-9.375000e-04,
149,-1.093750e-03,
150,-6.250000e-04,
151,-6.250000e-04,
152,-6.250000e-04,
153,-4.687500e-04,
154,-7.812500e-04,
155,-9.375000e-04,
156,-7.812500e-04,
157,-9.375000e-04,
158,-6.250000e-04,
159,-6.250000e-04,
160,-9.375000e-04,
161,-9.375000e-04,
162,-7.812500e-04,
163,-6.250000e-04,
164,-7.812500e-04,
165,-6.250000e-04,
166,-6.250000e-04,
167,-6.250000e-04,
168,-7.812500e-04,
169,-7.812500e-04,
170,-6.250000e-04,
171,-7.812500e-04,
172,-9.375000e-04,
173,-7.812500e-04,
174,-9.375000e-04,
175,-9.375000e-04,
176,-1.093750e-03,
177,-9.375000e-04,
178,-9.375000e-04,
179,-9.375000e-04,
180,-4.687500e-04,
181,-4.687500e-04,
182,-6.250000e-04,
183,-7.812500e-04,
184,-7.812500e-04,
185,-7.812500e-04,
186,-7.812500e-04,
187,-6.250000e-04,
188,-4.687500e-04,
189,-7.812500e-04,
190,-9.375000e-04,
191,-7.812500e-04,
192,-6.250000e-04,
193,-7.812500e-04,
194,-4.687500e-04,
195,-9.375000e-04,
196,-3.125000e-04,
197,-4.687500e-04,
198,-7.812500e-04,
199,-7.812500e-04,
200,-6.250000e-04,
201,-6.250000e-04,
202,-9.375000e-04,
203,-7.812500e-04,
204,-4.687500e-04,
205,-6.250000e-04,
206,-6.250000e-04,
207,-6.250000e-04,
208,-3.125000e-04,
209,-7.812500e-04,
210,-6.250000e-04,
211,-9.375000e-04,
212,-1.093750e-03,
213,-9.375000e-04,
214,-9.375000e-04,
215,-9.375000e-04,
216,-7.812500e-04,
217,-9.375000e-04,
218,-6.250000e-04,
219,-9.375000e-04,
220,-6.250000e-04,
221,-6.250000e-04,
222,-7.812500e-04,
223,-4.687500e-04,
224,-4.687500e-04,
225,-7.812500e-04,
226,-6.250000e-04,
227,-7.812500e-04,
228,-6.250000e-04,
229,-6.250000e-04,
230,-7.812500e-04,
231,-4.687500e-04,
232,-6.250000e-04,
233,-7.812500e-04,
234,-4.687500e-04,
235,-7.812500e-04,
236,-7.812500e-04,
237,-9.375000e-04,
238,-6.250000e-04,
239,-9.375000e-04,
240,-9.375000e-04,
241,-9.375000e-04,
242,-1.093750e-03,
243,-7.812500e-04,
244,-7.812500e-04,
245,-7.812500e-04,
246,-7.812500e-04,
247,-9.375000e-04,
248,-9.375000e-04,
249,-7.812500e-04,
250,-7.812500e-04,
251,-9.375000e-04,
252,-6.250000e-04,
253,-4.687500e-04,
254,-9.375000e-04,
255,-3.125000e-04,
256,-4.687500e-04,
257,-4.687500e-04,
258,-7.812500e-04,
259,-7.812500e-04,
260,-7.812500e-04,
261,-6.250000e-04,
262,-7.812500e-04,
263,-7.812500e-04,
264,-4.687500e-04,
265,-7.812500e-04,
266,-9.375000e-04,
267,-9.375000e-04,
268,-7.812500e-04,
269,-4.687500e-04,
270,-1.093750e-03,
271,-6.250000e-04,
272,-6.250000e-04,
273,-7.812500e-04,
274,-9.375000e-04,
275,-6.250000e-04,
276,-7.812500e-04,
277,-6.250000e-04,
278,-6.250000e-04,
279,-7.812500e-04,
280,-7.812500e-04,
281,-9.375000e-04,
282,-9.375000e-04,
283,-7.812500e-04,
284,-9.375000e-04,
285,-7.812500e-04,
286,-7.812500e-04,
287,-9.375000e-04,
288,-6.250000e-04,
289,-6.250000e-04,
290,-9.375000e-04,
291,-9.375000e-04,
292,-7.812500e-04,
293,-9.375000e-04,
294,-7.812500e-04,
295,-7.812500e-04,
296,-9.375000e-04,
297,-9.375000e-04,
298,-9.375000e-04,
299,-1.093750e-03,
300,-7.812500e-04,
301,-7.812500e-04,
302,-9.375000e-04,
303,-9.375000e-04,
304,-6.250000e-04,
305,-9.375000e-04,
306,-1.093750e-03,
307,-7.812500e-04,
308,-9.375000e-04,
309,-9.375000e-04,
310,-6.250000e-04,
311,-6.250000e-04,
312,-1.093750e-03,
313,-1.093750e-03,
314,-9.375000e-04,
315,-9.375000e-04,
316,-9.375000e-04,
317,-6.250000e-04,
318,-7.812500e-04,
319,-7.812500e-04,
320,-7.812500e-04,
321,-7.812500e-04,
322,-6.250000e-04,
323,-6.250000e-04,
324,-6.250000e-04,
325,-4.687500e-04,
326,-4.687500e-04,
327,-6.250000e-04,
328,-6.250000e-04,
329,-7.812500e-04,
330,-7.812500e-04,
331,-7.812500e-04,
332,-9.375000e-04,
333,-9.375000e-04,
334,-9.375000e-04,
335,-6.250000e-04,
336,-6.250000e-04,
337,-7.812500e-04,
338,-7.812500e-04,
339,-7.812500e-04,
340,-7.812500e-04,
341,-9.375000e-04,
342,-7.812500e-04,
343,-7.812500e-04,
344,-7.812500e-04,
345,-6.250000e-04,
346,-9.375000e-04,
347,-6.250000e-04,
348,-9.375000e-04,
349,-6.250000e-04,
350,-9.375000e-04,
351,-6.250000e-04,
352,-4.687500e-04,
353,-7.812500e-04,
354,-4.687500e-04,
355,-9.375000e-04,
356,-9.375000e-04,
357,-7.812500e-04,
358,-9.375000e-04,
359,-9.375000e-04,
360,-6.250000e-04,
361,-7.812500e-04,
362,-9.375000e-04,
363,-7.812500e-04,
364,-4.687500e-04,
365,-6.250000e-04,
366,-3.125000e-04,
367,-6.250000e-04,
368,-7.812500e-04,
369,-7.812500e-04,
370,-6.250000e-04,
371,-7.812500e-04,
372,-6.250000e-04,
373,-9.375000e-04,
374,-9.375000e-04,
375,-6.250000e-04,
376,-7.812500e-04,
377,-7.812500e-04,
378,-6.250000e-04,
379,-6.250000e-04,
380,-4.687500e-04,
381,-4.687500e-04,
382,-7.812500e-04,
383,-9.375000e-04,
384,-7.812500e-04,
385,-6.250000e-04,
386,-4.687500e-04,
387,-9.375000e-04,
388,-4.687500e-04,
389,-4.687500e-04,
390,-6.250000e-04,
391,-9.375000e-04,
392,-1.093750e-03,
393,-9.375000e-04,
394,-4.687500e-04,
395,-4.687500e-04,
396,-4.687500e-04,
397,-3.125000e-04,
398,-6.250000e-04,
399,-6.250000e-04,
400,-1.250000e-03,
401,-9.375000e-04,
402,-4.687500e-04,
403,-1.250000e-03,
404,-1.093750e-03,
405,-9.375000e-04,
406,-6.250000e-04,
407,-9.375000e-04,
408,-9.375000e-04,
409,-4.687500e-04,
410,-6.250000e-04,
411,-9.375000e-04,
412,-9.375000e-04,
413,-9.375000e-04,
414,-7.812500e-04,
415,-7.812500e-04,
416,-9.375000e-04,
417,-7.812500e-04,
418,-9.375000e-04,
419,-7.812500e-04,
420,-7.812500e-04,
421,-6.250000e-04,
422,-7.812500e-04,
423,-7.812500e-04,
424,-6.250000e-04,
425,-7.812500e-04,
426,-6.250000e-04,
427,-6.250000e-04,
428,-4.687500e-04,
429,-6.250000e-04,
430,-7.812500e-04,
431,-1.093750e-03,
432,-7.812500e-04,
433,-9.375000e-04,
434,-7.812500e-04,
435,-9.375000e-04,
436,-6.250000e-04,
437,-6.250000e-04,
438,-6.250000e-04,
439,-9.375000e-04,
440,-6.250000e-04,
441,-7.812500e-04,
442,-7.812500e-04,
443,-4.687500e-04,
444,-9.375000e-04,
445,-6.250000e-04,
446,-7.812500e-04,
447,-6.250000e-04,
448,-4.687500e-04,
449,-6.250000e-04,
450,-7.812500e-04,
451,-1.093750e-03,
452,-7.812500e-04,
453,-6.250000e-04,
454,-1.093750e-03,
455,-9.375000e-04,
456,-9.375000e-04,
457,-7.812500e-04,
458,-4.687500e-04,
459,-6.250000e-04,
460,-6.250000e-04,
461,-4.687500e-04,
462,-6.250000e-04,
463,-7.812500e-04,
464,-7.812500e-04,
465,-7.812500e-04,
466,-4.687500e-04,
467,-1.093750e-03,
468,-7.812500e-04,
469,-1.093750e-03,
470,-9.375000e-04,
471,-6.250000e-04,
472,-7.812500e-04,
473,-1.093750e-03,
474,-1.093750e-03,
475,-1.093750e-03,
476,-9.375000e-04,
477,-7.812500e-04,
478,-7.812500e-04,
479,-7.812500e-04,
480,-9.375000e-04,
481,-6.250000e-04,
482,-6.250000e-04,
483,-3.125000e-04,
484,-6.250000e-04,
485,-9.375000e-04,
486,-6.250000e-04,
487,-7.812500e-04,
488,-4.687500e-04,
489,-7.812500e-04,
490,-9.375000e-04,
491,-6.250000e-04,
492,-7.812500e-04,
493,-9.375000e-04,
494,-6.250000e-04,
495,-6.250000e-04,
496,-9.375000e-04,
497,-7.812500e-04,
498,-9.375000e-04,
499,-7.812500e-04,
500,-7.812500e-04,
501,-4.687500e-04,
502,-6.250000e-04,
503,-7.812500e-04,
504,-6.250000e-04,
505,-4.687500e-04,
506,-6.250000e-04,
507,-7.812500e-04,
508,-6.250000e-04,
509,-4.687500e-04,
510,-7.812500e-04,
511,-6.250000e-04,
512,-7.812500e-04,
513,-6.250000e-04,
514,-3.125000e-04,
515,-7.812500e-04,
516,-7.812500e-04,
517,-6.250000e-04,
518,-7.812500e-04,
519,-4.687500e-04,
520,-4.687500e-04,
521,-6.250000e-04,
522,-7.812500e-04,
523,-4.687500e-04,
524,-3.125000e-04,
525,-7.812500e-04,
526,-7.812500e-04,
527,-7.812500e-04,
528,-7.812500e-04,
529,-4.687500e-04,
530,-6.250000e-04,
531,-9.375000e-04,
532,-7.812500e-04,
533,-6.250000e-04,
534,-7.812500e-04,
535,-7.812500e-04,
536,-7.812500e-04,
537,-7.812500e-04,
538,-6.250000e-04,
539,-9.375000e-04,
540,-4.687500e-04,
541,-4.687500e-04,
542,-4.687500e-04,
543,-7.812500e-04,
544,-1.093750e-03,
545,-9.375000e-04,
546,-7.812500e-04,
547,-7.812500e-04,
548,-7.812500e-04,
549,-9.375000e-04,
550,-7.812500e-04,
551,-7.812500e-04,
552,-7.812500e-04,
553,-6.250000e-04,
554,-9.375000e-04,
555,-7.812500e-04,
556,-7.812500e-04,
557,-7.812500e-04,
558,-6.250000e-04,
559,-7.812500e-04,
560,-7.812500e-04,
561,-7.812500e-04,
562,-4.687500e-04,
563,-9.375000e-04,
564,-7.812500e-04,
565,-6.250000e-04,
566,-6.250000e-04,
567,-9.375000e-04,
568,-9.375000e-04,
569,-4.687500e-04,
570,-6.250000e-04,
571,-7.812500e-04,
572,-4.687500e-04,
573,-4.687500e-04,
574,-7.812500e-04,
575,-6.250000e-04,
576,-1.093750e-03,
577,-6.250000e-04,
578,-6.250000e-04,
579,-7.812500e-04,
580,-7.812500e-04,
581,-7.812500e-04,
582,-9.375000e-04,
583,-9.375000e-04,
584,-9.375000e-04,
585,-7.812500e-04,
586,-7.812500e-04,
587,-6.250000e-04,
588,-7.812500e-04,
589,-6.250000e-04,
590,-9.375000e-04,
591,-6.250000e-04,
592,-7.812500e-04,
593,-7.812500e-04,
594,-6.250000e-04,
595,-7.812500e-04,
596,-6.250000e-04,
597,-9.375000e-04,
598,-7.812500e-04,
599,-7.812500e-04,
600,-1.093750e-03,
601,-7.812500e-04,
602,-7.812500e-04,
603,-1.093750e-03,
604,-7.812500e-04,
605,-7.812500e-04,
606,-6.250000e-04,
607,-4.687500e-04,
608,-7.812500e-04,
609,-7.812500e-04,
610,-7.812500e-04,
611,-9.375000e-04,
612,-4.687500e-04,
613,-4.687500e-04,
614,-6.250000e-04,
615,-6.250000e-04,
616,-1.093750e-03,
617,-1.093750e-03,
618,-1.093750e-03,
619,-4.687500e-04,
620,-4.687500e-04,
621,-7.812500e-04,
622,-4.687500e-04,
623,-7.812500e-04,
624,-9.375000e-04,
625,-9.375000e-04,
626,-3.125000e-04,
627,-4.687500e-04,
628,-7.812500e-04,
629,-6.250000e-04,
630,-7.812500e-04,
631,-6.250000e-04,
632,-7.812500e-04,
633,-7.812500e-04,
634,-1.093750e-03,
635,-6.250000e-04,
636,-6.250000e-04,
637,-7.812500e-04,
638,-7.812500e-04,
639,-6.250000e-04,
640,-4.687500e-04,
641,-7.812500e-04,
642,-9.375000e-04,
643,-9.375000e-04,
644,-9.375000e-04,
645,-7.812500e-04,
646,-7.812500e-04,
647,-7.812500e-04,
648,-9.375000e-04,
649,-9.375000e-04,
650,-7.812500e-04,
651,-7.812500e-04,
652,-6.250000e-04,
653,-9.375000e-04,
654,-9.375000e-04,
655,-9.375000e-04,
656,-7.812500e-04,
657,-9.375000e-04,
658,-7.812500e-04,
659,-6.250000e-04,
660,-4.687500e-04,
661,-3.125000e-04,
662,-4.687500e-04,
663,-7.812500e-04,
664,-4.687500e-04,
665,-7.812500e-04,
666,-4.687500e-04,
667,-9.375000e-04,
668,-9.375000e-04,
669,-9.375000e-04,
670,-7.812500e-04,
671,-9.375000e-04,
672,-7.812500e-04,
673,-7.812500e-04,
674,-4.687500e-04,
675,-4.687500e-04,
676,-6.250000e-04,
677,-9.375000e-04,
678,-9.375000e-04,
679,-4.687500e-04,
680,-9.375000e-04,
681,-9.375000e-04,
682,-6.250000e-04,
683,-7.812500e-04,
684,-6.250000e-04,
685,-9.375000e-04,
686,-7.812500e-04,
687,-7.812500e-04,
688,-6.250000e-04,
689,-7.812500e-04,
690,-9.375000e-04,
691,-7.812500e-04,
692,-9.375000e-04,
693,-6.250000e-04,
694,-6.250000e-04,
695,-7.812500e-04,
696,-4.687500e-04,
697,-7.812500e-04,
698,-1.093750e-03,
699,-9.375000e-04,
700,-9.375000e-04,
701,-9.375000e-04,
702,-7.812500e-04,
703,-9.375000e-04,
704,-6.250000e-04,
705,-6.250000e-04,
706,-9.375000e-04,
707,-9.375000e-04,
708,-6.250000e-04,
709,-7.812500e-04,
710,-7.812500e-04,
711,-7.812500e-04,
712,-7.812500e-04,
713,-7.812500e-04,
714,-9.375000e-04,
715,-7.812500e-04,
716,-4.687500e-04,
717,-3.125000e-04,
718,-3.125000e-04,
719,-4.687500e-04,
720,-7.812500e-04,
721,-3.125000e-04,
722,-4.687500e-04,
723,-6.250000e-04,
724,-7.812500e-04,
725,-7.812500e-04,
726,-7.812500e-04,
727,-7.812500e-04,
728,-9.375000e-04,
729,-7.812500e-04,
730,-4.687500e-04,
731,-6.250000e-04,
732,-4.687500e-04,
733,-6.250000e-04,
734,-6.250000e-04,
735,-6.250000e-04,
736,-7.812500e-04,
737,-1.093750e-03,
738,-7.812500e-04,
739,-6.250000e-04,
740,-7.812500e-04,
741,-7.812500e-04,
742,-7.812500e-04,
743,-7.812500e-04,
744,-7.812500e-04,
745,-6.250000e-04,
746,-6.250000e-04,
747,-6.250000e-04,
748,-6.250000e-04,
749,-7.812500e-04,
750,-9.375000e-04,
751,-4.687500e-04,
752,-6.250000e-04,
753,-6.250000e-04,
754,-3.125000e-04,
755,-7.812500e-04,
756,-6.250000e-04,
757,-6.250000e-04,
758,-6.250000e-04,
759,-7.812500e-04,
760,-7.812500e-04,
761,-6.250000e-04,
762,-7.812500e-04,
763,-6.250000e-04,
764,-7.812500e-04,
765,-7.812500e-04,
766,-7.812500e-04,
767,-1.093750e-03,
768,-7.812500e-04,
769,-1.093750e-03,
770,-7.812500e-04,
771,-6.250000e-04,
772,-9.375000e-04,
773,-9.375000e-04,
774,-1.093750e-03,
775,-9.375000e-04,
776,-9.375000e-04,
777,-6.250000e-04,
778,-7.812500e-04,
779,-9.375000e-04,
780,-4.687500e-04,
781,-7.812500e-04,
782,-7.812500e-04,
783,-6.250000e-04,
784,-7.812500e-04,
785,-7.812500e-04,
786,-9.375000e-04,
787,-6.250000e-04,
788,-7.812500e-04,
789,-6.250000e-04,
790,-9.375000e-04,
791,-7.812500e-04,
792,-6.250000e-04,
793,-9.375000e-04,
794,-7.812500e-04,
795,-6.250000e-04,
796,-6.250000e-04,
797,-9.375000e-04,
798,-7.812500e-04,
799,-7.812500e-04,
800,-9.375000e-04,
801,-9.375000e-04,
802,-9.375000e-04,
803,-9.375000e-04,
804,-7.812500e-04,
805,-3.125000e-04,
806,-7.812500e-04,
807,-6.250000e-04,
808,-9.375000e-04,
809,-7.812500e-04,
810,-7.812500e-04,
811,-1.093750e-03,
812,-4.687500e-04,
813,-6.250000e-04,
814,-7.812500e-04,
815,-7.812500e-04,
816,-9.375000e-04,
817,-7.812500e-04,
818,-9.375000e-04,
819,-7.812500e-04,
820,-6.250000e-04,
821,-6.250000e-04,
822,-7.812500e-04,
823,-7.812500e-04,
824,-4.687500e-04,
825,-4.687500e-04,
826,-7.812500e-04,
827,-7.812500e-04,
828,-9.375000e-04,
829,-9.375000e-04,
830,-9.375000e-04,
831,-9.375000e-04,
832,-6.250000e-04,
833,-7.812500e-04,
834,-6.250000e-04,
835,-6.250000e-04,
836,-7.812500e-04,
837,-9.375000e-04,
838,-1.093750e-03,
839,-9.375000e-04,
840,-6.250000e-04,
841,-7.812500e-04,
842,-7.812500e-04,
843,-9.375000e-04,
844,-6.250000e-04,
845,-7.812500e-04,
846,-6.250000e-04,
847,-3.125000e-04,
848,-7.812500e-04,
849,-4.687500e-04,
850,-7.812500e-04,
851,-7.812500e-04,
852,-7.812500e-04,
853,-6.250000e-04,
854,-6.250000e-04,
855,-6.250000e-04,
856,-7.812500e-04,
857,-9.375000e-04,
858,-7.812500e-04,
859,-7.812500e-04,
860,-6.250000e-04,
861,-6.250000e-04,
862,-7.812500e-04,
863,-9.375000e-04,
864,-3.125000e-04,
865,-7.812500e-04,
866,-3.125000e-04,
867,-4.687500e-04,
868,-4.687500e-04,
869,-4.687500e-04,
870,-7.812500e-04,
871,-3.125000e-04,
872,-3.125000e-04,
873,-6.250000e-04,
874,-3.125000e-04,
875,-6.250000e-04,
876,-9.375000e-04,
877,-6.250000e-04,
878,-7.812500e-04,
879,-9.375000e-04,
880,-4.687500e-04,
881,-4.687500e-04,
882,-4.687500e-04,
883,-7.812500e-04,
884,-6.250000e-04,
885,-9.375000e-04,
886,-7.812500e-04,
887,-7.812500e-04,
888,-6.250000e-04,
889,-6.250000e-04,
890,-7.812500e-04,
891,-6.250000e-04,
892,-7.812500e-04,
893,-4.687500e-04,
894,-6.250000e-04,
895,-7.812500e-04,
896,-6.250000e-04,
897,-4.687500e-04,
898,-6.250000e-04,
899,-7.812500e-04,
900,-7.812500e-04,
901,-7.812500e-04,
902,-9.375000e-04,
903,-4.687500e-04,
904,-9.375000e-04,
905,-6.250000e-04,
906,-7.812500e-04,
907,-7.812500e-04,
908,-9.375000e-04,
909,-6.250000e-04,
910,-7.812500e-04,
911,-6.250000e-04,
912,-9.375000e-04,
913,-1.093750e-03,
914,-6.250000e-04,
915,-4.687500e-04,
916,-6.250000e-04,
917,-9.375000e-04,
918,-6.250000e-04,
919,-6.250000e-04,
920,-7.812500e-04,
921,-7.812500e-04,
922,-6.250000e-04,
923,-7.812500e-04,
924,-7.812500e-04,
925,-7.812500e-04,
926,-7.812500e-04,
927,-4.687500e-04,
928,-7.812500e-04,
929,-9.375000e-04,
930,-9.375000e-04,
931,-9.375000e-04,
932,-6.250000e-04,
933,-6.250000e-04,
934,-6.250000e-04,
935,-3.125000e-04,
936,-6.250000e-04,
937,-4.687500e-04,
938,-4.687500e-04,
939,-6.250000e-04,
940,-6.250000e-04,
941,-9.375000e-04,
942,-4.687500e-04,
943,-6.250000e-04,
944,-7.812500e-04,
945,-9.375000e-04,
946,-9.375000e-04,
947,-9.375000e-04,
948,-9.375000e-04,
949,-9.375000e-04,
950,-7.812500e-04,
951,-4.687500e-04,
952,-7.812500e-04,
953,-7.812500e-04,
954,-6.250000e-04,
955,-6.250000e-04,
956,-7.812500e-04,
957,-6.250000e-04,
958,-4.687500e-04,
959,-6.250000e-04,
960,-6.250000e-04,
961,-6.250000e-04,
962,-7.812500e-04,
963,-7.812500e-04,
964,-3.125000e-04,
965,-6.250000e-04,
966,-6.250000e-04,
967,-9.375000e-04,
968,-7.812500e-04,
969,-1.250000e-03,
970,-9.375000e-04,
971,-6.250000e-04,
972,-7.812500e-04,
973,-7.812500e-04,
974,-6.250000e-04,
975,-7.812500e-04,
976,-7.812500e-04,
977,-4.687500e-04,
978,-4.687500e-04,
979,-6.250000e-04,
980,-6.250000e-04,
981,-7.812500e-04,
982,-9.375000e-04,
983,-6.250000e-04,
984,-6.250000e-04,
985,-7.812500e-04,
986,-6.250000e-04,
987,-6.250000e-04,
988,-6.250000e-04,
989,-6.250000e-04,
990,-6.250000e-04,
991,-6.250000e-04,
992,-6.250000e-04,
993,-6.250000e-04,
994,-6.250000e-04,
995,-6.250000e-04,
996,-9.375000e-04,
997,-7.812500e-04,
998,-6.250000e-04,
999,-7.812500e-04,
1000,-6.250000e-04,
1001,-4.687500e-04,
1002,-6.250000e-04,
1003,-4.687500e-04,
1004,-3.125000e-04,
1005,-6.250000e-04,
1006,-6.250000e-04,
1007,-4.687500e-04,
1008,-7.812500e-04,
1009,-4.687500e-04,
1010,-6.250000e-04,
1011,-6.250000e-04,
1012,-6.250000e-04,
1013,-6.250000e-04,
1014,-3.125000e-04,
1015,-6.250000e-04,
1016,-6.250000e-04,
1017,-4.687500e-04,
1018,-7.812500e-04,
1019,-6.250000e-04,
1020,-6.250000e-04,
1021,-7.812500e-04,
1022,-9.375000e-04,
1023,-4.687500e-04,
1024,-6.250000e-04,
1025,-7.812500e-04,
1026,-7.812500e-04,
1027,-9.375000e-04,
1028,-6.250000e-04,
1029,-7.812500e-04,
1030,-9.375000e-04,
1031,-6.250000e-04,
1032,-6.250000e-04,
1033,-4.687500e-04,
1034,-7.812500e-04,
1035,-9.375000e-04,
1036,-4.687500e-04,
1037,-6.250000e-04,
1038,-6.250000e-04,
1039,-7.812500e-04,
1040,-6.250000e-04,
1041,-4.687500e-04,
1042,-3.125000e-04,
1043,-6.250000e-04,
1044,-6.250000e-04,
1045,-6.250000e-04,
1046,-6.250000e-04,
1047,-6.250000e-04,
1048,-6.250000e-04,
1049,-6.250000e-04,
1050,-6.250000e-04,
1051,-6.250000e-04,
