laser_day1/2024-03-08 F(t) Al target 1/Newfile15.csv

X,CH1,Start,Increment,
Sequence,Volt,-5.999999e-04,2.000000e-07,
0,-6.250000e-04,
1,-7.812500e-04,
2,-1.093750e-03,
3,-6.250000e-04,
4,-6.250000e-04,
5,-9.375000e-04,
6,-6.250000e-04,
7,-4.687500e-04,
8,-7.812500e-04,
9,-6.250000e-04,
10,-6.250000e-04,
11,-4.687500e-04,
12,-7.812500e-04,
13,-6.250000e-04,
14,-6.250000e-04,
15,-4.687500e-04,
16,-4.687500e-04,
17,-6.250000e-04,
18,-3.125000e-04,
19,-3.125000e-04,
20,-6.250000e-04,
21,-6.250000e-04,
22,-6.250000e-04,
23,-6.250000e-04,
24,-4.687500e-04,
25,-4.687500e-04,
26,-6.250000e-04,
27,-7.812500e-04,
28,-6.250000e-04,
29,-4.687500e-04,
30,-4.687500e-04,
31,-4.687500e-04,
32,-6.250000e-04,
33,-7.812500e-04,
34,-6.250000e-04,
35,-4.687500e-04,
36,-6.250000e-04,
37,-6.250000e-04,
38,-7.812500e-04,
39,-9.375000e-04,
40,-4.687500e-04,
41,-3.125000e-04,
42,-4.687500e-04,
43,-6.250000e-04,
44,-3.125000e-04,
45,0.000000e+00,
46,-4.687500e-04,
47,-6.250000e-04,
48,-7.812500e-04,
49,-4.687500e-04,
50,-4.687500e-04,
51,-9.375000e-04,
52,-9.375000e-04,
53,-7.812500e-04,
54,-4.687500e-04,
55,-7.812500e-04,
56,-6.250000e-04,
57,-7.812500e-04,
58,-7.812500e-04,
59,-7.812500e-04,
60,-6.250000e-04,
61,-6.250000e-04,
62,-6.250000e-04,
63,-7.812500e-04,
64,-7.812500e-04,
65,-7.812500e-04,
66,-6.250000e-04,
67,-7.812500e-04,
68,-6.250000e-04,
69,-6.250000e-04,
70,-6.250000e-04,
71,-7.812500e-04,
72,-9.375000e-04,
73,-4.687500e-04,
74,-4.687500e-04,
75,-7.812500e-04,
76,-6.250000e-04,
77,-7.812500e-04,
78,-9.375000e-04,
79,-6.250000e-04,
80,-4.687500e-04,
81,-6.250000e-04,
82,-6.250000e-04,
83,-4.687500e-04,
84,-6.250000e-04,
85,-6.250000e-04,
86,-6.250000e-04,
87,-6.250000e-04,
88,-7.812500e-04,
89,-6.250000e-04,
90,-6.250000e-04,
91,-3.125000e-04,
92,-4.687500e-04,
93,-7.812500e-04,
94,-6.250000e-04,
95,-6.250000e-04,
96,-7.812500e-04,
97,-6.250000e-04,
98,-3.125000e-04,
99,-7.812500e-04,
100,-4.687500e-04,
101,-4.687500e-04,
102,-6.250000e-04,
103,-3.125000e-04,
104,-6.250000e-04,
105,-6.250000e-04,
106,-6.250000e-04,
107,-4.687500e-04,
108,-4.687500e-04,
109,-7.812500e-04,
110,-7.812500e-04,
111,-6.250000e-04,
112,-4.687500e-04,
113,-7.812500e-04,
114,-7.812500e-04,
115,-7.812500e-04,
116,-7.812500e-04,
117,-6.250000e-04,
118,-6.250000e-04,
119,-7.812500e-04,
120,-6.250000e-04,
121,-6.250000e-04,
122,-6.250000e-04,
123,-4.687500e-04,
124,-7.812500e-04,
125,-9.375000e-04,
126,-6.250000e-04,
127,-6.250000e-04,
128,-7.812500e-04,
129,-7.812500e-04,
130,-6.250000e-04,
131,-4.687500e-04,
132,-7.812500e-04,
133,-9.375000e-04,
134,-6.250000e-04,
135,-9.375000e-04,
136,-6.250000e-04,
137,-7.812500e-04,
138,-4.687500e-04,
139,-6.250000e-04,
140,-6.250000e-04,
141,-7.812500e-04,
142,-7.812500e-04,
143,-6.250000e-04,
144,-9.375000e-04,
145,-1.093750e-03,
146,-7.812500e-04,
147,-6.250000e-04,
148,-4.687500e-04,
149,-9.375000e-04,
150,-1.093750e-03,
151,-7.812500e-04,
152,-6.250000e-04,
153,-4.687500e-04,
154,-4.687500e-04,
155,-6.250000e-04,
156,-4.687500e-04,
157,-6.250000e-04,
158,-4.687500e-04,
159,-4.687500e-04,
160,-7.812500e-04,
161,-6.250000e-04,
162,-7.812500e-04,
163,-7.812500e-04,
164,-9.375000e-04,
165,-4.687500e-04,
166,-6.250000e-04,
167,-7.812500e-04,
168,-7.812500e-04,
169,-6.250000e-04,
170,-6.250000e-04,
171,-6.250000e-04,
172,-6.250000e-04,
173,-3.125000e-04,
174,-4.687500e-04,
175,-4.687500e-04,
176,-3.125000e-04,
177,-4.687500e-04,
178,-6.250000e-04,
179,-7.812500e-04,
180,-7.812500e-04,
181,-6.250000e-04,
182,-6.250000e-04,
183,-3.125000e-04,
184,-7.812500e-04,
185,-6.250000e-04,
186,-6.250000e-04,
187,-4.687500e-04,
188,-3.125000e-04,
189,-6.250000e-04,
190,-3.125000e-04,
191,-6.250000e-04,
192,-6.250000e-04,
193,-6.250000e-04,
194,-6.250000e-04,
195,-4.687500e-04,
196,-6.250000e-04,
197,-3.125000e-04,
198,-6.250000e-04,
199,-6.250000e-04,
200,-4.687500e-04,
201,-6.250000e-04,
202,-6.250000e-04,
203,-4.687500e-04,
204,-4.687500e-04,
205,-4.687500e-04,
206,-6.250000e-04,
207,-7.812500e-04,
208,-7.812500e-04,
209,-9.375000e-04,
210,-7.812500e-04,
211,-7.812500e-04,
212,-4.687500e-04,
213,-9.375000e-04,
214,-6.250000e-04,
215,-6.250000e-04,
216,-6.250000e-04,
217,-4.687500e-04,
218,-7.812500e-04,
219,-9.375000e-04,
220,-9.375000e-04,
221,-6.250000e-04,
222,-7.812500e-04,
223,-6.250000e-04,
224,-6.250000e-04,
225,-7.812500e-04,
226,-7.812500e-04,
227,-4.687500e-04,
228,-7.812500e-04,
229,-7.812500e-04,
230,-9.375000e-04,
231,-7.812500e-04,
232,-7.812500e-04,
233,-4.687500e-04,
234,-7.812500e-04,
235,-6.250000e-04,
236,-6.250000e-04,
237,-6.250000e-04,
238,-6.250000e-04,
239,-9.375000e-04,
240,-4.687500e-04,
241,-6.250000e-04,
242,-4.687500e-04,
243,-6.250000e-04,
244,-7.812500e-04,
245,-4.687500e-04,
246,-7.812500e-04,
247,-4.687500e-04,
248,-4.687500e-04,
249,-4.687500e-04,
250,-4.687500e-04,
251,-6.250000e-04,
252,-4.687500e-04,
253,-6.250000e-04,
254,-7.812500e-04,
255,-7.812500e-04,
256,-7.812500e-04,
257,-4.687500e-04,
258,-4.687500e-04,
259,-4.687500e-04,
260,-6.250000e-04,
261,-6.250000e-04,
262,-4.687500e-04,
263,-4.687500e-04,
264,-4.687500e-04,
265,-9.375000e-04,
266,-7.812500e-04,
267,-7.812500e-04,
268,-6.250000e-04,
269,-7.812500e-04,
270,-1.093750e-03,
271,-6.250000e-04,
272,-7.812500e-04,
273,-6.250000e-04,
274,-7.812500e-04,
275,-6.250000e-04,
276,-6.250000e-04,
277,-6.250000e-04,
278,-4.687500e-04,
279,-9.375000e-04,
280,-7.812500e-04,
281,-6.250000e-04,
282,-3.125000e-04,
283,-6.250000e-04,
284,-6.250000e-04,
285,-3.125000e-04,
286,-6.250000e-04,
287,-9.375000e-04,
288,-9.375000e-04,
289,-6.250000e-04,
290,-6.250000e-04,
291,-9.375000e-04,
292,-6.250000e-04,
293,-6.250000e-04,
294,-7.812500e-04,
295,-7.812500e-04,
296,-9.375000e-04,
297,-7.812500e-04,
298,-7.812500e-04,
299,-7.812500e-04,
300,-6.250000e-04,
301,-9.375000e-04,
302,-9.375000e-04,
303,-4.687500e-04,
304,-6.250000e-04,
305,-4.687500e-04,
306,-3.125000e-04,
307,-9.375000e-04,
308,-7.812500e-04,
309,-7.812500e-04,
310,-7.812500e-04,
311,-6.250000e-04,
312,-6.250000e-04,
313,-7.812500e-04,
314,-6.250000e-04,
315,-6.250000e-04,
316,-6.250000e-04,
317,-7.812500e-04,
318,-7.812500e-04,
319,-7.812500e-04,
320,-6.250000e-04,
321,-7.812500e-04,
322,-6.250000e-04,
323,-7.812500e-04,
324,-4.687500e-04,
325,-4.687500e-04,
326,-4.687500e-04,
327,-6.250000e-04,
328,-6.250000e-04,
329,-6.250000e-04,
330,-6.250000e-04,
331,-6.250000e-04,
332,-4.687500e-04,
333,-6.250000e-04,
334,-4.687500e-04,
335,-6.250000e-04,
336,-6.250000e-04,
337,-4.687500e-04,
338,-3.125000e-04,
339,-4.687500e-04,
340,-7.812500e-04,
341,-6.250000e-04,
342,-4.687500e-04,
343,-4.687500e-04,
344,-6.250000e-04,
345,-7.812500e-04,
346,-6.250000e-04,
347,-4.687500e-04,
348,-4.687500e-04,
349,-4.687500e-04,
350,-4.687500e-04,
351,-6.250000e-04,
352,-4.687500e-04,
353,-6.250000e-04,
354,-4.687500e-04,
355,-6.250000e-04,
356,-4.687500e-04,
357,-9.375000e-04,
358,-4.687500e-04,
359,-3.125000e-04,
360,-3.125000e-04,
361,-4.687500e-04,
362,-6.250000e-04,
363,-9.375000e-04,
364,-4.687500e-04,
365,-7.812500e-04,
366,-6.250000e-04,
367,-6.250000e-04,
368,-6.250000e-04,
369,-6.250000e-04,
370,-6.250000e-04,
371,-3.125000e-04,
372,-6.250000e-04,
373,-6.250000e-04,
374,-6.250000e-04,
375,-7.812500e-04,
376,-7.812500e-04,
377,-7.812500e-04,
378,-6.250000e-04,
379,-4.687500e-04,
380,-7.812500e-04,
381,-9.375000e-04,
382,-7.812500e-04,
383,-6.250000e-04,
384,-4.687500e-04,
385,-4.687500e-04,
386,-6.250000e-04,
387,-7.812500e-04,
388,-4.687500e-04,
389,-4.687500e-04,
390,-7.812500e-04,
391,-7.812500e-04,
392,-9.375000e-04,
393,-7.812500e-04,
394,-7.812500e-04,
395,-6.250000e-04,
396,-4.687500e-04,
397,-4.687500e-04,
398,-1.562500e-04,
399,-6.250000e-04,
400,-6.250000e-04,
401,-6.250000e-04,
402,-6.250000e-04,
403,-9.375000e-04,
404,-6.250000e-04,
405,-9.375000e-04,
406,-6.250000e-04,
407,-7.812500e-04,
408,-7.812500e-04,
409,-6.250000e-04,
410,-6.250000e-04,
411,-4.687500e-04,
412,-7.812500e-04,
413,-9.375000e-04,
414,-4.687500e-04,
415,1.562500e-04,
416,-4.687500e-04,
417,-4.687500e-04,
418,-6.250000e-04,
419,-4.687500e-04,
420,-7.812500e-04,
421,-6.250000e-04,
422,-4.687500e-04,
423,-4.687500e-04,
424,-4.687500e-04,
425,-3.125000e-04,
426,-4.687500e-04,
427,-6.250000e-04,
428,-4.687500e-04,
429,-7.812500e-04,
430,-4.687500e-04,
431,-4.687500e-04,
432,-9.375000e-04,
433,-9.375000e-04,
434,-7.812500e-04,
435,-6.250000e-04,
436,-4.687500e-04,
437,-4.687500e-04,
438,-4.687500e-04,
439,-3.125000e-04,
440,-6.250000e-04,
441,-4.687500e-04,
442,-6.250000e-04,
443,-4.687500e-04,
444,-6.250000e-04,
445,-6.250000e-04,
446,-6.250000e-04,
447,-4.687500e-04,
448,-9.375000e-04,
449,-9.375000e-04,
450,-6.250000e-04,
451,-7.812500e-04,
452,-9.375000e-04,
453,-6.250000e-04,
454,-7.812500e-04,
455,-6.250000e-04,
456,-7.812500e-04,
457,-6.250000e-04,
458,-6.250000e-04,
459,-6.250000e-04,
460,-3.125000e-04,
461,-6.250000e-04,
462,-3.125000e-04,
463,-4.687500e-04,
464,-4.687500e-04,
465,-6.250000e-04,
466,-3.125000e-04,
467,-6.250000e-04,
468,-6.250000e-04,
469,-7.812500e-04,
470,-7.812500e-04,
471,-7.812500e-04,
472,-9.375000e-04,
473,-6.250000e-04,
474,-4.687500e-04,
475,-7.812500e-04,
476,-6.250000e-04,
477,-7.812500e-04,
478,-7.812500e-04,
479,-6.250000e-04,
480,-9.375000e-04,
481,-6.250000e-04,
482,-4.687500e-04,
483,-6.250000e-04,
484,-6.250000e-04,
485,-4.687500e-04,
486,-4.687500e-04,
487,-6.250000e-04,
488,-6.250000e-04,
489,-3.125000e-04,
490,-6.250000e-04,
491,-7.812500e-04,
492,-7.812500e-04,
493,-6.250000e-04,
494,-6.250000e-04,
495,-3.125000e-04,
496,-7.812500e-04,
497,-6.250000e-04,
498,-6.250000e-04,
499,-4.687500e-04,
500,-6.250000e-04,
501,-4.687500e-04,
502,-4.687500e-04,
503,-6.250000e-04,
504,-4.687500e-04,
505,-3.125000e-04,
506,-6.250000e-04,
507,-6.250000e-04,
508,-7.812500e-04,
509,-6.250000e-04,
510,-9.375000e-04,
511,-9.375000e-04,
512,-9.375000e-04,
513,-7.812500e-04,
514,-9.375000e-04,
515,-6.250000e-04,
516,-7.812500e-04,
517,-6.250000e-04,
518,-4.687500e-04,
519,-6.250000e-04,
520,-4.687500e-04,
521,-7.812500e-04,
522,-6.250000e-04,
523,-7.812500e-04,
524,-9.375000e-04,
525,-7.812500e-04,
526,-4.687500e-04,
527,-7.812500e-04,
528,-7.812500e-04,
529,-7.812500e-04,
530,-6.250000e-04,
531,-9.375000e-04,
532,-6.250000e-04,
533,-6.250000e-04,
534,-9.375000e-04,
535,-4.687500e-04,
536,-7.812500e-04,
537,-7.812500e-04,
538,-9.375000e-04,
539,-9.375000e-04,
540,-6.250000e-04,
541,-7.812500e-04,
542,-9.375000e-04,
543,-6.250000e-04,
544,-7.812500e-04,
545,-6.250000e-04,
546,-6.250000e-04,
547,-6.250000e-04,
548,-6.250000e-04,
549,-7.812500e-04,
550,-4.687500e-04,
551,-6.250000e-04,
552,-7.812500e-04,
553,-7.812500e-04,
554,-4.687500e-04,
555,-6.250000e-04,
556,-4.687500e-04,
557,-6.250000e-04,
558,-6.250000e-04,
559,-6.250000e-04,
560,-6.250000e-04,
561,-7.812500e-04,
562,-4.687500e-04,
563,-3.125000e-04,
564,-4.687500e-04,
565,-4.687500e-04,
566,-4.687500e-04,
567,-6.250000e-04,
568,-7.812500e-04,
569,-7.812500e-04,
570,-6.250000e-04,
571,-3.125000e-04,
572,-4.687500e-04,
573,-4.687500e-04,
574,-9.375000e-04,
575,-4.687500e-04,
576,-3.125000e-04,
577,-4.687500e-04,
578,-6.250000e-04,
579,-6.250000e-04,
580,-4.687500e-04,
581,-4.687500e-04,
582,-4.687500e-04,
583,-4.687500e-04,
584,-4.687500e-04,
585,-9.375000e-04,
586,-9.375000e-04,
587,-6.250000e-04,
588,-6.250000e-04,
589,-6.250000e-04,
590,-6.250000e-04,
591,-7.812500e-04,
592,-4.687500e-04,
593,-4.687500e-04,
594,-4.687500e-04,
595,-3.125000e-04,
596,-6.250000e-04,
597,-6.250000e-04,
598,-4.687500e-04,
599,-6.250000e-04,
600,-6.250000e-04,
601,-6.250000e-04,
602,-6.250000e-04,
603,-4.687500e-04,
604,-4.687500e-04,
605,-6.250000e-04,
606,-6.250000e-04,
607,-7.812500e-04,
608,-3.125000e-04,
609,-4.687500e-04,
610,-4.687500e-04,
611,-4.687500e-04,
612,-6.250000e-04,
613,-6.250000e-04,
614,-4.687500e-04,
615,-6.250000e-04,
616,-4.687500e-04,
617,-3.125000e-04,
618,-3.125000e-04,
619,-6.250000e-04,
620,-1.562500e-04,
621,-3.125000e-04,
622,-3.125000e-04,
623,-6.250000e-04,
624,-4.687500e-04,
625,-7.812500e-04,
626,-4.687500e-04,
627,-6.250000e-04,
628,-4.687500e-04,
629,-3.125000e-04,
630,-4.687500e-04,
631,-6.250000e-04,
632,-6.250000e-04,
633,-4.687500e-04,
634,-3.125000e-04,
635,-3.125000e-04,
636,-4.687500e-04,
637,-7.812500e-04,
638,-4.687500e-04,
639,-3.125000e-04,
640,-4.687500e-04,
641,-4.687500e-04,
642,-3.125000e-04,
643,-4.687500e-04,
644,-4.687500e-04,
645,-6.250000e-04,
646,-6.250000e-04,
647,-7.812500e-04,
648,-4.687500e-04,
649,-6.250000e-04,
650,-4.687500e-04,
651,-4.687500e-04,
652,-7.812500e-04,
653,-4.687500e-04,
654,-6.250000e-04,
655,-7.812500e-04,
656,-7.812500e-04,
657,-9.375000e-04,
658,-1.093750e-03,
659,-7.812500e-04,
660,-6.250000e-04,
661,-6.250000e-04,
662,-4.687500e-04,
663,-4.687500e-04,
664,-4.687500e-04,
665,-4.687500e-04,
666,-9.375000e-04,
667,-6.250000e-04,
668,-9.375000e-04,
669,-7.812500e-04,
670,-7.812500e-04,
671,-3.125000e-04,
672,-7.812500e-04,
673,-6.250000e-04,
674,-7.812500e-04,
675,-7.812500e-04,
676,-4.687500e-04,
677,-3.125000e-04,
678,-4.687500e-04,
679,-6.250000e-04,
680,-6.250000e-04,
681,-4.687500e-04,
682,-7.812500e-04,
683,-4.687500e-04,
684,-4.687500e-04,
685,-7.812500e-04,
686,-6.250000e-04,
687,-6.250000e-04,
688,-4.687500e-04,
689,-6.250000e-04,
690,-6.250000e-04,
691,-4.687500e-04,
692,-4.687500e-04,
693,-4.687500e-04,
694,-7.812500e-04,
695,-6.250000e-04,
696,-4.687500e-04,
697,-9.375000e-04,
698,-6.250000e-04,
699,-6.250000e-04,
700,-7.812500e-04,
701,-7.812500e-04,
702,-4.687500e-04,
703,-9.375000e-04,
704,-7.812500e-04,
705,-7.812500e-04,
706,-4.687500e-04,
707,-6.250000e-04,
708,-4.687500e-04,
709,-9.375000e-04,
710,-7.812500e-04,
711,-4.687500e-04,
712,-7.812500e-04,
713,-7.812500e-04,
714,-6.250000e-04,
715,-6.250000e-04,
716,-7.812500e-04,
717,-6.250000e-04,
718,-4.687500e-04,
719,-4.687500e-04,
720,-7.812500e-04,
721,-7.812500e-04,
722,-7.812500e-04,
723,-9.375000e-04,
724,-6.250000e-04,
725,-7.812500e-04,
726,-6.250000e-04,
727,-4.687500e-04,
728,-7.812500e-04,
729,-6.250000e-04,
730,-7.812500e-04,
731,-6.250000e-04,
732,-9.375000e-04,
733,-9.375000e-04,
734,-6.250000e-04,
735,-6.250000e-04,
736,-7.812500e-04,
737,-7.812500e-04,
738,-7.812500e-04,
739,-6.250000e-04,
740,-6.250000e-04,
741,-6.250000e-04,
742,-7.812500e-04,
743,-3.125000e-04,
744,-6.250000e-04,
745,-6.250000e-04,
746,-6.250000e-04,
747,-6.250000e-04,
748,-6.250000e-04,
749,-6.250000e-04,
750,-3.125000e-04,
751,-4.687500e-04,
752,-6.250000e-04,
753,-1.093750e-03,
754,-7.812500e-04,
755,-9.375000e-04,
756,-9.375000e-04,
757,-6.250000e-04,
758,-4.687500e-04,
759,-9.375000e-04,
760,-6.250000e-04,
761,-4.687500e-04,
762,-6.250000e-04,
763,-6.250000e-04,
764,-6.250000e-04,
765,-4.687500e-04,
766,-6.250000e-04,
767,-4.687500e-04,
768,-7.812500e-04,
769,-6.250000e-04,
770,-6.250000e-04,
771,-7.812500e-04,
772,-4.687500e-04,
773,-4.687500e-04,
774,-6.250000e-04,
775,-6.250000e-04,
776,-7.812500e-04,
777,-6.250000e-04,
778,-4.687500e-04,
779,-3.125000e-04,
780,-4.687500e-04,
781,-6.250000e-04,
782,-4.687500e-04,
783,-6.250000e-04,
784,-6.250000e-04,
785,-4.687500e-04,
786,-4.687500e-04,
787,-3.125000e-04,
788,-6.250000e-04,
789,-6.250000e-04,
790,-4.687500e-04,
791,-6.250000e-04,
792,-4.687500e-04,
793,-6.250000e-04,
794,-4.687500e-04,
795,-6.250000e-04,
796,-4.687500e-04,
797,-6.250000e-04,
798,-6.250000e-04,
799,-7.812500e-04,
800,-6.250000e-04,
801,-7.812500e-04,
802,-7.812500e-04,
803,-9.375000e-04,
804,-4.687500e-04,
805,-7.812500e-04,
806,-4.687500e-04,
807,-4.687500e-04,
808,-6.250000e-04,
809,-6.250000e-04,
810,-7.812500e-04,
811,-7.812500e-04,
812,-4.687500e-04,
813,-7.812500e-04,
814,-9.375000e-04,
815,-6.250000e-04,
816,-9.375000e-04,
817,-7.812500e-04,
818,-6.250000e-04,
819,-7.812500e-04,
820,-9.375000e-04,
821,-6.250000e-04,
822,-6.250000e-04,
823,-6.250000e-04,
824,-6.250000e-04,
825,-7.812500e-04,
826,-6.250000e-04,
827,-1.093750e-03,
828,-7.812500e-04,
829,-9.375000e-04,
830,-7.812500e-04,
831,-4.687500e-04,
832,-6.250000e-04,
833,-4.687500e-04,
834,-7.812500e-04,
835,-9.375000e-04,
836,-1.562500e-04,
837,-3.125000e-04,
838,-1.093750e-03,
839,-9.375000e-04,
840,-4.687500e-04,
841,-4.687500e-04,
842,-7.812500e-04,
843,-6.250000e-04,
844,-9.375000e-04,
845,-4.687500e-04,
846,-6.250000e-04,
847,-4.687500e-04,
848,-4.687500e-04,
849,-6.250000e-04,
850,-9.375000e-04,
851,-6.250000e-04,
852,-6.250000e-04,
853,-4.687500e-04,
854,-3.125000e-04,
855,-4.687500e-04,
856,-4.687500e-04,
857,-4.687500e-04,
858,-6.250000e-04,
859,-4.687500e-04,
860,-1.562500e-04,
861,-4.687500e-04,
862,-4.687500e-04,
863,-7.812500e-04,
864,-3.125000e-04,
865,-9.375000e-04,
866,-6.250000e-04,
867,-4.687500e-04,
868,-6.250000e-04,
869,-7.812500e-04,
870,-6.250000e-04,
871,-4.687500e-04,
872,-7.812500e-04,
873,-6.250000e-04,
874,-4.687500e-04,
875,-7.812500e-04,
876,-6.250000e-04,
877,-7.812500e-04,
878,-6.250000e-04,
879,-7.812500e-04,
880,-4.687500e-04,
881,-9.375000e-04,
882,-4.687500e-04,
883,-1.562500e-04,
884,-4.687500e-04,
885,-6.250000e-04,
886,-6.250000e-04,
887,-6.250000e-04,
888,-7.812500e-04,
889,-9.375000e-04,
890,-6.250000e-04,
891,-6.250000e-04,
892,-4.687500e-04,
893,-4.687500e-04,
894,-6.250000e-04,
895,-6.250000e-04,
896,-1.093750e-03,
897,-1.093750e-03,
898,-9.375000e-04,
899,-7.812500e-04,
900,-7.812500e-04,
901,-4.687500e-04,
902,-6.250000e-04,
903,-7.812500e-04,
904,-4.687500e-04,
905,-9.375000e-04,
906,-7.812500e-04,
907,-9.375000e-04,
908,-7.812500e-04,
909,-7.812500e-04,
910,-7.812500e-04,
911,-4.687500e-04,
912,-6.250000e-04,
913,-6.250000e-04,
914,-3.125000e-04,
915,-7.812500e-04,
916,-4.687500e-04,
917,-6.250000e-04,
918,-7.812500e-04,
919,-3.125000e-04,
920,-3.125000e-04,
921,-3.125000e-04,
922,-4.687500e-04,
923,-7.812500e-04,
924,-7.812500e-04,
925,-7.812500e-04,
926,-1.562500e-04,
927,-3.125000e-04,
928,-4.687500e-04,
929,-4.687500e-04,
930,-4.687500e-04,
931,-9.375000e-04,
932,-4.687500e-04,
933,-4.687500e-04,
934,-7.812500e-04,
935,-4.687500e-04,
936,-6.250000e-04,
937,-6.250000e-04,
938,-6.250000e-04,
939,-4.687500e-04,
940,-4.687500e-04,
941,-7.812500e-04,
942,-4.687500e-04,
943,-7.812500e-04,
944,-7.812500e-04,
945,-6.250000e-04,
946,-4.687500e-04,
947,-4.687500e-04,
948,-6.250000e-04,
949,-7.812500e-04,
950,-6.250000e-04,
951,-7.812500e-04,
952,-6.250000e-04,
953,-7.812500e-04,
954,-4.687500e-04,
955,-4.687500e-04,
956,-6.250000e-04,
957,-9.375000e-04,
958,-6.250000e-04,
959,-7.812500e-04,
960,-1.093750e-03,
961,-6.250000e-04,
962,-6.250000e-04,
963,-7.812500e-04,
964,-6.250000e-04,
965,-9.375000e-04,
966,-6.250000e-04,
967,-4.687500e-04,
968,-7.812500e-04,
969,-9.375000e-04,
970,-9.375000e-04,
971,-7.812500e-04,
972,-1.093750e-03,
973,-7.812500e-04,
974,-9.375000e-04,
975,-4.687500e-04,
976,-7.812500e-04,
977,-7.812500e-04,
978,-9.375000e-04,
979,-7.812500e-04,
980,-7.812500e-04,
981,-6.250000e-04,
982,-6.250000e-04,
983,-4.687500e-04,
984,-4.687500e-04,
985,-4.687500e-04,
986,-7.812500e-04,
987,-7.812500e-04,
988,-6.250000e-04,
989,-1.093750e-03,
990,-1.093750e-03,
991,-7.812500e-04,
992,-7.812500e-04,
993,-6.250000e-04,
994,-6.250000e-04,
995,-6.250000e-04,
996,-7.812500e-04,
997,-9.375000e-04,
998,-3.125000e-04,
999,-6.250000e-04,
1000,-7.812500e-04,
1001,-4.687500e-04,
1002,-6.250000e-04,
1003,-4.687500e-04,
1004,-7.812500e-04,
1005,-9.375000e-04,
1006,-6.250000e-04,
1007,-6.250000e-04,
1008,-7.812500e-04,
1009,-4.687500e-04,
1010,-6.250000e-04,
1011,-4.687500e-04,
1012,-6.250000e-04,
1013,-4.687500e-04,
1014,-3.125000e-04,
1015,-9.375000e-04,
1016,-6.250000e-04,
1017,-6.250000e-04,
1018,-4.687500e-04,
1019,-4.687500e-04,
1020,-6.250000e-04,
1021,-9.375000e-04,
1022,-6.250000e-04,
1023,-7.812500e-04,
1024,-6.250000e-04,
1025,-6.250000e-04,
1026,-4.687500e-04,
1027,-7.812500e-04,
1028,-3.125000e-04,
1029,-4.687500e-04,
1030,-6.250000e-04,
1031,-4.687500e-04,
1032,-7.812500e-04,
1033,-6.250000e-04,
1034,-6.250000e-04,
1035,-7.812500e-04,
1036,-6.250000e-04,
1037,-6.250000e-04,
1038,-4.687500e-04,
1039,-7.812500e-04,
1040,-9.375000e-04,
1041,-7.812500e-04,
1042,-9.375000e-04,
1043,-7.812500e-04,
1044,-7.812500e-04,
1045,-9.375000e-04,
1046,-6.250000e-04,
1047,-3.125000e-04,
1048,-7.812500e-04,
1049,-6.250000e-04,
1050,-4.687500e-04,
1051,-4.687500e-04,
