laser_day1/2024-03-08 F(t) Al target 1/Newfile21.csv

X,CH1,Start,Increment,
Sequence,Volt,-5.999999e-04,2.000000e-07,
0,-1.718750e-03,
1,-1.875000e-03,
2,-1.875000e-03,
3,-1.718750e-03,
4,-1.718750e-03,
5,-1.718750e-03,
6,-1.406250e-03,
7,-1.718750e-03,
8,-1.562500e-03,
9,-1.875000e-03,
10,-2.031250e-03,
11,-2.031250e-03,
12,-1.406250e-03,
13,-1.875000e-03,
14,-1.718750e-03,
15,-2.031250e-03,
16,-1.875000e-03,
17,-1.718750e-03,
18,-1.875000e-03,
19,-1.718750e-03,
20,-1.562500e-03,
21,-1.562500e-03,
22,-1.875000e-03,
23,-2.031250e-03,
24,-1.875000e-03,
25,-1.718750e-03,
26,-2.031250e-03,
27,-1.718750e-03,
28,-1.718750e-03,
29,-2.031250e-03,
30,-1.718750e-03,
31,-1.718750e-03,
32,-1.875000e-03,
33,-1.875000e-03,
34,-1.875000e-03,
35,-1.875000e-03,
36,-1.562500e-03,
37,-1.718750e-03,
38,-2.031250e-03,
39,-2.031250e-03,
40,-1.718750e-03,
41,-1.718750e-03,
42,-1.562500e-03,
43,-1.718750e-03,
44,-1.875000e-03,
45,-2.031250e-03,
46,-1.875000e-03,
47,-2.031250e-03,
48,-1.875000e-03,
49,-1.562500e-03,
50,-1.718750e-03,
51,-1.875000e-03,
52,-1.718750e-03,
53,-1.562500e-03,
54,-1.718750e-03,
55,-1.718750e-03,
56,-1.718750e-03,
57,-1.562500e-03,
58,-1.875000e-03,
59,-1.718750e-03,
60,-1.875000e-03,
61,-1.718750e-03,
62,-1.718750e-03,
63,-1.562500e-03,
64,-1.875000e-03,
65,-1.562500e-03,
66,-1.562500e-03,
67,-1.562500e-03,
68,-1.250000e-03,
69,-1.718750e-03,
70,-1.562500e-03,
71,-1.562500e-03,
72,-1.718750e-03,
73,-1.875000e-03,
74,-1.562500e-03,
75,-1.875000e-03,
76,-1.562500e-03,
77,-2.031250e-03,
78,-1.562500e-03,
79,-1.718750e-03,
80,-1.562500e-03,
81,-1.718750e-03,
82,-1.718750e-03,
83,-1.562500e-03,
84,-1.406250e-03,
85,-1.875000e-03,
86,-1.562500e-03,
87,-2.031250e-03,
88,-2.031250e-03,
89,-1.718750e-03,
90,-1.718750e-03,
91,-1.718750e-03,
92,-1.718750e-03,
93,-1.562500e-03,
94,-1.406250e-03,
95,-1.718750e-03,
96,-2.031250e-03,
97,-1.562500e-03,
98,-1.562500e-03,
99,-1.718750e-03,
100,-1.875000e-03,
101,-1.562500e-03,
102,-2.031250e-03,
103,-1.875000e-03,
104,-1.718750e-03,
105,-1.718750e-03,
106,-2.031250e-03,
107,-2.031250e-03,
108,-1.875000e-03,
109,-2.031250e-03,
110,-2.031250e-03,
111,-2.031250e-03,
112,-2.187500e-03,
113,-1.718750e-03,
114,-1.718750e-03,
115,-1.718750e-03,
116,-1.875000e-03,
117,-1.718750e-03,
118,-1.718750e-03,
119,-2.031250e-03,
120,-2.031250e-03,
121,-1.718750e-03,
122,-1.718750e-03,
123,-1.875000e-03,
124,-1.875000e-03,
125,-1.718750e-03,
126,-1.562500e-03,
127,-1.875000e-03,
128,-2.343750e-03,
129,-1.718750e-03,
130,-1.875000e-03,
131,-1.718750e-03,
132,-1.562500e-03,
133,-1.875000e-03,
134,-1.718750e-03,
135,-1.875000e-03,
136,-2.031250e-03,
137,-1.875000e-03,
138,-1.562500e-03,
139,-1.718750e-03,
140,-1.562500e-03,
141,-2.031250e-03,
142,-1.562500e-03,
143,-1.875000e-03,
144,-1.718750e-03,
145,-1.562500e-03,
146,-1.718750e-03,
147,-1.875000e-03,
148,-1.718750e-03,
149,-2.031250e-03,
150,-1.718750e-03,
151,-1.875000e-03,
152,-1.718750e-03,
153,-2.031250e-03,
154,-1.718750e-03,
155,-1.875000e-03,
156,-1.875000e-03,
157,-1.718750e-03,
158,-1.562500e-03,
159,-1.562500e-03,
160,-2.031250e-03,
161,-1.875000e-03,
162,-1.562500e-03,
163,-1.718750e-03,
164,-1.562500e-03,
165,-1.718750e-03,
166,-1.718750e-03,
167,-1.718750e-03,
168,-2.031250e-03,
169,-1.562500e-03,
170,-1.562500e-03,
171,-1.718750e-03,
172,-1.875000e-03,
173,-1.562500e-03,
174,-1.718750e-03,
175,-2.031250e-03,
176,-1.718750e-03,
177,-1.562500e-03,
178,-2.031250e-03,
179,-1.875000e-03,
180,-1.718750e-03,
181,-1.875000e-03,
182,-2.031250e-03,
183,-1.562500e-03,
184,-1.562500e-03,
185,-1.875000e-03,
186,-1.875000e-03,
187,-1.875000e-03,
188,-2.187500e-03,
189,-1.875000e-03,
190,-1.875000e-03,
191,-1.875000e-03,
192,-1.875000e-03,
193,-1.562500e-03,
194,-1.875000e-03,
195,-2.031250e-03,
196,-1.562500e-03,
197,-2.187500e-03,
198,-1.875000e-03,
199,-1.875000e-03,
200,-1.718750e-03,
201,-1.718750e-03,
202,-1.718750e-03,
203,-1.718750e-03,
204,-1.562500e-03,
205,-1.718750e-03,
206,-1.875000e-03,
207,-1.718750e-03,
208,-1.562500e-03,
209,-1.562500e-03,
210,-2.031250e-03,
211,-1.718750e-03,
212,-1.718750e-03,
213,-1.875000e-03,
214,-1.875000e-03,
215,-1.562500e-03,
216,-1.875000e-03,
217,-1.718750e-03,
218,-1.562500e-03,
219,-1.718750e-03,
220,-2.031250e-03,
221,-1.562500e-03,
222,-2.031250e-03,
223,-1.562500e-03,
224,-1.562500e-03,
225,-1.875000e-03,
226,-1.875000e-03,
227,-1.562500e-03,
228,-1.718750e-03,
229,-1.562500e-03,
230,-1.562500e-03,
231,-1.562500e-03,
232,-1.875000e-03,
233,-1.562500e-03,
234,-2.031250e-03,
235,-1.875000e-03,
236,-1.718750e-03,
237,-1.718750e-03,
238,-1.875000e-03,
239,-2.187500e-03,
240,-1.718750e-03,
241,-1.875000e-03,
242,-1.875000e-03,
243,-1.562500e-03,
244,-1.718750e-03,
245,-1.875000e-03,
246,-1.875000e-03,
247,-2.031250e-03,
248,-2.187500e-03,
249,-2.031250e-03,
250,-2.031250e-03,
251,-1.875000e-03,
252,-1.875000e-03,
253,-1.875000e-03,
254,-2.031250e-03,
255,-1.718750e-03,
256,-2.031250e-03,
257,-2.187500e-03,
258,-1.875000e-03,
259,-1.875000e-03,
260,-1.875000e-03,
261,-1.875000e-03,
262,-1.718750e-03,
263,-1.718750e-03,
264,-1.718750e-03,
265,-1.718750e-03,
266,-1.875000e-03,
267,-1.718750e-03,
268,-2.187500e-03,
269,-1.875000e-03,
270,-1.718750e-03,
271,-1.875000e-03,
272,-1.875000e-03,
273,-2.187500e-03,
274,-2.031250e-03,
275,-1.875000e-03,
276,-1.875000e-03,
277,-1.718750e-03,
278,-1.406250e-03,
279,-1.875000e-03,
280,-1.718750e-03,
281,-1.718750e-03,
282,-1.718750e-03,
283,-1.406250e-03,
284,-1.562500e-03,
285,-1.875000e-03,
286,-1.718750e-03,
287,-1.875000e-03,
288,-1.562500e-03,
289,-1.250000e-03,
290,-1.718750e-03,
291,-1.875000e-03,
292,-1.562500e-03,
293,-1.718750e-03,
294,-1.718750e-03,
295,-2.031250e-03,
296,-1.562500e-03,
297,-1.875000e-03,
298,-2.031250e-03,
299,-1.562500e-03,
300,-1.562500e-03,
301,-1.718750e-03,
302,-1.718750e-03,
303,-1.718750e-03,
304,-1.718750e-03,
305,-1.718750e-03,
306,-1.875000e-03,
307,-1.718750e-03,
308,-1.718750e-03,
309,-1.562500e-03,
310,-1.718750e-03,
311,-1.562500e-03,
312,-1.562500e-03,
313,-1.562500e-03,
314,-2.031250e-03,
315,-2.031250e-03,
316,-1.718750e-03,
317,-1.875000e-03,
318,-1.718750e-03,
319,-1.875000e-03,
320,-1.718750e-03,
321,-1.875000e-03,
322,-2.031250e-03,
323,-1.718750e-03,
324,-1.406250e-03,
325,-2.187500e-03,
326,-1.875000e-03,
327,-2.031250e-03,
328,-2.031250e-03,
329,-1.875000e-03,
330,-1.718750e-03,
331,-2.031250e-03,
332,-1.875000e-03,
333,-1.718750e-03,
334,-1.875000e-03,
335,-2.031250e-03,
336,-1.718750e-03,
337,-2.031250e-03,
338,-2.187500e-03,
339,-1.875000e-03,
340,-1.875000e-03,
341,-1.406250e-03,
342,-2.031250e-03,
343,-2.031250e-03,
344,-1.718750e-03,
345,-1.875000e-03,
346,-2.031250e-03,
347,-2.031250e-03,
348,-2.031250e-03,
349,-2.187500e-03,
350,-1.875000e-03,
351,-1.718750e-03,
352,-1.562500e-03,
353,-1.718750e-03,
354,-1.718750e-03,
355,-2.031250e-03,
356,-1.562500e-03,
357,-1.875000e-03,
358,-1.718750e-03,
359,-1.718750e-03,
360,-1.562500e-03,
361,-1.406250e-03,
362,-1.875000e-03,
363,-1.562500e-03,
364,-1.562500e-03,
365,-2.031250e-03,
366,-1.875000e-03,
367,-1.875000e-03,
368,-1.718750e-03,
369,-1.875000e-03,
370,-2.031250e-03,
371,-2.031250e-03,
372,-1.875000e-03,
373,-1.875000e-03,
374,-2.031250e-03,
375,-1.718750e-03,
376,-1.562500e-03,
377,-1.562500e-03,
378,-1.406250e-03,
379,-1.562500e-03,
380,-1.718750e-03,
381,-1.875000e-03,
382,-1.718750e-03,
383,-1.562500e-03,
384,-1.718750e-03,
385,-1.875000e-03,
386,-1.562500e-03,
387,-1.718750e-03,
388,-1.718750e-03,
389,-1.875000e-03,
390,-1.875000e-03,
391,-1.875000e-03,
392,-1.718750e-03,
393,-2.187500e-03,
394,-1.875000e-03,
395,-2.031250e-03,
396,-2.187500e-03,
397,-1.875000e-03,
398,-2.031250e-03,
399,-2.031250e-03,
400,-2.031250e-03,
401,-1.875000e-03,
402,-1.875000e-03,
403,-1.562500e-03,
404,-1.562500e-03,
405,-1.875000e-03,
406,-1.562500e-03,
407,-2.031250e-03,
408,-1.718750e-03,
409,-2.187500e-03,
410,-1.562500e-03,
411,-2.031250e-03,
412,-1.718750e-03,
413,-1.718750e-03,
414,-1.875000e-03,
415,-1.718750e-03,
416,-2.187500e-03,
417,-1.875000e-03,
418,-1.718750e-03,
419,-1.718750e-03,
420,-2.031250e-03,
421,-1.718750e-03,
422,-1.718750e-03,
423,-1.875000e-03,
424,-1.718750e-03,
425,-1.406250e-03,
426,-1.718750e-03,
427,-2.031250e-03,
428,-1.875000e-03,
429,-1.718750e-03,
430,-1.718750e-03,
431,-1.875000e-03,
432,-2.031250e-03,
433,-1.875000e-03,
434,-1.875000e-03,
435,-1.875000e-03,
436,-1.406250e-03,
437,-1.718750e-03,
438,-1.718750e-03,
439,-1.718750e-03,
440,-1.718750e-03,
441,-1.562500e-03,
442,-2.187500e-03,
443,-1.875000e-03,
444,-1.875000e-03,
445,-1.875000e-03,
446,-1.718750e-03,
447,-1.875000e-03,
448,-2.031250e-03,
449,-2.031250e-03,
450,-1.562500e-03,
451,-1.875000e-03,
452,-2.031250e-03,
453,-2.187500e-03,
454,-2.187500e-03,
455,-2.187500e-03,
456,-2.031250e-03,
457,-1.875000e-03,
458,-1.718750e-03,
459,-2.187500e-03,
460,-2.031250e-03,
461,-1.875000e-03,
462,-1.718750e-03,
463,-2.031250e-03,
464,-1.718750e-03,
465,-1.875000e-03,
466,-1.562500e-03,
467,-2.187500e-03,
468,-2.031250e-03,
469,-2.187500e-03,
470,-1.562500e-03,
471,-1.562500e-03,
472,-1.875000e-03,
473,-1.875000e-03,
474,-1.718750e-03,
475,-2.031250e-03,
476,-1.875000e-03,
477,-1.562500e-03,
478,-2.187500e-03,
479,-1.875000e-03,
480,-1.718750e-03,
481,-1.718750e-03,
482,-1.875000e-03,
483,-1.875000e-03,
484,-1.718750e-03,
485,-1.562500e-03,
486,-1.406250e-03,
487,-1.875000e-03,
488,-2.031250e-03,
489,-1.875000e-03,
490,-1.718750e-03,
491,-1.875000e-03,
492,-1.718750e-03,
493,-1.875000e-03,
494,-2.031250e-03,
495,-2.031250e-03,
496,-1.562500e-03,
497,-2.031250e-03,
498,-1.718750e-03,
499,-1.718750e-03,
500,-1.406250e-03,
501,-2.031250e-03,
502,-2.031250e-03,
503,-2.031250e-03,
504,-2.031250e-03,
505,-1.875000e-03,
506,-2.031250e-03,
507,-2.187500e-03,
508,-2.031250e-03,
509,-1.875000e-03,
510,-1.875000e-03,
511,-2.031250e-03,
512,-1.875000e-03,
513,-2.031250e-03,
514,-2.031250e-03,
515,-1.875000e-03,
516,-1.718750e-03,
517,-1.562500e-03,
518,-1.406250e-03,
519,-1.562500e-03,
520,-1.562500e-03,
521,-1.718750e-03,
522,-1.406250e-03,
523,-1.718750e-03,
524,-1.875000e-03,
525,-1.875000e-03,
526,-1.562500e-03,
527,-1.875000e-03,
528,-1.718750e-03,
529,-1.562500e-03,
530,-1.718750e-03,
531,-1.875000e-03,
532,-1.875000e-03,
533,-1.562500e-03,
534,-1.562500e-03,
535,-1.562500e-03,
536,-2.031250e-03,
537,-1.562500e-03,
538,-1.718750e-03,
539,-2.031250e-03,
540,-1.875000e-03,
541,-2.187500e-03,
542,-2.187500e-03,
543,-1.875000e-03,
544,-2.031250e-03,
545,-2.343750e-03,
546,-1.718750e-03,
547,-1.718750e-03,
548,-2.031250e-03,
549,-2.031250e-03,
550,-1.875000e-03,
551,-1.718750e-03,
552,-1.718750e-03,
553,-2.031250e-03,
554,-2.031250e-03,
555,-2.031250e-03,
556,-1.718750e-03,
557,-1.718750e-03,
558,-1.718750e-03,
559,-1.718750e-03,
560,-1.875000e-03,
561,-1.875000e-03,
562,-1.562500e-03,
563,-1.562500e-03,
564,-1.718750e-03,
565,-1.875000e-03,
566,-1.718750e-03,
567,-2.031250e-03,
568,-1.875000e-03,
569,-1.875000e-03,
570,-1.875000e-03,
571,-1.875000e-03,
572,-2.031250e-03,
573,-1.718750e-03,
574,-1.718750e-03,
575,-2.031250e-03,
576,-1.875000e-03,
577,-2.031250e-03,
578,-1.718750e-03,
579,-2.187500e-03,
580,-1.875000e-03,
581,-2.031250e-03,
582,-1.875000e-03,
583,-2.031250e-03,
584,-2.031250e-03,
585,-2.031250e-03,
586,-1.875000e-03,
587,-2.031250e-03,
588,-1.406250e-03,
589,-1.718750e-03,
590,-1.875000e-03,
591,-1.875000e-03,
592,-1.562500e-03,
593,-1.406250e-03,
594,-1.875000e-03,
595,-1.718750e-03,
596,-1.562500e-03,
597,-2.031250e-03,
598,-1.562500e-03,
599,-1.718750e-03,
600,-1.562500e-03,
601,-1.718750e-03,
602,-2.031250e-03,
603,-1.875000e-03,
604,-1.875000e-03,
605,-1.718750e-03,
606,-2.031250e-03,
607,-1.875000e-03,
608,-1.875000e-03,
609,-1.718750e-03,
610,-2.031250e-03,
611,-2.031250e-03,
612,-1.718750e-03,
613,-1.718750e-03,
614,-2.031250e-03,
615,-1.718750e-03,
616,-1.875000e-03,
617,-1.718750e-03,
618,-1.406250e-03,
619,-1.406250e-03,
620,-1.562500e-03,
621,-1.718750e-03,
622,-1.718750e-03,
623,-1.562500e-03,
624,-2.031250e-03,
625,-1.875000e-03,
626,-1.718750e-03,
627,-1.718750e-03,
628,-1.718750e-03,
629,-1.718750e-03,
630,-1.875000e-03,
631,-1.875000e-03,
632,-1.718750e-03,
633,-2.031250e-03,
634,-1.875000e-03,
635,-1.875000e-03,
636,-1.406250e-03,
637,-1.875000e-03,
638,-1.875000e-03,
639,-1.562500e-03,
640,-1.718750e-03,
641,-2.031250e-03,
642,-1.875000e-03,
643,-1.718750e-03,
644,-1.718750e-03,
645,-2.031250e-03,
646,-1.718750e-03,
647,-1.562500e-03,
648,-2.031250e-03,
649,-1.875000e-03,
650,-1.718750e-03,
651,-1.718750e-03,
652,-1.718750e-03,
653,-1.718750e-03,
654,-1.562500e-03,
655,-2.031250e-03,
656,-2.031250e-03,
657,-1.562500e-03,
658,-1.875000e-03,
659,-1.875000e-03,
660,-1.718750e-03,
661,-1.562500e-03,
662,-1.875000e-03,
663,-1.718750e-03,
664,-1.406250e-03,
665,-1.406250e-03,
666,-1.562500e-03,
667,-1.718750e-03,
668,-1.718750e-03,
669,-1.718750e-03,
670,-1.562500e-03,
671,-1.875000e-03,
672,-1.562500e-03,
673,-1.562500e-03,
674,-1.875000e-03,
675,-1.406250e-03,
676,-1.562500e-03,
677,-1.718750e-03,
678,-1.718750e-03,
679,-1.718750e-03,
680,-1.718750e-03,
681,-1.875000e-03,
682,-2.031250e-03,
683,-1.406250e-03,
684,-2.031250e-03,
685,-1.718750e-03,
686,-1.562500e-03,
687,-1.875000e-03,
688,-1.875000e-03,
689,-2.031250e-03,
690,-2.031250e-03,
691,-2.031250e-03,
692,-2.031250e-03,
693,-1.718750e-03,
694,-1.562500e-03,
695,-1.875000e-03,
696,-1.562500e-03,
697,-1.718750e-03,
698,-1.875000e-03,
699,-1.718750e-03,
700,-1.875000e-03,
701,-1.875000e-03,
702,-1.718750e-03,
703,-1.718750e-03,
704,-2.031250e-03,
705,-2.031250e-03,
706,-2.031250e-03,
707,-1.875000e-03,
708,-1.718750e-03,
709,-1.718750e-03,
710,-1.718750e-03,
711,-1.718750e-03,
712,-1.875000e-03,
713,-2.187500e-03,
714,-2.031250e-03,
715,-1.875000e-03,
716,-2.343750e-03,
717,-1.875000e-03,
718,-1.718750e-03,
719,-1.718750e-03,
720,-1.875000e-03,
721,-1.718750e-03,
722,-1.718750e-03,
723,-1.718750e-03,
724,-1.718750e-03,
725,-1.718750e-03,
726,-1.718750e-03,
727,-2.031250e-03,
728,-2.031250e-03,
729,-1.718750e-03,
730,-1.875000e-03,
731,-1.875000e-03,
732,-1.718750e-03,
733,-2.031250e-03,
734,-1.718750e-03,
735,-1.875000e-03,
736,-1.875000e-03,
737,-1.406250e-03,
738,-1.875000e-03,
739,-1.875000e-03,
740,-1.718750e-03,
741,-2.031250e-03,
742,-1.875000e-03,
743,-1.718750e-03,
744,-1.718750e-03,
745,-1.718750e-03,
746,-2.031250e-03,
747,-1.875000e-03,
748,-1.718750e-03,
749,-1.875000e-03,
750,-1.562500e-03,
751,-1.718750e-03,
752,-1.562500e-03,
753,-1.562500e-03,
754,-1.718750e-03,
755,-1.718750e-03,
756,-1.406250e-03,
757,-1.875000e-03,
758,-1.875000e-03,
759,-1.875000e-03,
760,-1.875000e-03,
761,-1.718750e-03,
762,-1.718750e-03,
763,-1.718750e-03,
764,-1.718750e-03,
765,-1.875000e-03,
766,-2.187500e-03,
767,-1.875000e-03,
768,-2.187500e-03,
769,-1.875000e-03,
770,-1.875000e-03,
771,-2.187500e-03,
772,-2.187500e-03,
773,-2.031250e-03,
774,-2.031250e-03,
775,-1.562500e-03,
776,-2.187500e-03,
777,-1.875000e-03,
778,-2.031250e-03,
779,-2.187500e-03,
780,-2.031250e-03,
781,-2.031250e-03,
782,-2.031250e-03,
783,-2.187500e-03,
784,-1.718750e-03,
785,-1.562500e-03,
786,-1.718750e-03,
787,-2.031250e-03,
788,-1.718750e-03,
789,-1.875000e-03,
790,-1.562500e-03,
791,-1.718750e-03,
792,-1.718750e-03,
793,-1.562500e-03,
794,-2.031250e-03,
795,-1.875000e-03,
796,-1.875000e-03,
797,-1.875000e-03,
798,-1.406250e-03,
799,-1.718750e-03,
800,-1.562500e-03,
801,-1.562500e-03,
802,-1.562500e-03,
803,-1.718750e-03,
804,-2.187500e-03,
805,-1.875000e-03,
806,-1.875000e-03,
807,-2.031250e-03,
808,-2.187500e-03,
809,-1.718750e-03,
810,-1.562500e-03,
811,-1.562500e-03,
812,-1.718750e-03,
813,-1.718750e-03,
814,-1.875000e-03,
815,-1.718750e-03,
816,-1.875000e-03,
817,-1.562500e-03,
818,-1.875000e-03,
819,-1.875000e-03,
820,-1.562500e-03,
821,-1.875000e-03,
822,-2.031250e-03,
823,-2.031250e-03,
824,-1.562500e-03,
825,-1.718750e-03,
826,-1.562500e-03,
827,-1.562500e-03,
828,-1.718750e-03,
829,-1.875000e-03,
830,-1.718750e-03,
831,-1.562500e-03,
832,-1.562500e-03,
833,-1.718750e-03,
834,-1.718750e-03,
835,-1.875000e-03,
836,-1.718750e-03,
837,-1.562500e-03,
838,-1.875000e-03,
839,-1.875000e-03,
840,-1.718750e-03,
841,-1.562500e-03,
842,-1.562500e-03,
843,-1.406250e-03,
844,-1.875000e-03,
845,-1.718750e-03,
846,-2.187500e-03,
847,-2.031250e-03,
848,-1.562500e-03,
849,-1.718750e-03,
850,-1.718750e-03,
851,-1.875000e-03,
852,-1.875000e-03,
853,-1.562500e-03,
854,-1.875000e-03,
855,-1.718750e-03,
856,-1.718750e-03,
857,-1.562500e-03,
858,-1.718750e-03,
859,-1.718750e-03,
860,-2.031250e-03,
861,-1.718750e-03,
862,-1.718750e-03,
863,-2.031250e-03,
864,-1.875000e-03,
865,-1.718750e-03,
866,-1.875000e-03,
867,-2.031250e-03,
868,-1.875000e-03,
869,-1.875000e-03,
870,-2.187500e-03,
871,-2.031250e-03,
872,-2.031250e-03,
873,-1.718750e-03,
874,-1.875000e-03,
875,-1.562500e-03,
876,-1.562500e-03,
877,-1.875000e-03,
878,-1.718750e-03,
879,-1.875000e-03,
880,-1.875000e-03,
881,-1.718750e-03,
882,-1.875000e-03,
883,-1.718750e-03,
884,-1.562500e-03,
885,-1.562500e-03,
886,-1.875000e-03,
887,-1.875000e-03,
888,-1.562500e-03,
889,-1.718750e-03,
890,-1.875000e-03,
891,-1.718750e-03,
892,-1.875000e-03,
893,-1.406250e-03,
894,-1.406250e-03,
895,-1.406250e-03,
896,-1.406250e-03,
897,-1.406250e-03,
898,-1.562500e-03,
899,-1.562500e-03,
900,-1.406250e-03,
901,-2.031250e-03,
902,-2.031250e-03,
903,-2.187500e-03,
904,-1.718750e-03,
905,-1.562500e-03,
906,-1.875000e-03,
907,-1.875000e-03,
908,-1.406250e-03,
909,-1.406250e-03,
910,-1.875000e-03,
911,-2.031250e-03,
912,-1.875000e-03,
913,-1.562500e-03,
914,-1.875000e-03,
915,-1.250000e-03,
916,-1.718750e-03,
917,-1.718750e-03,
918,-1.718750e-03,
919,-1.718750e-03,
920,-1.875000e-03,
921,-1.718750e-03,
922,-1.562500e-03,
923,-2.031250e-03,
924,-2.031250e-03,
925,-2.031250e-03,
926,-1.875000e-03,
927,-2.187500e-03,
928,-1.718750e-03,
929,-1.718750e-03,
930,-1.875000e-03,
931,-1.875000e-03,
932,-2.031250e-03,
933,-2.031250e-03,
934,-1.875000e-03,
935,-1.718750e-03,
936,-1.875000e-03,
937,-1.875000e-03,
938,-2.187500e-03,
939,-2.031250e-03,
940,-2.031250e-03,
941,-1.875000e-03,
942,-1.718750e-03,
943,-1.718750e-03,
944,-2.031250e-03,
945,-1.718750e-03,
946,-1.562500e-03,
947,-2.031250e-03,
948,-1.875000e-03,
949,-1.718750e-03,
950,-1.718750e-03,
951,-1.875000e-03,
952,-1.875000e-03,
953,-1.718750e-03,
954,-1.562500e-03,
955,-1.875000e-03,
956,-1.875000e-03,
957,-2.031250e-03,
958,-1.562500e-03,
959,-1.875000e-03,
960,-1.718750e-03,
961,-2.031250e-03,
962,-2.031250e-03,
963,-1.875000e-03,
964,-1.718750e-03,
965,-1.718750e-03,
966,-1.718750e-03,
967,-2.031250e-03,
968,-1.718750e-03,
969,-1.875000e-03,
970,-2.031250e-03,
971,-1.875000e-03,
972,-2.031250e-03,
973,-1.875000e-03,
974,-1.562500e-03,
975,-2.187500e-03,
976,-1.718750e-03,
977,-1.718750e-03,
978,-1.875000e-03,
979,-1.718750e-03,
980,-1.875000e-03,
981,-1.875000e-03,
982,-1.562500e-03,
983,-1.718750e-03,
984,-2.031250e-03,
985,-2.187500e-03,
986,-2.031250e-03,
987,-1.875000e-03,
988,-2.031250e-03,
989,-2.187500e-03,
990,-1.562500e-03,
991,-1.562500e-03,
992,-1.718750e-03,
993,-1.562500e-03,
994,-1.562500e-03,
995,-1.562500e-03,
996,-2.187500e-03,
997,-1.562500e-03,
998,-1.718750e-03,
999,-2.031250e-03,
1000,-2.031250e-03,
1001,-1.875000e-03,
1002,-1.875000e-03,
1003,-1.875000e-03,
1004,-1.875000e-03,
1005,-1.562500e-03,
1006,-1.875000e-03,
1007,-1.718750e-03,
1008,-2.187500e-03,
1009,-1.718750e-03,
1010,-1.718750e-03,
1011,-1.875000e-03,
1012,-1.718750e-03,
1013,-2.031250e-03,
1014,-1.718750e-03,
1015,-1.875000e-03,
1016,-1.718750e-03,
1017,-1.718750e-03,
1018,-1.718750e-03,
1019,-1.875000e-03,
1020,-1.562500e-03,
1021,-1.562500e-03,
1022,-2.031250e-03,
1023,-1.875000e-03,
1024,-1.562500e-03,
1025,-1.562500e-03,
1026,-1.875000e-03,
1027,-1.562500e-03,
1028,-1.875000e-03,
1029,-1.875000e-03,
1030,-1.406250e-03,
1031,-2.031250e-03,
1032,-1.875000e-03,
1033,-1.562500e-03,
1034,-1.718750e-03,
1035,-1.875000e-03,
1036,-1.718750e-03,
1037,-1.562500e-03,
1038,-1.875000e-03,
1039,-2.031250e-03,
1040,-2.031250e-03,
1041,-1.875000e-03,
1042,-1.875000e-03,
1043,-2.031250e-03,
1044,-1.875000e-03,
1045,-2.031250e-03,
1046,-1.875000e-03,
1047,-1.718750e-03,
1048,-2.031250e-03,
1049,-1.875000e-03,
1050,-1.875000e-03,
1051,-1.875000e-03,
