laser_day1/2024-03-08 F(t) Al target 1/Newfile10.csv

X,CH1,Start,Increment,
Sequence,Volt,-5.999999e-04,2.000000e-07,
0,-1.562500e-03,
1,-1.562500e-03,
2,-1.718750e-03,
3,-1.406250e-03,
4,-1.406250e-03,
5,-1.250000e-03,
6,-1.406250e-03,
7,-1.562500e-03,
8,-1.406250e-03,
9,-1.718750e-03,
10,-1.406250e-03,
11,-1.093750e-03,
12,-1.406250e-03,
13,-1.406250e-03,
14,-1.718750e-03,
15,-1.250000e-03,
16,-1.250000e-03,
17,-1.406250e-03,
18,-1.562500e-03,
19,-1.406250e-03,
20,-1.250000e-03,
21,-1.250000e-03,
22,-1.250000e-03,
23,-1.093750e-03,
24,-1.250000e-03,
25,-1.406250e-03,
26,-1.562500e-03,
27,-1.718750e-03,
28,-1.562500e-03,
29,-1.406250e-03,
30,-1.250000e-03,
31,-1.406250e-03,
32,-1.250000e-03,
33,-1.562500e-03,
34,-1.250000e-03,
35,-1.093750e-03,
36,-1.093750e-03,
37,-1.093750e-03,
38,-1.250000e-03,
39,-1.250000e-03,
40,-9.375000e-04,
41,-1.250000e-03,
42,-1.406250e-03,
43,-1.562500e-03,
44,-1.406250e-03,
45,-1.250000e-03,
46,-1.406250e-03,
47,-1.718750e-03,
48,-1.562500e-03,
49,-1.250000e-03,
50,-1.718750e-03,
51,-1.406250e-03,
52,-1.406250e-03,
53,-1.093750e-03,
54,-1.562500e-03,
55,-1.250000e-03,
56,-1.250000e-03,
57,-1.406250e-03,
58,-1.093750e-03,
59,-1.406250e-03,
60,-1.406250e-03,
61,-1.718750e-03,
62,-1.718750e-03,
63,-1.093750e-03,
64,-1.250000e-03,
65,-1.406250e-03,
66,-1.406250e-03,
67,-1.562500e-03,
68,-1.406250e-03,
69,-1.562500e-03,
70,-1.562500e-03,
71,-1.093750e-03,
72,-1.406250e-03,
73,-1.406250e-03,
74,-1.718750e-03,
75,-1.093750e-03,
76,-1.250000e-03,
77,-1.093750e-03,
78,-1.250000e-03,
79,-1.093750e-03,
80,-1.406250e-03,
81,-1.562500e-03,
82,-1.406250e-03,
83,-1.406250e-03,
84,-1.250000e-03,
85,-1.250000e-03,
86,-1.093750e-03,
87,-1.562500e-03,
88,-1.406250e-03,
89,-1.093750e-03,
90,-1.250000e-03,
91,-1.718750e-03,
92,-1.406250e-03,
93,-1.562500e-03,
94,-1.562500e-03,
95,-1.406250e-03,
96,-1.562500e-03,
97,-1.562500e-03,
98,-1.406250e-03,
99,-1.250000e-03,
100,-1.093750e-03,
101,-1.250000e-03,
102,-1.406250e-03,
103,-1.562500e-03,
104,-9.375000e-04,
105,-1.093750e-03,
106,-1.093750e-03,
107,-1.406250e-03,
108,-1.562500e-03,
109,-1.406250e-03,
110,-1.250000e-03,
111,-1.562500e-03,
112,-1.562500e-03,
113,-1.250000e-03,
114,-1.250000e-03,
115,-1.562500e-03,
116,-1.562500e-03,
117,-1.406250e-03,
118,-1.406250e-03,
119,-1.562500e-03,
120,-1.250000e-03,
121,-1.250000e-03,
122,-1.562500e-03,
123,-1.406250e-03,
124,-1.406250e-03,
125,-1.718750e-03,
126,-1.562500e-03,
127,-1.406250e-03,
128,-1.406250e-03,
129,-1.250000e-03,
130,-1.406250e-03,
131,-1.718750e-03,
132,-1.406250e-03,
133,-1.406250e-03,
134,-1.250000e-03,
135,-1.406250e-03,
136,-1.562500e-03,
137,-1.406250e-03,
138,-1.406250e-03,
139,-1.406250e-03,
140,-1.250000e-03,
141,-1.093750e-03,
142,-1.093750e-03,
143,-1.250000e-03,
144,-1.406250e-03,
145,-1.250000e-03,
146,-1.093750e-03,
147,-1.250000e-03,
148,-1.093750e-03,
149,-1.250000e-03,
150,-1.406250e-03,
151,-1.406250e-03,
152,-1.406250e-03,
153,-1.250000e-03,
154,-1.562500e-03,
155,-1.406250e-03,
156,-1.406250e-03,
157,-1.250000e-03,
158,-1.406250e-03,
159,-1.406250e-03,
160,-1.562500e-03,
161,-1.406250e-03,
162,-1.250000e-03,
163,-1.406250e-03,
164,-1.406250e-03,
165,-1.562500e-03,
166,-1.250000e-03,
167,-1.406250e-03,
168,-1.406250e-03,
169,-1.562500e-03,
170,-1.562500e-03,
171,-1.250000e-03,
172,-7.812500e-04,
173,-9.375000e-04,
174,-1.093750e-03,
175,-1.093750e-03,
176,-1.093750e-03,
177,-1.562500e-03,
178,-1.562500e-03,
179,-1.093750e-03,
180,-1.093750e-03,
181,-1.093750e-03,
182,-1.406250e-03,
183,-1.562500e-03,
184,-1.562500e-03,
185,-1.562500e-03,
186,-1.406250e-03,
187,-1.406250e-03,
188,-1.562500e-03,
189,-1.406250e-03,
190,-1.093750e-03,
191,-1.093750e-03,
192,-1.406250e-03,
193,-1.562500e-03,
194,-1.406250e-03,
195,-1.718750e-03,
196,-1.562500e-03,
197,-1.562500e-03,
198,-1.406250e-03,
199,-1.250000e-03,
200,-1.562500e-03,
201,-1.093750e-03,
202,-1.250000e-03,
203,-1.562500e-03,
204,-1.562500e-03,
205,-1.250000e-03,
206,-1.406250e-03,
207,-1.093750e-03,
208,-1.406250e-03,
209,-1.406250e-03,
210,-1.562500e-03,
211,-1.250000e-03,
212,-1.562500e-03,
213,-1.562500e-03,
214,-1.406250e-03,
215,-1.718750e-03,
216,-1.406250e-03,
217,-1.562500e-03,
218,-1.562500e-03,
219,-1.406250e-03,
220,-1.406250e-03,
221,-1.250000e-03,
222,-1.562500e-03,
223,-1.406250e-03,
224,-1.406250e-03,
225,-1.406250e-03,
226,-1.250000e-03,
227,-1.250000e-03,
228,-1.250000e-03,
229,-9.375000e-04,
230,-1.406250e-03,
231,-1.562500e-03,
232,-1.406250e-03,
233,-1.562500e-03,
234,-1.718750e-03,
235,-1.406250e-03,
236,-1.562500e-03,
237,-1.406250e-03,
238,-1.406250e-03,
239,-1.093750e-03,
240,-1.562500e-03,
241,-1.406250e-03,
242,-1.406250e-03,
243,-1.250000e-03,
244,-1.718750e-03,
245,-1.875000e-03,
246,-1.875000e-03,
247,-1.562500e-03,
248,-1.406250e-03,
249,-1.250000e-03,
250,-1.562500e-03,
251,-1.406250e-03,
252,-1.406250e-03,
253,-1.250000e-03,
254,-1.093750e-03,
255,-1.250000e-03,
256,-1.406250e-03,
257,-1.093750e-03,
258,-1.406250e-03,
259,-1.562500e-03,
260,-1.250000e-03,
261,-1.406250e-03,
262,-1.406250e-03,
263,-1.406250e-03,
264,-1.562500e-03,
265,-1.250000e-03,
266,-1.406250e-03,
267,-1.562500e-03,
268,-1.406250e-03,
269,-1.250000e-03,
270,-1.406250e-03,
271,-1.406250e-03,
272,-1.718750e-03,
273,-1.406250e-03,
274,-1.562500e-03,
275,-1.406250e-03,
276,-1.250000e-03,
277,-1.406250e-03,
278,-1.406250e-03,
279,-1.406250e-03,
280,-1.406250e-03,
281,-1.562500e-03,
282,-1.406250e-03,
283,-1.562500e-03,
284,-1.093750e-03,
285,-1.093750e-03,
286,-1.093750e-03,
287,-1.093750e-03,
288,-9.375000e-04,
289,-1.250000e-03,
290,-1.406250e-03,
291,-1.250000e-03,
292,-1.406250e-03,
293,-1.406250e-03,
294,-1.250000e-03,
295,-1.406250e-03,
296,-1.406250e-03,
297,-1.562500e-03,
298,-1.406250e-03,
299,-1.250000e-03,
300,-1.406250e-03,
301,-1.406250e-03,
302,-1.250000e-03,
303,-1.250000e-03,
304,-1.562500e-03,
305,-1.406250e-03,
306,-1.406250e-03,
307,-1.093750e-03,
308,-1.093750e-03,
309,-1.406250e-03,
310,-1.250000e-03,
311,-1.406250e-03,
312,-1.406250e-03,
313,-1.250000e-03,
314,-1.406250e-03,
315,-1.406250e-03,
316,-1.406250e-03,
317,-1.406250e-03,
318,-1.250000e-03,
319,-1.406250e-03,
320,-1.718750e-03,
321,-1.250000e-03,
322,-1.250000e-03,
323,-1.406250e-03,
324,-1.406250e-03,
325,-1.718750e-03,
326,-1.406250e-03,
327,-1.406250e-03,
328,-1.406250e-03,
329,-1.250000e-03,
330,-1.250000e-03,
331,-1.250000e-03,
332,-1.406250e-03,
333,-1.406250e-03,
334,-1.406250e-03,
335,-1.406250e-03,
336,-1.250000e-03,
337,-1.406250e-03,
338,-1.250000e-03,
339,-1.250000e-03,
340,-1.406250e-03,
341,-1.406250e-03,
342,-1.562500e-03,
343,-1.562500e-03,
344,-1.562500e-03,
345,-1.093750e-03,
346,-1.093750e-03,
347,-9.375000e-04,
348,-1.250000e-03,
349,-1.406250e-03,
350,-1.250000e-03,
351,-1.406250e-03,
352,-1.093750e-03,
353,-1.562500e-03,
354,-1.250000e-03,
355,-1.406250e-03,
356,-1.250000e-03,
357,-1.406250e-03,
358,-1.093750e-03,
359,-1.406250e-03,
360,-1.562500e-03,
361,-1.406250e-03,
362,-1.250000e-03,
363,-1.093750e-03,
364,-1.250000e-03,
365,-1.562500e-03,
366,-1.250000e-03,
367,-1.562500e-03,
368,-1.250000e-03,
369,-1.718750e-03,
370,-1.406250e-03,
371,-1.093750e-03,
372,-1.250000e-03,
373,-1.250000e-03,
374,-1.562500e-03,
375,-1.562500e-03,
376,-1.250000e-03,
377,-1.406250e-03,
378,-1.250000e-03,
379,-1.406250e-03,
380,-1.562500e-03,
381,-1.250000e-03,
382,-1.093750e-03,
383,-1.250000e-03,
384,-1.250000e-03,
385,-1.250000e-03,
386,-1.250000e-03,
387,-1.406250e-03,
388,-1.562500e-03,
389,-1.406250e-03,
390,-1.093750e-03,
391,-1.406250e-03,
392,-1.093750e-03,
393,-1.562500e-03,
394,-1.562500e-03,
395,-1.406250e-03,
396,-1.562500e-03,
397,-1.562500e-03,
398,-1.406250e-03,
399,-1.562500e-03,
400,-1.250000e-03,
401,-1.250000e-03,
402,-1.562500e-03,
403,-1.093750e-03,
404,-1.250000e-03,
405,-1.562500e-03,
406,-1.562500e-03,
407,-1.250000e-03,
408,-1.250000e-03,
409,-1.406250e-03,
410,-1.718750e-03,
411,-1.093750e-03,
412,-1.250000e-03,
413,-1.093750e-03,
414,-1.562500e-03,
415,-1.250000e-03,
416,-9.375000e-04,
417,-1.250000e-03,
418,-1.406250e-03,
419,-1.718750e-03,
420,-1.406250e-03,
421,-1.562500e-03,
422,-1.406250e-03,
423,-1.250000e-03,
424,-1.250000e-03,
425,-1.406250e-03,
426,-9.375000e-04,
427,-1.093750e-03,
428,-1.250000e-03,
429,-1.562500e-03,
430,-1.250000e-03,
431,-1.093750e-03,
432,-1.406250e-03,
433,-1.562500e-03,
434,-1.562500e-03,
435,-1.562500e-03,
436,-1.562500e-03,
437,-1.718750e-03,
438,-1.093750e-03,
439,-1.406250e-03,
440,-1.250000e-03,
441,-1.250000e-03,
442,-1.250000e-03,
443,-1.406250e-03,
444,-1.406250e-03,
445,-1.406250e-03,
446,-1.562500e-03,
447,-1.250000e-03,
448,-1.093750e-03,
449,-1.406250e-03,
450,-1.093750e-03,
451,-1.406250e-03,
452,-1.250000e-03,
453,-1.562500e-03,
454,-1.093750e-03,
455,-1.718750e-03,
456,-1.562500e-03,
457,-1.250000e-03,
458,-1.250000e-03,
459,-1.562500e-03,
460,-1.562500e-03,
461,-1.406250e-03,
462,-9.375000e-04,
463,-1.250000e-03,
464,-1.093750e-03,
465,-1.406250e-03,
466,-1.250000e-03,
467,-1.093750e-03,
468,-1.250000e-03,
469,-1.093750e-03,
470,-1.250000e-03,
471,-1.562500e-03,
472,-1.562500e-03,
473,-1.406250e-03,
474,-1.406250e-03,
475,-1.093750e-03,
476,-1.250000e-03,
477,-1.562500e-03,
478,-1.250000e-03,
479,-1.093750e-03,
480,-1.250000e-03,
481,-1.718750e-03,
482,-1.406250e-03,
483,-1.562500e-03,
484,-1.406250e-03,
485,-1.250000e-03,
486,-1.250000e-03,
487,-1.250000e-03,
488,-1.406250e-03,
489,-1.562500e-03,
490,-1.406250e-03,
491,-1.562500e-03,
492,-1.406250e-03,
493,-1.406250e-03,
494,-1.406250e-03,
495,-1.562500e-03,
496,-1.250000e-03,
497,-1.250000e-03,
498,-1.406250e-03,
499,-1.250000e-03,
500,-1.093750e-03,
501,-1.250000e-03,
502,-9.375000e-04,
503,-1.093750e-03,
504,-1.093750e-03,
505,-1.250000e-03,
506,-1.093750e-03,
507,-1.250000e-03,
508,-1.093750e-03,
509,-1.250000e-03,
510,-1.718750e-03,
511,-1.562500e-03,
512,-1.250000e-03,
513,-1.406250e-03,
514,-1.250000e-03,
515,-1.250000e-03,
516,-1.093750e-03,
517,-1.562500e-03,
518,-1.406250e-03,
519,-1.562500e-03,
520,-1.250000e-03,
521,-1.406250e-03,
522,-1.250000e-03,
523,-1.250000e-03,
524,-1.250000e-03,
525,-1.093750e-03,
526,-1.250000e-03,
527,-1.250000e-03,
528,-1.093750e-03,
529,-9.375000e-04,
530,-1.250000e-03,
531,-1.562500e-03,
532,-1.406250e-03,
533,-1.562500e-03,
534,-1.562500e-03,
535,-1.250000e-03,
536,-1.406250e-03,
537,-1.250000e-03,
538,-1.250000e-03,
539,-1.406250e-03,
540,-1.718750e-03,
541,-1.562500e-03,
542,-1.250000e-03,
543,-1.250000e-03,
544,-1.406250e-03,
545,-1.406250e-03,
546,-1.562500e-03,
547,-1.562500e-03,
548,-1.250000e-03,
549,-1.093750e-03,
550,-1.093750e-03,
551,-1.406250e-03,
552,-1.562500e-03,
553,-1.562500e-03,
554,-1.406250e-03,
555,-1.406250e-03,
556,-1.562500e-03,
557,-1.093750e-03,
558,-1.250000e-03,
559,-1.406250e-03,
560,-1.406250e-03,
561,-1.406250e-03,
562,-1.250000e-03,
563,-1.562500e-03,
564,-1.250000e-03,
565,-1.406250e-03,
566,-1.406250e-03,
567,-1.250000e-03,
568,-1.562500e-03,
569,-1.406250e-03,
570,-1.406250e-03,
571,-1.406250e-03,
572,-1.250000e-03,
573,-1.250000e-03,
574,-1.562500e-03,
575,-1.406250e-03,
576,-1.406250e-03,
577,-1.093750e-03,
578,-1.406250e-03,
579,-1.406250e-03,
580,-1.250000e-03,
581,-1.406250e-03,
582,-1.093750e-03,
583,-1.250000e-03,
584,-1.562500e-03,
585,-1.093750e-03,
586,-1.406250e-03,
587,-1.406250e-03,
588,-1.250000e-03,
589,-1.250000e-03,
590,-9.375000e-04,
591,-1.406250e-03,
592,-1.406250e-03,
593,-1.406250e-03,
594,-1.406250e-03,
595,-1.562500e-03,
596,-1.562500e-03,
597,-1.406250e-03,
598,-1.562500e-03,
599,-1.562500e-03,
600,-1.406250e-03,
601,-1.093750e-03,
602,-9.375000e-04,
603,-9.375000e-04,
604,-1.406250e-03,
605,-1.250000e-03,
606,-1.406250e-03,
607,-1.562500e-03,
608,-1.406250e-03,
609,-1.093750e-03,
610,-1.406250e-03,
611,-1.250000e-03,
612,-1.562500e-03,
613,-1.562500e-03,
614,-1.562500e-03,
615,-1.406250e-03,
616,-1.562500e-03,
617,-1.250000e-03,
618,-1.250000e-03,
619,-1.406250e-03,
620,-1.406250e-03,
621,-1.250000e-03,
622,-1.250000e-03,
623,-1.250000e-03,
624,-1.406250e-03,
625,-1.406250e-03,
626,-1.406250e-03,
627,-1.718750e-03,
628,-1.250000e-03,
629,-1.406250e-03,
630,-1.562500e-03,
631,-1.562500e-03,
632,-1.562500e-03,
633,-1.718750e-03,
634,-1.250000e-03,
635,-1.406250e-03,
636,-1.562500e-03,
637,-1.562500e-03,
638,-1.562500e-03,
639,-1.250000e-03,
640,-1.406250e-03,
641,-1.562500e-03,
642,-1.406250e-03,
643,-1.250000e-03,
644,-1.093750e-03,
645,-1.250000e-03,
646,-1.250000e-03,
647,-1.406250e-03,
648,-1.406250e-03,
649,-1.406250e-03,
650,-1.718750e-03,
651,-1.406250e-03,
652,-1.250000e-03,
653,-1.406250e-03,
654,-1.406250e-03,
655,-1.562500e-03,
656,-1.406250e-03,
657,-1.250000e-03,
658,-1.718750e-03,
659,-1.562500e-03,
660,-1.562500e-03,
661,-1.406250e-03,
662,-1.250000e-03,
663,-1.406250e-03,
664,-1.250000e-03,
665,-1.250000e-03,
666,-1.406250e-03,
667,-1.250000e-03,
668,-1.250000e-03,
669,-1.718750e-03,
670,-1.250000e-03,
671,-1.093750e-03,
672,-1.562500e-03,
673,-1.562500e-03,
674,-1.406250e-03,
675,-1.562500e-03,
676,-1.406250e-03,
677,-1.250000e-03,
678,-9.375000e-04,
679,-1.093750e-03,
680,-1.250000e-03,
681,-1.406250e-03,
682,-1.093750e-03,
683,-1.406250e-03,
684,-1.406250e-03,
685,-1.406250e-03,
686,-1.406250e-03,
687,-1.406250e-03,
688,-9.375000e-04,
689,-1.406250e-03,
690,-1.562500e-03,
691,-1.250000e-03,
692,-1.562500e-03,
693,-1.406250e-03,
694,-1.562500e-03,
695,-1.093750e-03,
696,-1.562500e-03,
697,-1.250000e-03,
698,-1.406250e-03,
699,-1.562500e-03,
700,-1.250000e-03,
701,-1.562500e-03,
702,-1.718750e-03,
703,-1.250000e-03,
704,-9.375000e-04,
705,-1.093750e-03,
706,-1.093750e-03,
707,-1.093750e-03,
708,-1.250000e-03,
709,-1.250000e-03,
710,-1.093750e-03,
711,-9.375000e-04,
712,-1.250000e-03,
713,-1.250000e-03,
714,-1.406250e-03,
715,-1.562500e-03,
716,-1.250000e-03,
717,-1.250000e-03,
718,-1.250000e-03,
719,-1.562500e-03,
720,-1.406250e-03,
721,-1.406250e-03,
722,-1.718750e-03,
723,-1.718750e-03,
724,-1.875000e-03,
725,-1.406250e-03,
726,-1.250000e-03,
727,-9.375000e-04,
728,-1.406250e-03,
729,-1.250000e-03,
730,-1.093750e-03,
731,-1.093750e-03,
732,-1.250000e-03,
733,-1.250000e-03,
734,-1.093750e-03,
735,-1.250000e-03,
736,-1.562500e-03,
737,-1.562500e-03,
738,-1.562500e-03,
739,-1.406250e-03,
740,-1.250000e-03,
741,-1.250000e-03,
742,-1.250000e-03,
743,-1.562500e-03,
744,-1.562500e-03,
745,-1.406250e-03,
746,-1.250000e-03,
747,-1.406250e-03,
748,-1.093750e-03,
749,-1.250000e-03,
750,-1.093750e-03,
751,-1.406250e-03,
752,-1.250000e-03,
753,-1.093750e-03,
754,-1.093750e-03,
755,-1.093750e-03,
756,-1.562500e-03,
757,-1.562500e-03,
758,-1.562500e-03,
759,-1.406250e-03,
760,-1.250000e-03,
761,-1.406250e-03,
762,-1.406250e-03,
763,-1.250000e-03,
764,-1.562500e-03,
765,-1.718750e-03,
766,-1.718750e-03,
767,-1.562500e-03,
768,-1.562500e-03,
769,-1.406250e-03,
770,-1.406250e-03,
771,-1.093750e-03,
772,-9.375000e-04,
773,-1.406250e-03,
774,-1.250000e-03,
775,-1.250000e-03,
776,-1.250000e-03,
777,-1.562500e-03,
778,-1.250000e-03,
779,-1.250000e-03,
780,-1.250000e-03,
781,-1.250000e-03,
782,-1.406250e-03,
783,-1.562500e-03,
784,-1.250000e-03,
785,-1.093750e-03,
786,-1.406250e-03,
787,-1.406250e-03,
788,-1.718750e-03,
789,-1.718750e-03,
790,-1.718750e-03,
791,-1.406250e-03,
792,-1.250000e-03,
793,-1.250000e-03,
794,-1.406250e-03,
795,-1.250000e-03,
796,-1.562500e-03,
797,-1.406250e-03,
798,-1.093750e-03,
799,-1.093750e-03,
800,-1.250000e-03,
801,-1.406250e-03,
802,-1.406250e-03,
803,-1.718750e-03,
804,-1.562500e-03,
805,-1.562500e-03,
806,-1.250000e-03,
807,-1.250000e-03,
808,-1.250000e-03,
809,-1.406250e-03,
810,-1.250000e-03,
811,-1.406250e-03,
812,-1.406250e-03,
813,-1.718750e-03,
814,-1.250000e-03,
815,-1.406250e-03,
816,-1.562500e-03,
817,-1.562500e-03,
818,-1.875000e-03,
819,-1.406250e-03,
820,-1.250000e-03,
821,-1.406250e-03,
822,-1.562500e-03,
823,-1.250000e-03,
824,-1.093750e-03,
825,-1.093750e-03,
826,-1.093750e-03,
827,-1.250000e-03,
828,-1.250000e-03,
829,-9.375000e-04,
830,-1.093750e-03,
831,-1.250000e-03,
832,-1.562500e-03,
833,-1.406250e-03,
834,-1.093750e-03,
835,-1.093750e-03,
836,-1.406250e-03,
837,-1.250000e-03,
838,-1.093750e-03,
839,-1.250000e-03,
840,-1.250000e-03,
841,-1.250000e-03,
842,-1.406250e-03,
843,-1.562500e-03,
844,-1.250000e-03,
845,-1.406250e-03,
846,-1.250000e-03,
847,-1.250000e-03,
848,-1.406250e-03,
849,-1.250000e-03,
850,-1.093750e-03,
851,-1.562500e-03,
852,-1.093750e-03,
853,-1.562500e-03,
854,-1.250000e-03,
855,-1.093750e-03,
856,-1.093750e-03,
857,-1.406250e-03,
858,-1.406250e-03,
859,-1.250000e-03,
860,-1.250000e-03,
861,-1.406250e-03,
862,-1.250000e-03,
863,-1.250000e-03,
864,-1.093750e-03,
865,-9.375000e-04,
866,-1.562500e-03,
867,-1.718750e-03,
868,-1.562500e-03,
869,-1.562500e-03,
870,-1.562500e-03,
871,-1.406250e-03,
872,-1.406250e-03,
873,-1.562500e-03,
874,-1.562500e-03,
875,-1.406250e-03,
876,-1.250000e-03,
877,-1.406250e-03,
878,-1.406250e-03,
879,-1.406250e-03,
880,-1.562500e-03,
881,-1.250000e-03,
882,-1.250000e-03,
883,-1.406250e-03,
884,-1.562500e-03,
885,-1.562500e-03,
886,-1.562500e-03,
887,-1.406250e-03,
888,-1.406250e-03,
889,-1.406250e-03,
890,-1.562500e-03,
891,-1.406250e-03,
892,-1.093750e-03,
893,-1.250000e-03,
894,-1.093750e-03,
895,-1.250000e-03,
896,-1.406250e-03,
897,-1.718750e-03,
898,-1.250000e-03,
899,-1.250000e-03,
900,-1.875000e-03,
901,-1.406250e-03,
902,-1.406250e-03,
903,-1.562500e-03,
904,-1.406250e-03,
905,-1.562500e-03,
906,-1.250000e-03,
907,-1.406250e-03,
908,-1.406250e-03,
909,-1.562500e-03,
910,-1.562500e-03,
911,-1.093750e-03,
912,-1.406250e-03,
913,-1.406250e-03,
914,-1.250000e-03,
915,-1.250000e-03,
916,-1.406250e-03,
917,-1.406250e-03,
918,-1.562500e-03,
919,-1.406250e-03,
920,-1.718750e-03,
921,-1.250000e-03,
922,-1.562500e-03,
923,-1.562500e-03,
924,-1.718750e-03,
925,-1.250000e-03,
926,-1.562500e-03,
927,-1.562500e-03,
928,-1.562500e-03,
929,-1.718750e-03,
930,-1.562500e-03,
931,-1.250000e-03,
932,-1.406250e-03,
933,-1.562500e-03,
934,-1.562500e-03,
935,-1.406250e-03,
936,-1.406250e-03,
937,-1.406250e-03,
938,-1.562500e-03,
939,-1.562500e-03,
940,-1.562500e-03,
941,-1.562500e-03,
942,-1.250000e-03,
943,-1.250000e-03,
944,-1.562500e-03,
945,-1.250000e-03,
946,-1.250000e-03,
947,-1.406250e-03,
948,-1.406250e-03,
949,-1.250000e-03,
950,-1.406250e-03,
951,-1.406250e-03,
952,-1.562500e-03,
953,-1.406250e-03,
954,-1.562500e-03,
955,-1.406250e-03,
956,-1.406250e-03,
957,-1.562500e-03,
958,-1.250000e-03,
959,-1.250000e-03,
960,-1.250000e-03,
961,-1.250000e-03,
962,-1.093750e-03,
963,-1.406250e-03,
964,-1.093750e-03,
965,-1.406250e-03,
966,-1.250000e-03,
967,-1.250000e-03,
968,-1.406250e-03,
969,-1.250000e-03,
970,-1.406250e-03,
971,-1.250000e-03,
972,-1.406250e-03,
973,-1.562500e-03,
974,-1.250000e-03,
975,-1.406250e-03,
976,-1.406250e-03,
977,-1.250000e-03,
978,-1.406250e-03,
979,-1.406250e-03,
980,-1.250000e-03,
981,-1.250000e-03,
982,-1.562500e-03,
983,-1.562500e-03,
984,-1.406250e-03,
985,-1.406250e-03,
986,-1.406250e-03,
987,-1.250000e-03,
988,-1.562500e-03,
989,-1.250000e-03,
990,-1.093750e-03,
991,-1.406250e-03,
992,-1.562500e-03,
993,-1.406250e-03,
994,-1.406250e-03,
995,-1.250000e-03,
996,-1.406250e-03,
997,-1.406250e-03,
998,-1.562500e-03,
999,-1.250000e-03,
1000,-1.562500e-03,
1001,-1.250000e-03,
1002,-1.562500e-03,
1003,-1.250000e-03,
1004,-1.250000e-03,
1005,-1.250000e-03,
1006,-1.093750e-03,
1007,-1.250000e-03,
1008,-1.250000e-03,
1009,-1.562500e-03,
1010,-1.406250e-03,
1011,-1.562500e-03,
1012,-1.406250e-03,
1013,-1.406250e-03,
1014,-1.250000e-03,
1015,-1.562500e-03,
1016,-1.406250e-03,
1017,-1.250000e-03,
1018,-1.562500e-03,
1019,-1.093750e-03,
1020,-1.406250e-03,
1021,-1.250000e-03,
1022,-1.250000e-03,
1023,-1.250000e-03,
1024,-1.093750e-03,
1025,-1.562500e-03,
1026,-1.250000e-03,
1027,-1.718750e-03,
1028,-1.718750e-03,
1029,-1.718750e-03,
1030,-1.562500e-03,
1031,-1.406250e-03,
1032,-9.375000e-04,
1033,-1.250000e-03,
1034,-1.406250e-03,
1035,-1.406250e-03,
1036,-1.093750e-03,
1037,-1.562500e-03,
1038,-1.093750e-03,
1039,-1.250000e-03,
1040,-1.250000e-03,
1041,-1.250000e-03,
1042,-1.093750e-03,
1043,-1.093750e-03,
1044,-1.406250e-03,
1045,-1.250000e-03,
1046,-1.406250e-03,
1047,-1.093750e-03,
1048,-1.406250e-03,
1049,-1.406250e-03,
1050,-1.562500e-03,
1051,-1.562500e-03,
