laser_day1/2024-03-08 F(t) Al target 1/Newfile2.csv

X,CH1,Start,Increment,
Sequence,Volt,-5.999999e-04,2.000000e-07,
0,3.125000e-04,
1,0.000000e+00,
2,3.125000e-04,
3,0.000000e+00,
4,-1.562500e-04,
5,-1.562500e-04,
6,3.125000e-04,
7,1.562500e-04,
8,0.000000e+00,
9,0.000000e+00,
10,0.000000e+00,
11,1.562500e-04,
12,-1.562500e-04,
13,-1.562500e-04,
14,0.000000e+00,
15,0.000000e+00,
16,3.125000e-04,
17,-1.562500e-04,
18,0.000000e+00,
19,1.562500e-04,
20,3.125000e-04,
21,3.125000e-04,
22,1.562500e-04,
23,0.000000e+00,
24,1.562500e-04,
25,1.562500e-04,
26,1.562500e-04,
27,3.125000e-04,
28,0.000000e+00,
29,-1.562500e-04,
30,1.562500e-04,
31,3.125000e-04,
32,-3.125000e-04,
33,-1.562500e-04,
34,1.562500e-04,
35,0.000000e+00,
36,4.687500e-04,
37,3.125000e-04,
38,1.562500e-04,
39,3.125000e-04,
40,1.562500e-04,
41,1.562500e-04,
42,0.000000e+00,
43,1.562500e-04,
44,-1.562500e-04,
45,4.687500e-04,
46,1.562500e-04,
47,3.125000e-04,
48,3.125000e-04,
49,1.562500e-04,
50,1.562500e-04,
51,-1.562500e-04,
52,-1.562500e-04,
53,3.125000e-04,
54,3.125000e-04,
55,3.125000e-04,
56,1.562500e-04,
57,1.562500e-04,
58,3.125000e-04,
59,4.687500e-04,
60,4.687500e-04,
61,3.125000e-04,
62,4.687500e-04,
63,3.125000e-04,
64,1.562500e-04,
65,1.562500e-04,
66,0.000000e+00,
67,3.125000e-04,
68,4.687500e-04,
69,0.000000e+00,
70,0.000000e+00,
71,3.125000e-04,
72,0.000000e+00,
73,-3.125000e-04,
74,-3.125000e-04,
75,1.562500e-04,
76,0.000000e+00,
77,0.000000e+00,
78,1.562500e-04,
79,1.562500e-04,
80,4.687500e-04,
81,0.000000e+00,
82,3.125000e-04,
83,0.000000e+00,
84,3.125000e-04,
85,0.000000e+00,
86,3.125000e-04,
87,1.562500e-04,
88,1.562500e-04,
89,-1.562500e-04,
90,-1.562500e-04,
91,-1.562500e-04,
92,0.000000e+00,
93,-3.125000e-04,
94,0.000000e+00,
95,-1.562500e-04,
96,-1.562500e-04,
97,0.000000e+00,
98,-4.687500e-04,
99,0.000000e+00,
100,1.562500e-04,
101,3.125000e-04,
102,0.000000e+00,
103,1.562500e-04,
104,4.687500e-04,
105,3.125000e-04,
106,1.562500e-04,
107,-1.562500e-04,
108,3.125000e-04,
109,1.562500e-04,
110,0.000000e+00,
111,1.562500e-04,
112,1.562500e-04,
113,3.125000e-04,
114,3.125000e-04,
115,3.125000e-04,
116,4.687500e-04,
117,1.562500e-04,
118,1.562500e-04,
119,3.125000e-04,
120,3.125000e-04,
121,1.562500e-04,
122,3.125000e-04,
123,1.562500e-04,
124,1.562500e-04,
125,1.562500e-04,
126,3.125000e-04,
127,3.125000e-04,
128,4.687500e-04,
129,1.562500e-04,
130,3.125000e-04,
131,3.125000e-04,
132,1.562500e-04,
133,1.562500e-04,
134,3.125000e-04,
135,7.812500e-04,
136,3.125000e-04,
137,1.562500e-04,
138,1.562500e-04,
139,3.125000e-04,
140,0.000000e+00,
141,1.562500e-04,
142,0.000000e+00,
143,1.562500e-04,
144,0.000000e+00,
145,4.687500e-04,
146,0.000000e+00,
147,0.000000e+00,
148,-1.562500e-04,
149,3.125000e-04,
150,1.562500e-04,
151,1.562500e-04,
152,1.562500e-04,
153,1.562500e-04,
154,0.000000e+00,
155,-1.562500e-04,
156,1.562500e-04,
157,1.562500e-04,
158,1.562500e-04,
159,0.000000e+00,
160,1.562500e-04,
161,-1.562500e-04,
162,1.562500e-04,
163,0.000000e+00,
164,0.000000e+00,
165,1.562500e-04,
166,0.000000e+00,
167,3.125000e-04,
168,-1.562500e-04,
169,0.000000e+00,
170,0.000000e+00,
171,-1.562500e-04,
172,0.000000e+00,
173,-1.562500e-04,
174,0.000000e+00,
175,-1.562500e-04,
176,-4.687500e-04,
177,0.000000e+00,
178,0.000000e+00,
179,-3.125000e-04,
180,-1.562500e-04,
181,0.000000e+00,
182,0.000000e+00,
183,0.000000e+00,
184,0.000000e+00,
185,0.000000e+00,
186,-1.562500e-04,
187,1.562500e-04,
188,1.562500e-04,
189,1.562500e-04,
190,6.250000e-04,
191,4.687500e-04,
192,1.562500e-04,
193,0.000000e+00,
194,3.125000e-04,
195,-1.562500e-04,
196,0.000000e+00,
197,0.000000e+00,
198,0.000000e+00,
199,0.000000e+00,
200,3.125000e-04,
201,0.000000e+00,
202,3.125000e-04,
203,1.562500e-04,
204,1.562500e-04,
205,-1.562500e-04,
206,-1.562500e-04,
207,1.562500e-04,
208,-1.562500e-04,
209,1.562500e-04,
210,1.562500e-04,
211,4.687500e-04,
212,1.562500e-04,
213,1.562500e-04,
214,3.125000e-04,
215,3.125000e-04,
216,1.562500e-04,
217,1.562500e-04,
218,4.687500e-04,
219,3.125000e-04,
220,0.000000e+00,
221,0.000000e+00,
222,1.562500e-04,
223,0.000000e+00,
224,0.000000e+00,
225,0.000000e+00,
226,1.562500e-04,
227,0.000000e+00,
228,3.125000e-04,
229,1.562500e-04,
230,0.000000e+00,
231,0.000000e+00,
232,1.562500e-04,
233,0.000000e+00,
234,0.000000e+00,
235,1.562500e-04,
236,1.562500e-04,
237,1.562500e-04,
238,0.000000e+00,
239,-3.125000e-04,
240,-3.125000e-04,
241,0.000000e+00,
242,1.562500e-04,
243,-1.562500e-04,
244,-1.562500e-04,
245,-1.562500e-04,
246,4.687500e-04,
247,3.125000e-04,
248,1.562500e-04,
249,-1.562500e-04,
250,1.562500e-04,
251,1.562500e-04,
252,3.125000e-04,
253,0.000000e+00,
254,3.125000e-04,
255,-3.125000e-04,
256,1.562500e-04,
257,-1.562500e-04,
258,0.000000e+00,
259,1.562500e-04,
260,1.562500e-04,
261,3.125000e-04,
262,4.687500e-04,
263,3.125000e-04,
264,0.000000e+00,
265,3.125000e-04,
266,3.125000e-04,
267,0.000000e+00,
268,3.125000e-04,
269,1.562500e-04,
270,1.562500e-04,
271,0.000000e+00,
272,1.562500e-04,
273,1.562500e-04,
274,0.000000e+00,
275,3.125000e-04,
276,-1.562500e-04,
277,1.562500e-04,
278,0.000000e+00,
279,1.562500e-04,
280,1.562500e-04,
281,4.687500e-04,
282,0.000000e+00,
283,1.562500e-04,
284,3.125000e-04,
285,6.250000e-04,
286,4.687500e-04,
287,4.687500e-04,
288,3.125000e-04,
289,1.562500e-04,
290,4.687500e-04,
291,4.687500e-04,
292,3.125000e-04,
293,1.562500e-04,
294,1.562500e-04,
295,4.687500e-04,
296,3.125000e-04,
297,0.000000e+00,
298,1.562500e-04,
299,1.562500e-04,
300,1.562500e-04,
301,0.000000e+00,
302,-1.562500e-04,
303,4.687500e-04,
304,1.562500e-04,
305,1.562500e-04,
306,1.562500e-04,
307,0.000000e+00,
308,-1.562500e-04,
309,0.000000e+00,
310,0.000000e+00,
311,-1.562500e-04,
312,-1.562500e-04,
313,0.000000e+00,
314,0.000000e+00,
315,0.000000e+00,
316,0.000000e+00,
317,-3.125000e-04,
318,-1.562500e-04,
319,3.125000e-04,
320,1.562500e-04,
321,1.562500e-04,
322,3.125000e-04,
323,1.562500e-04,
324,1.562500e-04,
325,1.562500e-04,
326,1.562500e-04,
327,1.562500e-04,
328,0.000000e+00,
329,-1.562500e-04,
330,0.000000e+00,
331,-1.562500e-04,
332,1.562500e-04,
333,3.125000e-04,
334,1.562500e-04,
335,3.125000e-04,
336,1.562500e-04,
337,3.125000e-04,
338,3.125000e-04,
339,1.562500e-04,
340,3.125000e-04,
341,3.125000e-04,
342,3.125000e-04,
343,0.000000e+00,
344,-3.125000e-04,
345,1.562500e-04,
346,-1.562500e-04,
347,0.000000e+00,
348,3.125000e-04,
349,1.562500e-04,
350,0.000000e+00,
351,0.000000e+00,
352,0.000000e+00,
353,3.125000e-04,
354,0.000000e+00,
355,1.562500e-04,
356,1.562500e-04,
357,0.000000e+00,
358,3.125000e-04,
359,3.125000e-04,
360,3.125000e-04,
361,3.125000e-04,
362,3.125000e-04,
363,1.562500e-04,
364,1.562500e-04,
365,1.562500e-04,
366,3.125000e-04,
367,1.562500e-04,
368,1.562500e-04,
369,3.125000e-04,
370,1.562500e-04,
371,1.562500e-04,
372,3.125000e-04,
373,3.125000e-04,
374,1.562500e-04,
375,1.562500e-04,
376,1.562500e-04,
377,0.000000e+00,
378,-1.562500e-04,
379,0.000000e+00,
380,1.562500e-04,
381,3.125000e-04,
382,3.125000e-04,
383,1.562500e-04,
384,1.562500e-04,
385,-1.562500e-04,
386,3.125000e-04,
387,0.000000e+00,
388,0.000000e+00,
389,1.562500e-04,
390,0.000000e+00,
391,-1.562500e-04,
392,1.562500e-04,
393,-1.562500e-04,
394,0.000000e+00,
395,0.000000e+00,
396,-3.125000e-04,
397,0.000000e+00,
398,0.000000e+00,
399,0.000000e+00,
400,0.000000e+00,
401,1.562500e-04,
402,3.125000e-04,
403,1.562500e-04,
404,0.000000e+00,
405,-1.562500e-04,
406,1.562500e-04,
407,1.562500e-04,
408,1.562500e-04,
409,1.562500e-04,
410,0.000000e+00,
411,1.562500e-04,
412,0.000000e+00,
413,1.562500e-04,
414,4.687500e-04,
415,1.562500e-04,
416,0.000000e+00,
417,1.562500e-04,
418,4.687500e-04,
419,4.687500e-04,
420,1.562500e-04,
421,-1.562500e-04,
422,0.000000e+00,
423,-1.562500e-04,
424,1.562500e-04,
425,1.562500e-04,
426,0.000000e+00,
427,-3.125000e-04,
428,-1.562500e-04,
429,-1.562500e-04,
430,1.562500e-04,
431,3.125000e-04,
432,1.562500e-04,
433,0.000000e+00,
434,0.000000e+00,
435,3.125000e-04,
436,4.687500e-04,
437,3.125000e-04,
438,3.125000e-04,
439,4.687500e-04,
440,3.125000e-04,
441,1.562500e-04,
442,4.687500e-04,
443,3.125000e-04,
444,3.125000e-04,
445,3.125000e-04,
446,3.125000e-04,
447,1.562500e-04,
448,-1.562500e-04,
449,0.000000e+00,
450,0.000000e+00,
451,0.000000e+00,
452,-3.125000e-04,
453,-1.562500e-04,
454,0.000000e+00,
455,1.562500e-04,
456,1.562500e-04,
457,-1.562500e-04,
458,-1.562500e-04,
459,0.000000e+00,
460,-1.562500e-04,
461,0.000000e+00,
462,0.000000e+00,
463,0.000000e+00,
464,-1.562500e-04,
465,0.000000e+00,
466,0.000000e+00,
467,0.000000e+00,
468,-1.562500e-04,
469,0.000000e+00,
470,1.562500e-04,
471,-3.125000e-04,
472,-4.687500e-04,
473,-1.562500e-04,
474,1.562500e-04,
475,1.562500e-04,
476,3.125000e-04,
477,1.562500e-04,
478,0.000000e+00,
479,-1.562500e-04,
480,1.562500e-04,
481,-1.562500e-04,
482,3.125000e-04,
483,3.125000e-04,
484,0.000000e+00,
485,1.562500e-04,
486,1.562500e-04,
487,3.125000e-04,
488,4.687500e-04,
489,-1.562500e-04,
490,1.562500e-04,
491,3.125000e-04,
492,1.562500e-04,
493,3.125000e-04,
494,1.562500e-04,
495,1.562500e-04,
496,3.125000e-04,
497,3.125000e-04,
498,1.562500e-04,
499,1.562500e-04,
500,0.000000e+00,
501,3.125000e-04,
502,0.000000e+00,
503,3.125000e-04,
504,0.000000e+00,
505,3.125000e-04,
506,0.000000e+00,
507,4.687500e-04,
508,0.000000e+00,
509,-1.562500e-04,
510,0.000000e+00,
511,1.562500e-04,
512,1.562500e-04,
513,1.562500e-04,
514,0.000000e+00,
515,4.687500e-04,
516,1.562500e-04,
517,3.125000e-04,
518,3.125000e-04,
519,1.562500e-04,
520,1.562500e-04,
521,0.000000e+00,
522,1.562500e-04,
523,3.125000e-04,
524,0.000000e+00,
525,0.000000e+00,
526,1.562500e-04,
527,-1.562500e-04,
528,1.562500e-04,
529,3.125000e-04,
530,6.250000e-04,
531,3.125000e-04,
532,1.562500e-04,
533,-1.562500e-04,
534,0.000000e+00,
535,-1.562500e-04,
536,0.000000e+00,
537,0.000000e+00,
538,1.562500e-04,
539,-1.562500e-04,
540,0.000000e+00,
541,-1.562500e-04,
542,0.000000e+00,
543,-1.562500e-04,
544,-1.562500e-04,
545,-3.125000e-04,
546,1.562500e-04,
547,3.125000e-04,
548,1.562500e-04,
549,1.562500e-04,
550,0.000000e+00,
551,1.562500e-04,
552,3.125000e-04,
553,3.125000e-04,
554,4.687500e-04,
555,-3.125000e-04,
556,0.000000e+00,
557,0.000000e+00,
558,0.000000e+00,
559,0.000000e+00,
560,1.562500e-04,
561,0.000000e+00,
562,1.562500e-04,
563,1.562500e-04,
564,0.000000e+00,
565,1.562500e-04,
566,0.000000e+00,
567,1.562500e-04,
568,0.000000e+00,
569,3.125000e-04,
570,0.000000e+00,
571,1.562500e-04,
572,1.562500e-04,
573,1.562500e-04,
574,1.562500e-04,
575,-1.562500e-04,
576,3.125000e-04,
577,-1.562500e-04,
578,0.000000e+00,
579,1.562500e-04,
580,0.000000e+00,
581,0.000000e+00,
582,1.562500e-04,
583,0.000000e+00,
584,1.562500e-04,
585,6.250000e-04,
586,3.125000e-04,
587,3.125000e-04,
588,3.125000e-04,
589,1.562500e-04,
590,3.125000e-04,
591,1.562500e-04,
592,0.000000e+00,
593,1.562500e-04,
594,6.250000e-04,
595,3.125000e-04,
596,3.125000e-04,
597,1.562500e-04,
598,4.687500e-04,
599,4.687500e-04,
600,1.562500e-04,
601,3.125000e-04,
602,3.125000e-04,
603,1.562500e-04,
604,1.562500e-04,
605,3.125000e-04,
606,-3.125000e-04,
607,1.562500e-04,
608,3.125000e-04,
609,3.125000e-04,
610,0.000000e+00,
611,3.125000e-04,
612,-1.562500e-04,
613,-1.562500e-04,
614,-1.562500e-04,
615,3.125000e-04,
616,1.562500e-04,
617,1.562500e-04,
618,1.562500e-04,
619,0.000000e+00,
620,-1.562500e-04,
621,1.562500e-04,
622,1.562500e-04,
623,1.562500e-04,
624,-1.562500e-04,
625,3.125000e-04,
626,3.125000e-04,
627,4.687500e-04,
628,1.562500e-04,
629,0.000000e+00,
630,4.687500e-04,
631,4.687500e-04,
632,1.562500e-04,
633,0.000000e+00,
634,1.562500e-04,
635,3.125000e-04,
636,1.562500e-04,
637,1.562500e-04,
638,3.125000e-04,
639,0.000000e+00,
640,0.000000e+00,
641,1.562500e-04,
642,4.687500e-04,
643,1.562500e-04,
644,3.125000e-04,
645,3.125000e-04,
646,3.125000e-04,
647,1.562500e-04,
648,1.562500e-04,
649,0.000000e+00,
650,3.125000e-04,
651,3.125000e-04,
652,1.562500e-04,
653,3.125000e-04,
654,3.125000e-04,
655,3.125000e-04,
656,3.125000e-04,
657,3.125000e-04,
658,4.687500e-04,
659,1.562500e-04,
660,0.000000e+00,
661,1.562500e-04,
662,1.562500e-04,
663,3.125000e-04,
664,3.125000e-04,
665,0.000000e+00,
666,3.125000e-04,
667,1.562500e-04,
668,0.000000e+00,
669,4.687500e-04,
670,1.562500e-04,
671,0.000000e+00,
672,0.000000e+00,
673,0.000000e+00,
674,3.125000e-04,
675,1.562500e-04,
676,0.000000e+00,
677,0.000000e+00,
678,3.125000e-04,
679,1.562500e-04,
680,3.125000e-04,
681,1.562500e-04,
682,1.562500e-04,
683,0.000000e+00,
684,1.562500e-04,
685,3.125000e-04,
686,0.000000e+00,
687,0.000000e+00,
688,3.125000e-04,
689,4.687500e-04,
690,3.125000e-04,
691,1.562500e-04,
692,1.562500e-04,
693,4.687500e-04,
694,0.000000e+00,
695,-1.562500e-04,
696,0.000000e+00,
697,1.562500e-04,
698,1.562500e-04,
699,3.125000e-04,
700,1.562500e-04,
701,3.125000e-04,
702,-1.562500e-04,
703,-1.562500e-04,
704,-1.562500e-04,
705,0.000000e+00,
706,0.000000e+00,
707,3.125000e-04,
708,-1.562500e-04,
709,-3.125000e-04,
710,-1.562500e-04,
711,-1.562500e-04,
712,0.000000e+00,
713,1.562500e-04,
714,1.562500e-04,
715,3.125000e-04,
716,4.687500e-04,
717,3.125000e-04,
718,0.000000e+00,
719,3.125000e-04,
720,3.125000e-04,
721,0.000000e+00,
722,4.687500e-04,
723,1.562500e-04,
724,1.562500e-04,
725,1.562500e-04,
726,0.000000e+00,
727,-1.562500e-04,
728,-1.562500e-04,
729,3.125000e-04,
730,1.562500e-04,
731,1.562500e-04,
732,3.125000e-04,
733,3.125000e-04,
734,4.687500e-04,
735,4.687500e-04,
736,4.687500e-04,
737,3.125000e-04,
738,3.125000e-04,
739,3.125000e-04,
740,4.687500e-04,
741,-1.562500e-04,
742,4.687500e-04,
743,-1.562500e-04,
744,3.125000e-04,
745,1.562500e-04,
746,1.562500e-04,
747,1.562500e-04,
748,0.000000e+00,
749,0.000000e+00,
750,1.562500e-04,
751,4.687500e-04,
752,0.000000e+00,
753,1.562500e-04,
754,0.000000e+00,
755,1.562500e-04,
756,-1.562500e-04,
757,0.000000e+00,
758,1.562500e-04,
759,3.125000e-04,
760,3.125000e-04,
761,-1.562500e-04,
762,0.000000e+00,
763,0.000000e+00,
764,0.000000e+00,
765,0.000000e+00,
766,3.125000e-04,
767,3.125000e-04,
768,1.562500e-04,
769,3.125000e-04,
770,1.562500e-04,
771,1.562500e-04,
772,-3.125000e-04,
773,-1.562500e-04,
774,0.000000e+00,
775,0.000000e+00,
776,1.562500e-04,
777,1.562500e-04,
778,1.562500e-04,
779,1.562500e-04,
780,1.562500e-04,
781,3.125000e-04,
782,0.000000e+00,
783,0.000000e+00,
784,1.562500e-04,
785,3.125000e-04,
786,-3.125000e-04,
787,1.562500e-04,
788,0.000000e+00,
789,0.000000e+00,
790,1.562500e-04,
791,3.125000e-04,
792,0.000000e+00,
793,-1.562500e-04,
794,4.687500e-04,
795,1.562500e-04,
796,-1.562500e-04,
797,0.000000e+00,
798,1.562500e-04,
799,1.562500e-04,
800,3.125000e-04,
801,4.687500e-04,
802,3.125000e-04,
803,3.125000e-04,
804,1.562500e-04,
805,4.687500e-04,
806,3.125000e-04,
807,1.562500e-04,
808,3.125000e-04,
809,1.562500e-04,
810,4.687500e-04,
811,3.125000e-04,
812,3.125000e-04,
813,3.125000e-04,
814,6.250000e-04,
815,7.812500e-04,
816,3.125000e-04,
817,3.125000e-04,
818,3.125000e-04,
819,1.562500e-04,
820,4.687500e-04,
821,1.562500e-04,
822,3.125000e-04,
823,4.687500e-04,
824,3.125000e-04,
825,3.125000e-04,
826,-1.562500e-04,
827,0.000000e+00,
828,0.000000e+00,
829,0.000000e+00,
830,1.562500e-04,
831,1.562500e-04,
832,0.000000e+00,
833,3.125000e-04,
834,3.125000e-04,
835,3.125000e-04,
836,-3.125000e-04,
837,1.562500e-04,
838,0.000000e+00,
839,1.562500e-04,
840,0.000000e+00,
841,1.562500e-04,
842,1.562500e-04,
843,1.562500e-04,
844,3.125000e-04,
845,1.562500e-04,
846,1.562500e-04,
847,3.125000e-04,
848,1.562500e-04,
849,1.562500e-04,
850,1.562500e-04,
851,0.000000e+00,
852,4.687500e-04,
853,1.562500e-04,
854,1.562500e-04,
855,1.562500e-04,
856,-1.562500e-04,
857,0.000000e+00,
858,0.000000e+00,
859,-1.562500e-04,
860,0.000000e+00,
861,-1.562500e-04,
862,1.562500e-04,
863,0.000000e+00,
864,1.562500e-04,
865,0.000000e+00,
866,0.000000e+00,
867,1.562500e-04,
868,1.562500e-04,
869,1.562500e-04,
870,1.562500e-04,
871,1.562500e-04,
872,0.000000e+00,
873,3.125000e-04,
874,0.000000e+00,
875,0.000000e+00,
876,0.000000e+00,
877,1.562500e-04,
878,3.125000e-04,
879,0.000000e+00,
880,4.687500e-04,
881,3.125000e-04,
882,1.562500e-04,
883,1.562500e-04,
884,1.562500e-04,
885,1.562500e-04,
886,0.000000e+00,
887,4.687500e-04,
888,3.125000e-04,
889,1.562500e-04,
890,3.125000e-04,
891,0.000000e+00,
892,3.125000e-04,
893,3.125000e-04,
894,4.687500e-04,
895,3.125000e-04,
896,-1.562500e-04,
897,1.562500e-04,
898,3.125000e-04,
899,1.562500e-04,
900,0.000000e+00,
901,0.000000e+00,
902,0.000000e+00,
903,1.562500e-04,
904,1.562500e-04,
905,1.562500e-04,
906,1.562500e-04,
907,1.562500e-04,
908,0.000000e+00,
909,0.000000e+00,
910,1.562500e-04,
911,4.687500e-04,
912,0.000000e+00,
913,-3.125000e-04,
914,-4.687500e-04,
915,-1.562500e-04,
916,0.000000e+00,
917,-3.125000e-04,
918,-1.562500e-04,
919,1.562500e-04,
920,-1.562500e-04,
921,1.562500e-04,
922,-1.562500e-04,
923,1.562500e-04,
924,1.562500e-04,
925,-3.125000e-04,
926,-1.562500e-04,
927,0.000000e+00,
928,0.000000e+00,
929,0.000000e+00,
930,3.125000e-04,
931,0.000000e+00,
932,0.000000e+00,
933,1.562500e-04,
934,1.562500e-04,
935,0.000000e+00,
936,3.125000e-04,
937,-1.562500e-04,
938,3.125000e-04,
939,1.562500e-04,
940,1.562500e-04,
941,1.562500e-04,
942,0.000000e+00,
943,0.000000e+00,
944,1.562500e-04,
945,1.562500e-04,
946,3.125000e-04,
947,3.125000e-04,
948,4.687500e-04,
949,1.562500e-04,
950,0.000000e+00,
951,1.562500e-04,
952,3.125000e-04,
953,1.562500e-04,
954,1.562500e-04,
955,0.000000e+00,
956,3.125000e-04,
957,3.125000e-04,
958,4.687500e-04,
959,3.125000e-04,
960,0.000000e+00,
961,0.000000e+00,
962,0.000000e+00,
963,0.000000e+00,
964,0.000000e+00,
965,0.000000e+00,
966,-1.562500e-04,
967,1.562500e-04,
968,4.687500e-04,
969,3.125000e-04,
970,3.125000e-04,
971,1.562500e-04,
972,1.562500e-04,
973,0.000000e+00,
974,1.562500e-04,
975,3.125000e-04,
976,0.000000e+00,
977,3.125000e-04,
978,3.125000e-04,
979,-1.562500e-04,
980,1.562500e-04,
981,0.000000e+00,
982,0.000000e+00,
983,0.000000e+00,
984,1.562500e-04,
985,0.000000e+00,
986,0.000000e+00,
987,-1.562500e-04,
988,-1.562500e-04,
989,1.562500e-04,
990,3.125000e-04,
991,0.000000e+00,
992,3.125000e-04,
993,3.125000e-04,
994,3.125000e-04,
995,0.000000e+00,
996,0.000000e+00,
997,0.000000e+00,
998,0.000000e+00,
999,3.125000e-04,
1000,1.562500e-04,
1001,1.562500e-04,
1002,1.562500e-04,
1003,0.000000e+00,
1004,0.000000e+00,
1005,0.000000e+00,
1006,0.000000e+00,
1007,-1.562500e-04,
1008,1.562500e-04,
1009,4.687500e-04,
1010,1.562500e-04,
1011,1.562500e-04,
1012,0.000000e+00,
1013,0.000000e+00,
1014,-3.125000e-04,
1015,0.000000e+00,
1016,3.125000e-04,
1017,3.125000e-04,
1018,3.125000e-04,
1019,1.562500e-04,
1020,-1.562500e-04,
1021,1.562500e-04,
1022,0.000000e+00,
1023,-1.562500e-04,
1024,1.562500e-04,
1025,1.562500e-04,
1026,1.562500e-04,
1027,1.562500e-04,
1028,1.562500e-04,
1029,-1.562500e-04,
1030,1.562500e-04,
1031,0.000000e+00,
1032,4.687500e-04,
1033,3.125000e-04,
1034,3.125000e-04,
1035,0.000000e+00,
1036,1.562500e-04,
1037,3.125000e-04,
1038,0.000000e+00,
1039,0.000000e+00,
1040,1.562500e-04,
1041,1.562500e-04,
1042,1.562500e-04,
1043,3.125000e-04,
1044,3.125000e-04,
1045,1.562500e-04,
1046,1.562500e-04,
1047,4.687500e-04,
1048,1.562500e-04,
1049,0.000000e+00,
1050,3.125000e-04,
1051,3.125000e-04,
1052,1.562500e-04,
1053,-1.562500e-04,
1054,3.125000e-04,
1055,-1.562500e-04,
1056,-1.562500e-04,
1057,1.562500e-04,
1058,-1.562500e-04,
1059,3.125000e-04,
1060,1.562500e-04,
1061,1.562500e-04,
1062,-1.562500e-04,
1063,3.125000e-04,
1064,3.125000e-04,
1065,3.125000e-04,
1066,1.562500e-04,
1067,-1.562500e-04,
1068,1.562500e-04,
1069,-3.125000e-04,
1070,-3.125000e-04,
1071,3.125000e-04,
1072,-1.562500e-04,
1073,-3.125000e-04,
1074,-3.125000e-04,
1075,-1.562500e-04,
1076,3.125000e-04,
1077,1.562500e-04,
1078,-3.125000e-04,
1079,3.125000e-04,
1080,0.000000e+00,
1081,1.562500e-04,
1082,3.125000e-04,
1083,1.562500e-04,
1084,0.000000e+00,
1085,-1.562500e-04,
1086,-1.562500e-04,
1087,0.000000e+00,
1088,3.125000e-04,
1089,1.562500e-04,
1090,1.562500e-04,
1091,0.000000e+00,
1092,1.562500e-04,
1093,4.687500e-04,
1094,3.125000e-04,
1095,1.562500e-04,
1096,-1.562500e-04,
1097,1.562500e-04,
1098,4.687500e-04,
