laser_day1/2024-03-08 F(t) Al target 1/Newfile3.csv

X,CH1,Start,Increment,
Sequence,Volt,-5.999999e-04,2.000000e-07,
0,-3.125000e-04,
1,-3.125000e-04,
2,1.562500e-04,
3,3.125000e-04,
4,3.125000e-04,
5,-1.562500e-04,
6,0.000000e+00,
7,0.000000e+00,
8,0.000000e+00,
9,0.000000e+00,
10,-3.125000e-04,
11,1.562500e-04,
12,-1.562500e-04,
13,0.000000e+00,
14,-1.562500e-04,
15,0.000000e+00,
16,1.562500e-04,
17,-3.125000e-04,
18,1.562500e-04,
19,0.000000e+00,
20,-1.562500e-04,
21,1.562500e-04,
22,-1.562500e-04,
23,-3.125000e-04,
24,-1.562500e-04,
25,-1.562500e-04,
26,1.562500e-04,
27,-3.125000e-04,
28,3.125000e-04,
29,1.562500e-04,
30,1.562500e-04,
31,0.000000e+00,
32,3.125000e-04,
33,0.000000e+00,
34,-1.562500e-04,
35,-3.125000e-04,
36,-1.562500e-04,
37,1.562500e-04,
38,1.562500e-04,
39,1.562500e-04,
40,0.000000e+00,
41,3.125000e-04,
42,-3.125000e-04,
43,-3.125000e-04,
44,-1.562500e-04,
45,-1.562500e-04,
46,-1.562500e-04,
47,1.562500e-04,
48,0.000000e+00,
49,-3.125000e-04,
50,3.125000e-04,
51,0.000000e+00,
52,1.562500e-04,
53,3.125000e-04,
54,1.562500e-04,
55,0.000000e+00,
56,3.125000e-04,
57,1.562500e-04,
58,1.562500e-04,
59,0.000000e+00,
60,0.000000e+00,
61,1.562500e-04,
62,-3.125000e-04,
63,-1.562500e-04,
64,1.562500e-04,
65,1.562500e-04,
66,0.000000e+00,
67,0.000000e+00,
68,1.562500e-04,
69,3.125000e-04,
70,-3.125000e-04,
71,1.562500e-04,
72,1.562500e-04,
73,3.125000e-04,
74,3.125000e-04,
75,4.687500e-04,
76,1.562500e-04,
77,-1.562500e-04,
78,-1.562500e-04,
79,0.000000e+00,
80,-1.562500e-04,
81,-1.562500e-04,
82,0.000000e+00,
83,0.000000e+00,
84,0.000000e+00,
85,-3.125000e-04,
86,-4.687500e-04,
87,-4.687500e-04,
88,1.562500e-04,
89,0.000000e+00,
90,3.125000e-04,
91,0.000000e+00,
92,1.562500e-04,
93,-3.125000e-04,
94,3.125000e-04,
95,-1.562500e-04,
96,0.000000e+00,
97,1.562500e-04,
98,0.000000e+00,
99,0.000000e+00,
100,3.125000e-04,
101,1.562500e-04,
102,-1.562500e-04,
103,1.562500e-04,
104,1.562500e-04,
105,3.125000e-04,
106,-1.562500e-04,
107,1.562500e-04,
108,1.562500e-04,
109,-1.562500e-04,
110,1.562500e-04,
111,0.000000e+00,
112,1.562500e-04,
113,1.562500e-04,
114,1.562500e-04,
115,3.125000e-04,
116,-1.562500e-04,
117,0.000000e+00,
118,1.562500e-04,
119,3.125000e-04,
120,1.562500e-04,
121,3.125000e-04,
122,1.562500e-04,
123,0.000000e+00,
124,1.562500e-04,
125,3.125000e-04,
126,0.000000e+00,
127,1.562500e-04,
128,0.000000e+00,
129,-1.562500e-04,
130,-1.562500e-04,
131,-1.562500e-04,
132,0.000000e+00,
133,-3.125000e-04,
134,-1.562500e-04,
135,0.000000e+00,
136,1.562500e-04,
137,1.562500e-04,
138,-1.562500e-04,
139,-3.125000e-04,
140,0.000000e+00,
141,0.000000e+00,
142,0.000000e+00,
143,1.562500e-04,
144,0.000000e+00,
145,1.562500e-04,
146,1.562500e-04,
147,-3.125000e-04,
148,0.000000e+00,
149,-1.562500e-04,
150,3.125000e-04,
151,-1.562500e-04,
152,0.000000e+00,
153,-4.687500e-04,
154,0.000000e+00,
155,-1.562500e-04,
156,-1.562500e-04,
157,0.000000e+00,
158,-1.562500e-04,
159,3.125000e-04,
160,-1.562500e-04,
161,1.562500e-04,
162,0.000000e+00,
163,-3.125000e-04,
164,1.562500e-04,
165,1.562500e-04,
166,3.125000e-04,
167,1.562500e-04,
168,1.562500e-04,
169,1.562500e-04,
170,0.000000e+00,
171,3.125000e-04,
172,0.000000e+00,
173,1.562500e-04,
174,-1.562500e-04,
175,1.562500e-04,
176,0.000000e+00,
177,-3.125000e-04,
178,-1.562500e-04,
179,0.000000e+00,
180,-1.562500e-04,
181,1.562500e-04,
182,3.125000e-04,
183,0.000000e+00,
184,1.562500e-04,
185,0.000000e+00,
186,-3.125000e-04,
187,1.562500e-04,
188,0.000000e+00,
189,3.125000e-04,
190,0.000000e+00,
191,1.562500e-04,
192,0.000000e+00,
193,3.125000e-04,
194,4.687500e-04,
195,1.562500e-04,
196,0.000000e+00,
197,0.000000e+00,
198,1.562500e-04,
199,-1.562500e-04,
200,1.562500e-04,
201,3.125000e-04,
202,1.562500e-04,
203,3.125000e-04,
204,0.000000e+00,
205,1.562500e-04,
206,1.562500e-04,
207,0.000000e+00,
208,-3.125000e-04,
209,-1.562500e-04,
210,-1.562500e-04,
211,-1.562500e-04,
212,3.125000e-04,
213,0.000000e+00,
214,-3.125000e-04,
215,-1.562500e-04,
216,-1.562500e-04,
217,-1.562500e-04,
218,-1.562500e-04,
219,-1.562500e-04,
220,1.562500e-04,
221,1.562500e-04,
222,3.125000e-04,
223,3.125000e-04,
224,1.562500e-04,
225,3.125000e-04,
226,1.562500e-04,
227,-3.125000e-04,
228,-1.562500e-04,
229,0.000000e+00,
230,0.000000e+00,
231,0.000000e+00,
232,3.125000e-04,
233,0.000000e+00,
234,1.562500e-04,
235,1.562500e-04,
236,-1.562500e-04,
237,1.562500e-04,
238,1.562500e-04,
239,1.562500e-04,
240,3.125000e-04,
241,1.562500e-04,
242,1.562500e-04,
243,1.562500e-04,
244,-1.562500e-04,
245,-1.562500e-04,
246,1.562500e-04,
247,-1.562500e-04,
248,-1.562500e-04,
249,-4.687500e-04,
250,-1.562500e-04,
251,3.125000e-04,
252,0.000000e+00,
253,-3.125000e-04,
254,3.125000e-04,
255,1.562500e-04,
256,1.562500e-04,
257,0.000000e+00,
258,-3.125000e-04,
259,0.000000e+00,
260,0.000000e+00,
261,1.562500e-04,
262,-1.562500e-04,
263,-1.562500e-04,
264,1.562500e-04,
265,0.000000e+00,
266,1.562500e-04,
267,-1.562500e-04,
268,3.125000e-04,
269,-1.562500e-04,
270,1.562500e-04,
271,0.000000e+00,
272,3.125000e-04,
273,0.000000e+00,
274,-3.125000e-04,
275,1.562500e-04,
276,3.125000e-04,
277,-1.562500e-04,
278,1.562500e-04,
279,0.000000e+00,
280,0.000000e+00,
281,0.000000e+00,
282,-3.125000e-04,
283,-1.562500e-04,
284,1.562500e-04,
285,-1.562500e-04,
286,-3.125000e-04,
287,-3.125000e-04,
288,0.000000e+00,
289,-3.125000e-04,
290,0.000000e+00,
291,-3.125000e-04,
292,-3.125000e-04,
293,0.000000e+00,
294,0.000000e+00,
295,0.000000e+00,
296,0.000000e+00,
297,4.687500e-04,
298,4.687500e-04,
299,0.000000e+00,
300,0.000000e+00,
301,-1.562500e-04,
302,1.562500e-04,
303,0.000000e+00,
304,-4.687500e-04,
305,-4.687500e-04,
306,-3.125000e-04,
307,0.000000e+00,
308,-3.125000e-04,
309,1.562500e-04,
310,0.000000e+00,
311,0.000000e+00,
312,0.000000e+00,
313,1.562500e-04,
314,1.562500e-04,
315,1.562500e-04,
316,-1.562500e-04,
317,1.562500e-04,
318,1.562500e-04,
319,-3.125000e-04,
320,-3.125000e-04,
321,1.562500e-04,
322,1.562500e-04,
323,1.562500e-04,
324,0.000000e+00,
325,1.562500e-04,
326,0.000000e+00,
327,1.562500e-04,
328,4.687500e-04,
329,1.562500e-04,
330,0.000000e+00,
331,1.562500e-04,
332,-3.125000e-04,
333,0.000000e+00,
334,0.000000e+00,
335,-1.562500e-04,
336,0.000000e+00,
337,0.000000e+00,
338,4.687500e-04,
339,1.562500e-04,
340,1.562500e-04,
341,1.562500e-04,
342,0.000000e+00,
343,3.125000e-04,
344,1.562500e-04,
345,0.000000e+00,
346,-3.125000e-04,
347,1.562500e-04,
348,0.000000e+00,
349,0.000000e+00,
350,-3.125000e-04,
351,-1.562500e-04,
352,3.125000e-04,
353,0.000000e+00,
354,0.000000e+00,
355,3.125000e-04,
356,0.000000e+00,
357,-1.562500e-04,
358,0.000000e+00,
359,0.000000e+00,
360,-3.125000e-04,
361,0.000000e+00,
362,-1.562500e-04,
363,1.562500e-04,
364,-1.562500e-04,
365,-3.125000e-04,
366,1.562500e-04,
367,-1.562500e-04,
368,-1.562500e-04,
369,3.125000e-04,
370,-3.125000e-04,
371,0.000000e+00,
372,0.000000e+00,
373,-1.562500e-04,
374,-1.562500e-04,
375,-1.562500e-04,
376,0.000000e+00,
377,-1.562500e-04,
378,-3.125000e-04,
379,1.562500e-04,
380,-1.562500e-04,
381,-1.562500e-04,
382,0.000000e+00,
383,0.000000e+00,
384,-1.562500e-04,
385,-1.562500e-04,
386,1.562500e-04,
387,0.000000e+00,
388,0.000000e+00,
389,0.000000e+00,
390,0.000000e+00,
391,0.000000e+00,
392,1.562500e-04,
393,1.562500e-04,
394,-3.125000e-04,
395,-1.562500e-04,
396,3.125000e-04,
397,3.125000e-04,
398,-3.125000e-04,
399,0.000000e+00,
400,-3.125000e-04,
401,0.000000e+00,
402,3.125000e-04,
403,1.562500e-04,
404,1.562500e-04,
405,3.125000e-04,
406,0.000000e+00,
407,-1.562500e-04,
408,0.000000e+00,
409,-3.125000e-04,
410,0.000000e+00,
411,-4.687500e-04,
412,0.000000e+00,
413,1.562500e-04,
414,-1.562500e-04,
415,-1.562500e-04,
416,-3.125000e-04,
417,0.000000e+00,
418,0.000000e+00,
419,1.562500e-04,
420,1.562500e-04,
421,1.562500e-04,
422,0.000000e+00,
423,1.562500e-04,
424,1.562500e-04,
425,0.000000e+00,
426,3.125000e-04,
427,0.000000e+00,
428,0.000000e+00,
429,0.000000e+00,
430,0.000000e+00,
431,-4.687500e-04,
432,0.000000e+00,
433,1.562500e-04,
434,0.000000e+00,
435,-1.562500e-04,
436,-3.125000e-04,
437,0.000000e+00,
438,-3.125000e-04,
439,-1.562500e-04,
440,0.000000e+00,
441,0.000000e+00,
442,1.562500e-04,
443,0.000000e+00,
444,3.125000e-04,
445,-1.562500e-04,
446,-3.125000e-04,
447,0.000000e+00,
448,1.562500e-04,
449,-1.562500e-04,
450,0.000000e+00,
451,0.000000e+00,
452,1.562500e-04,
453,0.000000e+00,
454,-3.125000e-04,
455,3.125000e-04,
456,0.000000e+00,
457,0.000000e+00,
458,0.000000e+00,
459,0.000000e+00,
460,-1.562500e-04,
461,1.562500e-04,
462,1.562500e-04,
463,0.000000e+00,
464,-1.562500e-04,
465,1.562500e-04,
466,3.125000e-04,
467,4.687500e-04,
468,1.562500e-04,
469,3.125000e-04,
470,1.562500e-04,
471,-1.562500e-04,
472,1.562500e-04,
473,0.000000e+00,
474,-1.562500e-04,
475,1.562500e-04,
476,1.562500e-04,
477,0.000000e+00,
478,0.000000e+00,
479,6.250000e-04,
480,1.562500e-04,
481,1.562500e-04,
482,-1.562500e-04,
483,0.000000e+00,
484,0.000000e+00,
485,-1.562500e-04,
486,-3.125000e-04,
487,-3.125000e-04,
488,1.562500e-04,
489,-3.125000e-04,
490,-1.562500e-04,
491,1.562500e-04,
492,1.562500e-04,
493,1.562500e-04,
494,0.000000e+00,
495,1.562500e-04,
496,1.562500e-04,
497,1.562500e-04,
498,0.000000e+00,
499,-1.562500e-04,
500,-3.125000e-04,
501,1.562500e-04,
502,-1.562500e-04,
503,-1.562500e-04,
504,0.000000e+00,
505,3.125000e-04,
506,4.687500e-04,
507,0.000000e+00,
508,0.000000e+00,
509,1.562500e-04,
510,-3.125000e-04,
511,-1.562500e-04,
512,0.000000e+00,
513,0.000000e+00,
514,0.000000e+00,
515,1.562500e-04,
516,1.562500e-04,
517,0.000000e+00,
518,0.000000e+00,
519,-1.562500e-04,
520,0.000000e+00,
521,-1.562500e-04,
522,0.000000e+00,
523,0.000000e+00,
524,0.000000e+00,
525,0.000000e+00,
526,0.000000e+00,
527,3.125000e-04,
528,0.000000e+00,
529,-1.562500e-04,
530,-1.562500e-04,
531,0.000000e+00,
532,0.000000e+00,
533,4.687500e-04,
534,3.125000e-04,
535,1.562500e-04,
536,3.125000e-04,
537,0.000000e+00,
538,1.562500e-04,
539,-3.125000e-04,
540,3.125000e-04,
541,1.562500e-04,
542,0.000000e+00,
543,1.562500e-04,
544,0.000000e+00,
545,0.000000e+00,
546,1.562500e-04,
547,0.000000e+00,
548,0.000000e+00,
549,0.000000e+00,
550,0.000000e+00,
551,0.000000e+00,
552,1.562500e-04,
553,0.000000e+00,
554,0.000000e+00,
555,1.562500e-04,
556,0.000000e+00,
557,0.000000e+00,
558,0.000000e+00,
559,0.000000e+00,
560,0.000000e+00,
561,0.000000e+00,
562,-1.562500e-04,
563,-1.562500e-04,
564,-1.562500e-04,
565,1.562500e-04,
566,1.562500e-04,
567,1.562500e-04,
568,-3.125000e-04,
569,1.562500e-04,
570,1.562500e-04,
571,0.000000e+00,
572,1.562500e-04,
573,1.562500e-04,
574,0.000000e+00,
575,1.562500e-04,
576,-1.562500e-04,
577,1.562500e-04,
578,1.562500e-04,
579,3.125000e-04,
580,3.125000e-04,
581,3.125000e-04,
582,0.000000e+00,
583,-1.562500e-04,
584,-1.562500e-04,
585,-3.125000e-04,
586,1.562500e-04,
587,3.125000e-04,
588,0.000000e+00,
589,-3.125000e-04,
590,1.562500e-04,
591,0.000000e+00,
592,0.000000e+00,
593,4.687500e-04,
594,-1.562500e-04,
595,-1.562500e-04,
596,0.000000e+00,
597,0.000000e+00,
598,-1.562500e-04,
599,-3.125000e-04,
600,0.000000e+00,
601,0.000000e+00,
602,0.000000e+00,
603,-1.562500e-04,
604,-1.562500e-04,
605,1.562500e-04,
606,1.562500e-04,
607,3.125000e-04,
608,1.562500e-04,
609,0.000000e+00,
610,0.000000e+00,
611,-1.562500e-04,
612,1.562500e-04,
613,4.687500e-04,
614,-1.562500e-04,
615,0.000000e+00,
616,1.562500e-04,
617,-1.562500e-04,
618,3.125000e-04,
619,1.562500e-04,
620,-3.125000e-04,
621,4.687500e-04,
622,3.125000e-04,
623,3.125000e-04,
624,1.562500e-04,
625,1.562500e-04,
626,3.125000e-04,
627,0.000000e+00,
628,-1.562500e-04,
629,1.562500e-04,
630,3.125000e-04,
631,3.125000e-04,
632,0.000000e+00,
633,3.125000e-04,
634,-1.562500e-04,
635,-1.562500e-04,
636,0.000000e+00,
637,0.000000e+00,
638,0.000000e+00,
639,1.562500e-04,
640,-3.125000e-04,
641,-3.125000e-04,
642,-1.562500e-04,
643,-1.562500e-04,
644,0.000000e+00,
645,-1.562500e-04,
646,-1.562500e-04,
647,0.000000e+00,
648,-1.562500e-04,
649,0.000000e+00,
650,0.000000e+00,
651,0.000000e+00,
652,1.562500e-04,
653,0.000000e+00,
654,3.125000e-04,
655,-3.125000e-04,
656,0.000000e+00,
657,-1.562500e-04,
658,1.562500e-04,
659,1.562500e-04,
660,1.562500e-04,
661,1.562500e-04,
662,-1.562500e-04,
663,0.000000e+00,
664,1.562500e-04,
665,1.562500e-04,
666,0.000000e+00,
667,-1.562500e-04,
668,-1.562500e-04,
669,0.000000e+00,
670,0.000000e+00,
671,-1.562500e-04,
672,4.687500e-04,
673,1.562500e-04,
674,0.000000e+00,
675,-1.562500e-04,
676,-1.562500e-04,
677,1.562500e-04,
678,-1.562500e-04,
679,0.000000e+00,
680,-3.125000e-04,
681,1.562500e-04,
682,-1.562500e-04,
683,1.562500e-04,
684,-1.562500e-04,
685,1.562500e-04,
686,-1.562500e-04,
687,3.125000e-04,
688,1.562500e-04,
689,3.125000e-04,
690,-1.562500e-04,
691,3.125000e-04,
692,0.000000e+00,
693,0.000000e+00,
694,0.000000e+00,
695,-1.562500e-04,
696,-1.562500e-04,
697,-1.562500e-04,
698,1.562500e-04,
699,3.125000e-04,
700,3.125000e-04,
701,3.125000e-04,
702,3.125000e-04,
703,0.000000e+00,
704,0.000000e+00,
705,0.000000e+00,
706,1.562500e-04,
707,-1.562500e-04,
708,1.562500e-04,
709,-1.562500e-04,
710,-1.562500e-04,
711,1.562500e-04,
712,1.562500e-04,
713,1.562500e-04,
714,0.000000e+00,
715,1.562500e-04,
716,-1.562500e-04,
717,1.562500e-04,
718,3.125000e-04,
719,0.000000e+00,
720,1.562500e-04,
721,1.562500e-04,
722,0.000000e+00,
723,0.000000e+00,
724,3.125000e-04,
725,3.125000e-04,
726,0.000000e+00,
727,0.000000e+00,
728,1.562500e-04,
729,-3.125000e-04,
730,0.000000e+00,
731,-1.562500e-04,
732,0.000000e+00,
733,-1.562500e-04,
734,-1.562500e-04,
735,0.000000e+00,
736,-1.562500e-04,
737,-3.125000e-04,
738,4.687500e-04,
739,1.562500e-04,
740,1.562500e-04,
741,1.562500e-04,
742,3.125000e-04,
743,0.000000e+00,
744,1.562500e-04,
745,-1.562500e-04,
746,-3.125000e-04,
747,1.562500e-04,
748,1.562500e-04,
749,1.562500e-04,
750,1.562500e-04,
751,-3.125000e-04,
752,-1.562500e-04,
753,-3.125000e-04,
754,-4.687500e-04,
755,-1.562500e-04,
756,-3.125000e-04,
757,-1.562500e-04,
758,-1.562500e-04,
759,-1.562500e-04,
760,-3.125000e-04,
761,1.562500e-04,
762,1.562500e-04,
763,1.562500e-04,
764,3.125000e-04,
765,-1.562500e-04,
766,1.562500e-04,
767,1.562500e-04,
768,-1.562500e-04,
769,0.000000e+00,
770,-1.562500e-04,
771,1.562500e-04,
772,0.000000e+00,
773,1.562500e-04,
774,0.000000e+00,
775,1.562500e-04,
776,1.562500e-04,
777,0.000000e+00,
778,0.000000e+00,
779,1.562500e-04,
780,1.562500e-04,
781,3.125000e-04,
782,3.125000e-04,
783,3.125000e-04,
784,4.687500e-04,
785,0.000000e+00,
786,-1.562500e-04,
787,1.562500e-04,
788,0.000000e+00,
789,1.562500e-04,
790,1.562500e-04,
791,3.125000e-04,
792,3.125000e-04,
793,0.000000e+00,
794,0.000000e+00,
795,3.125000e-04,
796,3.125000e-04,
797,1.562500e-04,
798,3.125000e-04,
799,0.000000e+00,
800,3.125000e-04,
801,6.250000e-04,
802,3.125000e-04,
803,3.125000e-04,
804,1.562500e-04,
805,0.000000e+00,
806,0.000000e+00,
807,1.562500e-04,
808,0.000000e+00,
809,1.562500e-04,
810,1.562500e-04,
811,3.125000e-04,
812,0.000000e+00,
813,1.562500e-04,
814,1.562500e-04,
815,1.562500e-04,
816,1.562500e-04,
817,1.562500e-04,
818,1.562500e-04,
819,-1.562500e-04,
820,-1.562500e-04,
821,0.000000e+00,
822,0.000000e+00,
823,1.562500e-04,
824,0.000000e+00,
825,-3.125000e-04,
826,-4.687500e-04,
827,0.000000e+00,
828,-1.562500e-04,
829,-1.562500e-04,
830,3.125000e-04,
831,3.125000e-04,
832,1.562500e-04,
833,0.000000e+00,
834,1.562500e-04,
835,1.562500e-04,
836,1.562500e-04,
837,3.125000e-04,
838,3.125000e-04,
839,-3.125000e-04,
840,0.000000e+00,
841,-1.562500e-04,
842,0.000000e+00,
843,-1.562500e-04,
844,0.000000e+00,
845,0.000000e+00,
846,4.687500e-04,
847,-1.562500e-04,
848,3.125000e-04,
849,0.000000e+00,
850,-1.562500e-04,
851,0.000000e+00,
852,0.000000e+00,
853,1.562500e-04,
854,0.000000e+00,
855,-1.562500e-04,
856,-1.562500e-04,
857,1.562500e-04,
858,3.125000e-04,
859,1.562500e-04,
860,-1.562500e-04,
861,-1.562500e-04,
862,3.125000e-04,
863,4.687500e-04,
864,3.125000e-04,
865,1.562500e-04,
866,3.125000e-04,
867,3.125000e-04,
868,3.125000e-04,
869,1.562500e-04,
870,-1.562500e-04,
871,3.125000e-04,
872,1.562500e-04,
873,1.562500e-04,
874,-1.562500e-04,
875,1.562500e-04,
876,0.000000e+00,
877,-3.125000e-04,
878,1.562500e-04,
879,1.562500e-04,
880,0.000000e+00,
881,3.125000e-04,
882,1.562500e-04,
883,-1.562500e-04,
884,3.125000e-04,
885,1.562500e-04,
886,0.000000e+00,
887,0.000000e+00,
888,4.687500e-04,
889,3.125000e-04,
890,0.000000e+00,
891,1.562500e-04,
892,-1.562500e-04,
893,-4.687500e-04,
894,-1.562500e-04,
895,0.000000e+00,
896,-1.562500e-04,
897,-3.125000e-04,
898,0.000000e+00,
899,-1.562500e-04,
900,1.562500e-04,
901,3.125000e-04,
902,1.562500e-04,
903,-1.562500e-04,
904,-1.562500e-04,
905,0.000000e+00,
906,1.562500e-04,
907,-3.125000e-04,
908,-3.125000e-04,
909,0.000000e+00,
910,3.125000e-04,
911,1.562500e-04,
912,3.125000e-04,
913,0.000000e+00,
914,-1.562500e-04,
915,1.562500e-04,
916,3.125000e-04,
917,1.562500e-04,
918,1.562500e-04,
919,0.000000e+00,
920,1.562500e-04,
921,-1.562500e-04,
922,1.562500e-04,
923,0.000000e+00,
924,-1.562500e-04,
925,1.562500e-04,
926,0.000000e+00,
927,0.000000e+00,
928,0.000000e+00,
929,1.562500e-04,
930,0.000000e+00,
931,3.125000e-04,
932,0.000000e+00,
933,1.562500e-04,
934,3.125000e-04,
935,1.562500e-04,
936,3.125000e-04,
937,1.562500e-04,
938,0.000000e+00,
939,1.562500e-04,
940,3.125000e-04,
941,3.125000e-04,
942,-1.562500e-04,
943,0.000000e+00,
944,1.562500e-04,
945,0.000000e+00,
946,0.000000e+00,
947,-3.125000e-04,
948,0.000000e+00,
949,1.562500e-04,
950,1.562500e-04,
951,1.562500e-04,
952,0.000000e+00,
953,-1.562500e-04,
954,-3.125000e-04,
955,-1.562500e-04,
956,1.562500e-04,
957,4.687500e-04,
958,4.687500e-04,
959,3.125000e-04,
960,-1.562500e-04,
961,1.562500e-04,
962,0.000000e+00,
963,-1.562500e-04,
964,1.562500e-04,
965,3.125000e-04,
966,-3.125000e-04,
967,0.000000e+00,
968,-1.562500e-04,
969,0.000000e+00,
970,-1.562500e-04,
971,0.000000e+00,
972,0.000000e+00,
973,-1.562500e-04,
974,1.562500e-04,
975,0.000000e+00,
976,3.125000e-04,
977,1.562500e-04,
978,1.562500e-04,
979,1.562500e-04,
980,0.000000e+00,
981,-1.562500e-04,
982,-1.562500e-04,
983,-1.562500e-04,
984,1.562500e-04,
985,1.562500e-04,
986,-1.562500e-04,
987,0.000000e+00,
988,-1.562500e-04,
989,0.000000e+00,
990,-3.125000e-04,
991,0.000000e+00,
992,-1.562500e-04,
993,1.562500e-04,
994,3.125000e-04,
995,3.125000e-04,
996,0.000000e+00,
997,-1.562500e-04,
998,0.000000e+00,
999,0.000000e+00,
1000,1.562500e-04,
1001,0.000000e+00,
1002,-3.125000e-04,
1003,-3.125000e-04,
1004,0.000000e+00,
1005,-4.687500e-04,
1006,0.000000e+00,
1007,0.000000e+00,
1008,-3.125000e-04,
1009,3.125000e-04,
1010,3.125000e-04,
1011,3.125000e-04,
1012,1.562500e-04,
1013,0.000000e+00,
1014,-1.562500e-04,
1015,-1.562500e-04,
1016,-1.562500e-04,
1017,-1.562500e-04,
1018,1.562500e-04,
1019,-1.562500e-04,
1020,-1.562500e-04,
1021,3.125000e-04,
1022,1.562500e-04,
1023,1.562500e-04,
1024,3.125000e-04,
1025,1.562500e-04,
1026,-3.125000e-04,
1027,1.562500e-04,
1028,1.562500e-04,
1029,-3.125000e-04,
1030,0.000000e+00,
1031,-1.562500e-04,
1032,0.000000e+00,
1033,0.000000e+00,
1034,1.562500e-04,
1035,1.562500e-04,
1036,-3.125000e-04,
1037,0.000000e+00,
1038,-1.562500e-04,
1039,0.000000e+00,
1040,1.562500e-04,
1041,0.000000e+00,
1042,0.000000e+00,
1043,1.562500e-04,
1044,0.000000e+00,
1045,-1.562500e-04,
1046,0.000000e+00,
1047,1.562500e-04,
1048,1.562500e-04,
1049,0.000000e+00,
1050,0.000000e+00,
1051,0.000000e+00,
1052,0.000000e+00,
1053,1.562500e-04,
1054,1.562500e-04,
1055,1.562500e-04,
1056,-3.125000e-04,
1057,-1.562500e-04,
1058,3.125000e-04,
1059,4.687500e-04,
1060,1.562500e-04,
1061,0.000000e+00,
1062,-1.562500e-04,
1063,1.562500e-04,
1064,-1.562500e-04,
1065,3.125000e-04,
1066,0.000000e+00,
1067,-1.562500e-04,
1068,0.000000e+00,
1069,0.000000e+00,
1070,0.000000e+00,
1071,3.125000e-04,
1072,3.125000e-04,
1073,0.000000e+00,
1074,0.000000e+00,
1075,1.562500e-04,
1076,1.562500e-04,
1077,3.125000e-04,
1078,0.000000e+00,
1079,0.000000e+00,
1080,0.000000e+00,
1081,-1.562500e-04,
1082,-3.125000e-04,
1083,0.000000e+00,
1084,-1.562500e-04,
1085,-1.562500e-04,
1086,-1.562500e-04,
1087,-1.562500e-04,
1088,0.000000e+00,
1089,1.562500e-04,
1090,1.562500e-04,
