laser_day1/2024-03-08 F(t) Al target 1/Newfile4.csv

X,CH1,Start,Increment,
Sequence,Volt,-5.999999e-04,2.000000e-07,
0,-1.562500e-04,
1,1.562500e-04,
2,-1.562500e-04,
3,-4.687500e-04,
4,0.000000e+00,
5,-3.125000e-04,
6,-1.562500e-04,
7,-1.562500e-04,
8,-3.125000e-04,
9,-3.125000e-04,
10,-1.562500e-04,
11,-3.125000e-04,
12,-4.687500e-04,
13,-3.125000e-04,
14,-1.562500e-04,
15,-3.125000e-04,
16,-3.125000e-04,
17,-1.562500e-04,
18,-3.125000e-04,
19,-1.562500e-04,
20,1.562500e-04,
21,-1.562500e-04,
22,-3.125000e-04,
23,-3.125000e-04,
24,-3.125000e-04,
25,-3.125000e-04,
26,-4.687500e-04,
27,-3.125000e-04,
28,-4.687500e-04,
29,-4.687500e-04,
30,-1.562500e-04,
31,-3.125000e-04,
32,-4.687500e-04,
33,-6.250000e-04,
34,-7.812500e-04,
35,-3.125000e-04,
36,-3.125000e-04,
37,-4.687500e-04,
38,-3.125000e-04,
39,-3.125000e-04,
40,-3.125000e-04,
41,-4.687500e-04,
42,-4.687500e-04,
43,-1.562500e-04,
44,-3.125000e-04,
45,-1.562500e-04,
46,-4.687500e-04,
47,-3.125000e-04,
48,0.000000e+00,
49,-3.125000e-04,
50,-6.250000e-04,
51,-4.687500e-04,
52,-3.125000e-04,
53,-3.125000e-04,
54,-4.687500e-04,
55,-3.125000e-04,
56,0.000000e+00,
57,-1.562500e-04,
58,-1.562500e-04,
59,-3.125000e-04,
60,-1.562500e-04,
61,0.000000e+00,
62,-4.687500e-04,
63,-3.125000e-04,
64,-3.125000e-04,
65,1.562500e-04,
66,-1.562500e-04,
67,-3.125000e-04,
68,-3.125000e-04,
69,-3.125000e-04,
70,-3.125000e-04,
71,-4.687500e-04,
72,-4.687500e-04,
73,-4.687500e-04,
74,-3.125000e-04,
75,0.000000e+00,
76,-4.687500e-04,
77,-1.562500e-04,
78,0.000000e+00,
79,-1.562500e-04,
80,-4.687500e-04,
81,-3.125000e-04,
82,-1.562500e-04,
83,-4.687500e-04,
84,0.000000e+00,
85,-3.125000e-04,
86,-1.562500e-04,
87,-3.125000e-04,
88,-4.687500e-04,
89,-3.125000e-04,
90,-3.125000e-04,
91,-3.125000e-04,
92,-3.125000e-04,
93,-4.687500e-04,
94,-1.562500e-04,
95,-1.562500e-04,
96,0.000000e+00,
97,-1.562500e-04,
98,-4.687500e-04,
99,-3.125000e-04,
100,-4.687500e-04,
101,0.000000e+00,
102,0.000000e+00,
103,-3.125000e-04,
104,-4.687500e-04,
105,-4.687500e-04,
106,-3.125000e-04,
107,-4.687500e-04,
108,-3.125000e-04,
109,0.000000e+00,
110,-1.562500e-04,
111,1.562500e-04,
112,1.562500e-04,
113,-3.125000e-04,
114,-3.125000e-04,
115,-3.125000e-04,
116,-3.125000e-04,
117,-1.562500e-04,
118,-1.562500e-04,
119,-3.125000e-04,
120,-4.687500e-04,
121,-3.125000e-04,
122,-1.562500e-04,
123,-3.125000e-04,
124,-3.125000e-04,
125,1.562500e-04,
126,-1.562500e-04,
127,-3.125000e-04,
128,-3.125000e-04,
129,-1.562500e-04,
130,-1.562500e-04,
131,-3.125000e-04,
132,-3.125000e-04,
133,-1.562500e-04,
134,-6.250000e-04,
135,-1.562500e-04,
136,0.000000e+00,
137,-1.562500e-04,
138,-1.562500e-04,
139,0.000000e+00,
140,-1.562500e-04,
141,-1.562500e-04,
142,-3.125000e-04,
143,-4.687500e-04,
144,-1.562500e-04,
145,-3.125000e-04,
146,-3.125000e-04,
147,-1.562500e-04,
148,-3.125000e-04,
149,0.000000e+00,
150,-1.562500e-04,
151,0.000000e+00,
152,-1.562500e-04,
153,-1.562500e-04,
154,-3.125000e-04,
155,1.562500e-04,
156,0.000000e+00,
157,-4.687500e-04,
158,-4.687500e-04,
159,-4.687500e-04,
160,-3.125000e-04,
161,0.000000e+00,
162,-4.687500e-04,
163,-3.125000e-04,
164,-3.125000e-04,
165,-1.562500e-04,
166,-4.687500e-04,
167,-4.687500e-04,
168,-7.812500e-04,
169,-6.250000e-04,
170,-4.687500e-04,
171,-3.125000e-04,
172,-4.687500e-04,
173,-1.562500e-04,
174,0.000000e+00,
175,-4.687500e-04,
176,-3.125000e-04,
177,-3.125000e-04,
178,-4.687500e-04,
179,-3.125000e-04,
180,-4.687500e-04,
181,-3.125000e-04,
182,-3.125000e-04,
183,-4.687500e-04,
184,-3.125000e-04,
185,-1.562500e-04,
186,0.000000e+00,
187,0.000000e+00,
188,-4.687500e-04,
189,-3.125000e-04,
190,-4.687500e-04,
191,-4.687500e-04,
192,-1.562500e-04,
193,-3.125000e-04,
194,-3.125000e-04,
195,-4.687500e-04,
196,-4.687500e-04,
197,-6.250000e-04,
198,-4.687500e-04,
199,-3.125000e-04,
200,-3.125000e-04,
201,-1.562500e-04,
202,-4.687500e-04,
203,-3.125000e-04,
204,-1.562500e-04,
205,-1.562500e-04,
206,-3.125000e-04,
207,-3.125000e-04,
208,-1.562500e-04,
209,-1.562500e-04,
210,1.562500e-04,
211,-1.562500e-04,
212,-4.687500e-04,
213,-3.125000e-04,
214,-1.562500e-04,
215,0.000000e+00,
216,-4.687500e-04,
217,-3.125000e-04,
218,0.000000e+00,
219,-3.125000e-04,
220,-3.125000e-04,
221,-1.562500e-04,
222,0.000000e+00,
223,-3.125000e-04,
224,-4.687500e-04,
225,-3.125000e-04,
226,-3.125000e-04,
227,-4.687500e-04,
228,0.000000e+00,
229,-1.562500e-04,
230,1.562500e-04,
231,-1.562500e-04,
232,0.000000e+00,
233,-3.125000e-04,
234,-1.562500e-04,
235,-1.562500e-04,
236,-3.125000e-04,
237,-3.125000e-04,
238,-3.125000e-04,
239,0.000000e+00,
240,1.562500e-04,
241,1.562500e-04,
242,0.000000e+00,
243,0.000000e+00,
244,0.000000e+00,
245,0.000000e+00,
246,-1.562500e-04,
247,-1.562500e-04,
248,-1.562500e-04,
249,-1.562500e-04,
250,-4.687500e-04,
251,-3.125000e-04,
252,-3.125000e-04,
253,-3.125000e-04,
254,-4.687500e-04,
255,-3.125000e-04,
256,-3.125000e-04,
257,-1.562500e-04,
258,-3.125000e-04,
259,-4.687500e-04,
260,-3.125000e-04,
261,-3.125000e-04,
262,-1.562500e-04,
263,-4.687500e-04,
264,-3.125000e-04,
265,-3.125000e-04,
266,-1.562500e-04,
267,0.000000e+00,
268,-4.687500e-04,
269,-1.562500e-04,
270,-1.562500e-04,
271,-3.125000e-04,
272,-3.125000e-04,
273,-1.562500e-04,
274,-1.562500e-04,
275,-1.562500e-04,
276,-1.562500e-04,
277,-3.125000e-04,
278,0.000000e+00,
279,-4.687500e-04,
280,-6.250000e-04,
281,0.000000e+00,
282,0.000000e+00,
283,0.000000e+00,
284,-3.125000e-04,
285,-1.562500e-04,
286,-1.562500e-04,
287,-4.687500e-04,
288,-1.562500e-04,
289,0.000000e+00,
290,-1.562500e-04,
291,0.000000e+00,
292,-1.562500e-04,
293,-1.562500e-04,
294,1.562500e-04,
295,-1.562500e-04,
296,-3.125000e-04,
297,-7.812500e-04,
298,-4.687500e-04,
299,-4.687500e-04,
300,-3.125000e-04,
301,-3.125000e-04,
302,-3.125000e-04,
303,-1.562500e-04,
304,-3.125000e-04,
305,-3.125000e-04,
306,-4.687500e-04,
307,-6.250000e-04,
308,-4.687500e-04,
309,-3.125000e-04,
310,0.000000e+00,
311,0.000000e+00,
312,-3.125000e-04,
313,-3.125000e-04,
314,-3.125000e-04,
315,-1.562500e-04,
316,-3.125000e-04,
317,-1.562500e-04,
318,-4.687500e-04,
319,-3.125000e-04,
320,-3.125000e-04,
321,-1.562500e-04,
322,-3.125000e-04,
323,-4.687500e-04,
324,-4.687500e-04,
325,-4.687500e-04,
326,-3.125000e-04,
327,-3.125000e-04,
328,-7.812500e-04,
329,-4.687500e-04,
330,-3.125000e-04,
331,-3.125000e-04,
332,-3.125000e-04,
333,-6.250000e-04,
334,-3.125000e-04,
335,-4.687500e-04,
336,-4.687500e-04,
337,-4.687500e-04,
338,-3.125000e-04,
339,-3.125000e-04,
340,-3.125000e-04,
341,-4.687500e-04,
342,-4.687500e-04,
343,-1.562500e-04,
344,-1.562500e-04,
345,-1.562500e-04,
346,-3.125000e-04,
347,-4.687500e-04,
348,-3.125000e-04,
349,0.000000e+00,
350,0.000000e+00,
351,-1.562500e-04,
352,-1.562500e-04,
353,-1.562500e-04,
354,-3.125000e-04,
355,0.000000e+00,
356,0.000000e+00,
357,-3.125000e-04,
358,-6.250000e-04,
359,-3.125000e-04,
360,-3.125000e-04,
361,-3.125000e-04,
362,-3.125000e-04,
363,-1.562500e-04,
364,-4.687500e-04,
365,-1.562500e-04,
366,-1.562500e-04,
367,-3.125000e-04,
368,-1.562500e-04,
369,-1.562500e-04,
370,-3.125000e-04,
371,-1.562500e-04,
372,-3.125000e-04,
373,-3.125000e-04,
374,-3.125000e-04,
375,-1.562500e-04,
376,-3.125000e-04,
377,-1.562500e-04,
378,-3.125000e-04,
379,-1.562500e-04,
380,-3.125000e-04,
381,-3.125000e-04,
382,-4.687500e-04,
383,-6.250000e-04,
384,-4.687500e-04,
385,-4.687500e-04,
386,-3.125000e-04,
387,-3.125000e-04,
388,-4.687500e-04,
389,-3.125000e-04,
390,-6.250000e-04,
391,-7.812500e-04,
392,-4.687500e-04,
393,-3.125000e-04,
394,-4.687500e-04,
395,-3.125000e-04,
396,-1.562500e-04,
397,-3.125000e-04,
398,-4.687500e-04,
399,-3.125000e-04,
400,-1.562500e-04,
401,-1.562500e-04,
402,-3.125000e-04,
403,-1.562500e-04,
404,-3.125000e-04,
405,-4.687500e-04,
406,-4.687500e-04,
407,-4.687500e-04,
408,-3.125000e-04,
409,-3.125000e-04,
410,-4.687500e-04,
411,-3.125000e-04,
412,-3.125000e-04,
413,-4.687500e-04,
414,-4.687500e-04,
415,-3.125000e-04,
416,0.000000e+00,
417,-3.125000e-04,
418,-3.125000e-04,
419,-3.125000e-04,
420,-1.562500e-04,
421,1.562500e-04,
422,0.000000e+00,
423,-3.125000e-04,
424,-6.250000e-04,
425,-6.250000e-04,
426,-3.125000e-04,
427,-1.562500e-04,
428,-4.687500e-04,
429,-3.125000e-04,
430,-4.687500e-04,
431,-3.125000e-04,
432,0.000000e+00,
433,-3.125000e-04,
434,-3.125000e-04,
435,-6.250000e-04,
436,-6.250000e-04,
437,-1.562500e-04,
438,-3.125000e-04,
439,-1.562500e-04,
440,-1.562500e-04,
441,-3.125000e-04,
442,-4.687500e-04,
443,-1.562500e-04,
444,-4.687500e-04,
445,-6.250000e-04,
446,-6.250000e-04,
447,-3.125000e-04,
448,-3.125000e-04,
449,-3.125000e-04,
450,-3.125000e-04,
451,0.000000e+00,
452,-1.562500e-04,
453,-4.687500e-04,
454,-6.250000e-04,
455,-3.125000e-04,
456,-6.250000e-04,
457,-1.562500e-04,
458,-3.125000e-04,
459,-4.687500e-04,
460,-1.562500e-04,
461,-3.125000e-04,
462,-7.812500e-04,
463,-3.125000e-04,
464,-1.562500e-04,
465,-3.125000e-04,
466,-9.375000e-04,
467,-3.125000e-04,
468,-3.125000e-04,
469,-6.250000e-04,
470,-4.687500e-04,
471,-3.125000e-04,
472,-1.562500e-04,
473,-4.687500e-04,
474,-4.687500e-04,
475,0.000000e+00,
476,-4.687500e-04,
477,-4.687500e-04,
478,-4.687500e-04,
479,-4.687500e-04,
480,-1.562500e-04,
481,-4.687500e-04,
482,-3.125000e-04,
483,0.000000e+00,
484,-1.562500e-04,
485,-3.125000e-04,
486,0.000000e+00,
487,-4.687500e-04,
488,-6.250000e-04,
489,-4.687500e-04,
490,-6.250000e-04,
491,-4.687500e-04,
492,-4.687500e-04,
493,-3.125000e-04,
494,-4.687500e-04,
495,-6.250000e-04,
496,-4.687500e-04,
497,-3.125000e-04,
498,1.562500e-04,
499,0.000000e+00,
500,-3.125000e-04,
501,-1.562500e-04,
502,-4.687500e-04,
503,-6.250000e-04,
504,-1.562500e-04,
505,-1.562500e-04,
506,1.562500e-04,
507,-1.562500e-04,
508,-4.687500e-04,
509,1.562500e-04,
510,-3.125000e-04,
511,-3.125000e-04,
512,-3.125000e-04,
513,-1.562500e-04,
514,0.000000e+00,
515,-3.125000e-04,
516,-3.125000e-04,
517,-1.562500e-04,
518,-4.687500e-04,
519,-1.562500e-04,
520,-3.125000e-04,
521,-4.687500e-04,
522,-6.250000e-04,
523,0.000000e+00,
524,-4.687500e-04,
525,-4.687500e-04,
526,-3.125000e-04,
527,-4.687500e-04,
528,-4.687500e-04,
529,-3.125000e-04,
530,-1.562500e-04,
531,-4.687500e-04,
532,-1.562500e-04,
533,-1.562500e-04,
534,-3.125000e-04,
535,-1.562500e-04,
536,-4.687500e-04,
537,-3.125000e-04,
538,-4.687500e-04,
539,-6.250000e-04,
540,-4.687500e-04,
541,-3.125000e-04,
542,-3.125000e-04,
543,-4.687500e-04,
544,-4.687500e-04,
545,-6.250000e-04,
546,-7.812500e-04,
547,-6.250000e-04,
548,-3.125000e-04,
549,-3.125000e-04,
550,-6.250000e-04,
551,-3.125000e-04,
552,-1.562500e-04,
553,-4.687500e-04,
554,-6.250000e-04,
555,-7.812500e-04,
556,-4.687500e-04,
557,-6.250000e-04,
558,-4.687500e-04,
559,-3.125000e-04,
560,-3.125000e-04,
561,-3.125000e-04,
562,-3.125000e-04,
563,-4.687500e-04,
564,-6.250000e-04,
565,-3.125000e-04,
566,-1.562500e-04,
567,-3.125000e-04,
568,-3.125000e-04,
569,-1.562500e-04,
570,-1.562500e-04,
571,-1.562500e-04,
572,-3.125000e-04,
573,-3.125000e-04,
574,-4.687500e-04,
575,-4.687500e-04,
576,-4.687500e-04,
577,-4.687500e-04,
578,-3.125000e-04,
579,-3.125000e-04,
580,-3.125000e-04,
581,-6.250000e-04,
582,-4.687500e-04,
583,1.562500e-04,
584,-3.125000e-04,
585,-4.687500e-04,
586,-1.562500e-04,
587,-4.687500e-04,
588,-4.687500e-04,
589,-3.125000e-04,
590,-4.687500e-04,
591,-4.687500e-04,
592,-3.125000e-04,
593,-4.687500e-04,
594,-1.562500e-04,
595,-3.125000e-04,
596,-3.125000e-04,
597,1.562500e-04,
598,-1.562500e-04,
599,-3.125000e-04,
600,-3.125000e-04,
601,-3.125000e-04,
602,0.000000e+00,
603,-1.562500e-04,
604,0.000000e+00,
605,0.000000e+00,
606,-3.125000e-04,
607,0.000000e+00,
608,-3.125000e-04,
609,-3.125000e-04,
610,-1.562500e-04,
611,1.562500e-04,
612,0.000000e+00,
613,-3.125000e-04,
614,-3.125000e-04,
615,-1.562500e-04,
616,-4.687500e-04,
617,-3.125000e-04,
618,-3.125000e-04,
619,-4.687500e-04,
620,-3.125000e-04,
621,0.000000e+00,
622,-6.250000e-04,
623,-4.687500e-04,
624,-3.125000e-04,
625,-6.250000e-04,
626,-3.125000e-04,
627,1.562500e-04,
628,-1.562500e-04,
629,-1.562500e-04,
630,-4.687500e-04,
631,-1.562500e-04,
632,0.000000e+00,
633,-3.125000e-04,
634,-4.687500e-04,
635,-4.687500e-04,
636,-3.125000e-04,
637,-3.125000e-04,
638,-1.562500e-04,
639,-3.125000e-04,
640,-1.562500e-04,
641,-4.687500e-04,
642,-1.562500e-04,
643,-1.562500e-04,
644,-3.125000e-04,
645,-3.125000e-04,
646,-3.125000e-04,
647,-4.687500e-04,
648,-3.125000e-04,
649,-1.562500e-04,
650,-3.125000e-04,
651,-3.125000e-04,
652,-3.125000e-04,
653,-1.562500e-04,
654,-4.687500e-04,
655,-1.562500e-04,
656,-3.125000e-04,
657,-3.125000e-04,
658,-4.687500e-04,
659,-3.125000e-04,
660,-3.125000e-04,
661,0.000000e+00,
662,-1.562500e-04,
663,0.000000e+00,
664,-1.562500e-04,
665,-1.562500e-04,
666,-1.562500e-04,
667,-4.687500e-04,
668,-1.562500e-04,
669,-3.125000e-04,
670,0.000000e+00,
671,-3.125000e-04,
672,-3.125000e-04,
673,-3.125000e-04,
674,-1.562500e-04,
675,-1.562500e-04,
676,-4.687500e-04,
677,-1.562500e-04,
678,-1.562500e-04,
679,-3.125000e-04,
680,-3.125000e-04,
681,-4.687500e-04,
682,-4.687500e-04,
683,-3.125000e-04,
684,1.562500e-04,
685,-3.125000e-04,
686,0.000000e+00,
687,-3.125000e-04,
688,-3.125000e-04,
689,-4.687500e-04,
690,-6.250000e-04,
691,-4.687500e-04,
692,-3.125000e-04,
693,-3.125000e-04,
694,-4.687500e-04,
695,-4.687500e-04,
696,-4.687500e-04,
697,-1.562500e-04,
698,-3.125000e-04,
699,-3.125000e-04,
700,-4.687500e-04,
701,-3.125000e-04,
702,-3.125000e-04,
703,-4.687500e-04,
704,-4.687500e-04,
705,-3.125000e-04,
706,-4.687500e-04,
707,-3.125000e-04,
708,-4.687500e-04,
709,-4.687500e-04,
710,-6.250000e-04,
711,-3.125000e-04,
712,-3.125000e-04,
713,-4.687500e-04,
714,-3.125000e-04,
715,-1.562500e-04,
716,-1.562500e-04,
717,-3.125000e-04,
718,-3.125000e-04,
719,-3.125000e-04,
720,-3.125000e-04,
721,3.125000e-04,
722,0.000000e+00,
723,0.000000e+00,
724,-1.562500e-04,
725,-3.125000e-04,
726,-4.687500e-04,
727,-3.125000e-04,
728,-3.125000e-04,
729,-3.125000e-04,
730,-3.125000e-04,
731,-3.125000e-04,
732,-3.125000e-04,
733,-3.125000e-04,
734,-3.125000e-04,
735,-1.562500e-04,
736,0.000000e+00,
737,0.000000e+00,
738,-1.562500e-04,
739,-3.125000e-04,
740,1.562500e-04,
741,1.562500e-04,
742,0.000000e+00,
743,-3.125000e-04,
744,-1.562500e-04,
745,-4.687500e-04,
746,-4.687500e-04,
747,-3.125000e-04,
748,-1.562500e-04,
749,-1.562500e-04,
750,-3.125000e-04,
751,-6.250000e-04,
752,-1.562500e-04,
753,-3.125000e-04,
754,-3.125000e-04,
755,-3.125000e-04,
756,-3.125000e-04,
757,-3.125000e-04,
758,-1.562500e-04,
759,0.000000e+00,
760,-1.562500e-04,
761,-3.125000e-04,
762,-1.562500e-04,
763,0.000000e+00,
764,-1.562500e-04,
765,-1.562500e-04,
766,-1.562500e-04,
767,-1.562500e-04,
768,-4.687500e-04,
769,-3.125000e-04,
770,-3.125000e-04,
771,-3.125000e-04,
772,-4.687500e-04,
773,-1.562500e-04,
774,-4.687500e-04,
775,-3.125000e-04,
776,-4.687500e-04,
777,-4.687500e-04,
778,-3.125000e-04,
779,-3.125000e-04,
780,-1.562500e-04,
781,-3.125000e-04,
782,-3.125000e-04,
783,0.000000e+00,
784,-3.125000e-04,
785,-3.125000e-04,
786,-1.562500e-04,
787,-6.250000e-04,
788,-1.562500e-04,
789,0.000000e+00,
790,-3.125000e-04,
791,-6.250000e-04,
792,-6.250000e-04,
793,-6.250000e-04,
794,-1.562500e-04,
795,-6.250000e-04,
796,-6.250000e-04,
797,-4.687500e-04,
798,-4.687500e-04,
799,-1.562500e-04,
800,-4.687500e-04,
801,-4.687500e-04,
802,-3.125000e-04,
803,-4.687500e-04,
804,-3.125000e-04,
805,-3.125000e-04,
806,-4.687500e-04,
807,-3.125000e-04,
808,-1.562500e-04,
809,-3.125000e-04,
810,-4.687500e-04,
811,-1.562500e-04,
812,-4.687500e-04,
813,-3.125000e-04,
814,-1.562500e-04,
815,-1.562500e-04,
816,-1.562500e-04,
817,-3.125000e-04,
818,-3.125000e-04,
819,-1.562500e-04,
820,0.000000e+00,
821,-6.250000e-04,
822,-1.562500e-04,
823,-4.687500e-04,
824,-3.125000e-04,
825,-3.125000e-04,
826,-3.125000e-04,
827,-1.562500e-04,
828,-3.125000e-04,
829,-3.125000e-04,
830,-1.562500e-04,
831,-1.562500e-04,
832,-3.125000e-04,
833,-3.125000e-04,
834,0.000000e+00,
835,0.000000e+00,
836,-1.562500e-04,
837,-3.125000e-04,
838,-1.562500e-04,
839,-4.687500e-04,
840,1.562500e-04,
841,-3.125000e-04,
842,-4.687500e-04,
843,-6.250000e-04,
844,-1.562500e-04,
845,-3.125000e-04,
846,-4.687500e-04,
847,-3.125000e-04,
848,-4.687500e-04,
849,-3.125000e-04,
850,-3.125000e-04,
851,-4.687500e-04,
852,-1.562500e-04,
853,-3.125000e-04,
854,-1.562500e-04,
855,-3.125000e-04,
856,-1.562500e-04,
857,-1.562500e-04,
858,-4.687500e-04,
859,-4.687500e-04,
860,-4.687500e-04,
861,-7.812500e-04,
862,-3.125000e-04,
863,-1.562500e-04,
864,-3.125000e-04,
865,-1.562500e-04,
866,-1.562500e-04,
867,-4.687500e-04,
868,-3.125000e-04,
869,-3.125000e-04,
870,-4.687500e-04,
871,-3.125000e-04,
872,-3.125000e-04,
873,-1.562500e-04,
874,-3.125000e-04,
875,-4.687500e-04,
876,-7.812500e-04,
877,-1.562500e-04,
878,-4.687500e-04,
879,-3.125000e-04,
880,-4.687500e-04,
881,-1.562500e-04,
882,-1.562500e-04,
883,-1.562500e-04,
884,0.000000e+00,
885,-1.562500e-04,
886,-1.562500e-04,
887,1.562500e-04,
888,-1.562500e-04,
889,-4.687500e-04,
890,-3.125000e-04,
891,-3.125000e-04,
892,-4.687500e-04,
893,-3.125000e-04,
894,-4.687500e-04,
895,1.562500e-04,
896,-1.562500e-04,
897,-1.562500e-04,
898,-1.562500e-04,
899,1.562500e-04,
900,-1.562500e-04,
901,-1.562500e-04,
902,0.000000e+00,
903,0.000000e+00,
904,-3.125000e-04,
905,0.000000e+00,
906,-1.562500e-04,
907,-1.562500e-04,
908,-1.562500e-04,
909,1.562500e-04,
910,0.000000e+00,
911,-3.125000e-04,
912,-3.125000e-04,
913,-3.125000e-04,
914,-4.687500e-04,
915,-4.687500e-04,
916,-3.125000e-04,
917,-3.125000e-04,
918,-4.687500e-04,
919,-1.562500e-04,
920,-6.250000e-04,
921,-3.125000e-04,
922,-6.250000e-04,
923,-3.125000e-04,
924,-4.687500e-04,
925,-3.125000e-04,
926,-3.125000e-04,
927,-4.687500e-04,
928,-4.687500e-04,
929,-3.125000e-04,
930,-4.687500e-04,
931,-3.125000e-04,
932,-4.687500e-04,
933,-3.125000e-04,
934,-3.125000e-04,
935,-1.562500e-04,
936,-3.125000e-04,
937,-4.687500e-04,
938,-3.125000e-04,
939,-4.687500e-04,
940,-3.125000e-04,
941,-3.125000e-04,
942,-3.125000e-04,
943,-3.125000e-04,
944,-3.125000e-04,
945,-1.562500e-04,
946,-1.562500e-04,
947,-3.125000e-04,
948,-1.562500e-04,
949,-1.562500e-04,
950,-3.125000e-04,
951,-1.562500e-04,
952,0.000000e+00,
953,0.000000e+00,
954,0.000000e+00,
955,0.000000e+00,
956,-1.562500e-04,
957,-1.562500e-04,
958,-1.562500e-04,
959,-3.125000e-04,
960,-1.562500e-04,
961,-1.562500e-04,
962,-3.125000e-04,
963,-3.125000e-04,
964,-3.125000e-04,
965,-3.125000e-04,
966,-3.125000e-04,
967,-1.562500e-04,
968,1.562500e-04,
969,-1.562500e-04,
970,-1.562500e-04,
971,-3.125000e-04,
972,-1.562500e-04,
973,0.000000e+00,
974,1.562500e-04,
975,0.000000e+00,
976,0.000000e+00,
977,1.562500e-04,
978,-3.125000e-04,
979,-1.562500e-04,
980,-3.125000e-04,
981,1.562500e-04,
982,1.562500e-04,
983,1.562500e-04,
984,0.000000e+00,
985,0.000000e+00,
986,-3.125000e-04,
987,-3.125000e-04,
988,-1.562500e-04,
989,0.000000e+00,
990,-4.687500e-04,
991,-3.125000e-04,
992,-3.125000e-04,
993,0.000000e+00,
994,0.000000e+00,
995,-3.125000e-04,
996,-3.125000e-04,
997,-3.125000e-04,
998,-4.687500e-04,
999,0.000000e+00,
1000,-3.125000e-04,
1001,-3.125000e-04,
1002,-4.687500e-04,
1003,-4.687500e-04,
1004,-4.687500e-04,
1005,-1.562500e-04,
1006,-3.125000e-04,
1007,-3.125000e-04,
1008,-1.562500e-04,
1009,-4.687500e-04,
1010,-1.562500e-04,
1011,0.000000e+00,
1012,-4.687500e-04,
1013,-3.125000e-04,
1014,-3.125000e-04,
1015,-3.125000e-04,
1016,-3.125000e-04,
1017,-1.562500e-04,
1018,-3.125000e-04,
1019,0.000000e+00,
1020,-4.687500e-04,
1021,-4.687500e-04,
1022,-1.562500e-04,
1023,0.000000e+00,
1024,-4.687500e-04,
1025,-1.562500e-04,
1026,-3.125000e-04,
1027,-3.125000e-04,
1028,-3.125000e-04,
1029,-6.250000e-04,
1030,-1.562500e-04,
1031,-1.562500e-04,
1032,-1.562500e-04,
1033,-3.125000e-04,
1034,-1.562500e-04,
1035,-3.125000e-04,
1036,-1.562500e-04,
1037,0.000000e+00,
1038,0.000000e+00,
1039,-1.562500e-04,
1040,-1.562500e-04,
1041,-1.562500e-04,
1042,-1.562500e-04,
1043,-3.125000e-04,
1044,-4.687500e-04,
1045,-1.562500e-04,
1046,0.000000e+00,
1047,-1.562500e-04,
1048,-4.687500e-04,
1049,-1.562500e-04,
1050,0.000000e+00,
1051,1.562500e-04,
1052,-3.125000e-04,
1053,-3.125000e-04,
1054,-4.687500e-04,
1055,-3.125000e-04,
1056,-3.125000e-04,
1057,0.000000e+00,
1058,-1.562500e-04,
