laser_day1/2024-03-08 F(t) Al target 1/Newfile13.csv

X,CH1,Start,Increment,
Sequence,Volt,-5.999999e-04,2.000000e-07,
0,-7.812500e-04,
1,-4.687500e-04,
2,-6.250000e-04,
3,-9.375000e-04,
4,-9.375000e-04,
5,-9.375000e-04,
6,-7.812500e-04,
7,-4.687500e-04,
8,-9.375000e-04,
9,-9.375000e-04,
10,-7.812500e-04,
11,-1.093750e-03,
12,-7.812500e-04,
13,-9.375000e-04,
14,-9.375000e-04,
15,-7.812500e-04,
16,-9.375000e-04,
17,-9.375000e-04,
18,-7.812500e-04,
19,-7.812500e-04,
20,-4.687500e-04,
21,-4.687500e-04,
22,-9.375000e-04,
23,-7.812500e-04,
24,-7.812500e-04,
25,-6.250000e-04,
26,-7.812500e-04,
27,-1.250000e-03,
28,-7.812500e-04,
29,-7.812500e-04,
30,-7.812500e-04,
31,-7.812500e-04,
32,-9.375000e-04,
33,-6.250000e-04,
34,-9.375000e-04,
35,-7.812500e-04,
36,-9.375000e-04,
37,-7.812500e-04,
38,-7.812500e-04,
39,-7.812500e-04,
40,-7.812500e-04,
41,-9.375000e-04,
42,-9.375000e-04,
43,-7.812500e-04,
44,-6.250000e-04,
45,-6.250000e-04,
46,-6.250000e-04,
47,-4.687500e-04,
48,-6.250000e-04,
49,-4.687500e-04,
50,-9.375000e-04,
51,-9.375000e-04,
52,-9.375000e-04,
53,-7.812500e-04,
54,-9.375000e-04,
55,-6.250000e-04,
56,-7.812500e-04,
57,-7.812500e-04,
58,-3.125000e-04,
59,-6.250000e-04,
60,-1.093750e-03,
61,-6.250000e-04,
62,-7.812500e-04,
63,-1.093750e-03,
64,-1.093750e-03,
65,-7.812500e-04,
66,-9.375000e-04,
67,-6.250000e-04,
68,-7.812500e-04,
69,-9.375000e-04,
70,-7.812500e-04,
71,-9.375000e-04,
72,-7.812500e-04,
73,-4.687500e-04,
74,-9.375000e-04,
75,-9.375000e-04,
76,-9.375000e-04,
77,-7.812500e-04,
78,-7.812500e-04,
79,-6.250000e-04,
80,-6.250000e-04,
81,-7.812500e-04,
82,-9.375000e-04,
83,-1.250000e-03,
84,-6.250000e-04,
85,-7.812500e-04,
86,-1.093750e-03,
87,-9.375000e-04,
88,-1.093750e-03,
89,-9.375000e-04,
90,-7.812500e-04,
91,-9.375000e-04,
92,-6.250000e-04,
93,-6.250000e-04,
94,-6.250000e-04,
95,-7.812500e-04,
96,-7.812500e-04,
97,-9.375000e-04,
98,-9.375000e-04,
99,-7.812500e-04,
100,-9.375000e-04,
101,-7.812500e-04,
102,-6.250000e-04,
103,-7.812500e-04,
104,-7.812500e-04,
105,-9.375000e-04,
106,-9.375000e-04,
107,-6.250000e-04,
108,-7.812500e-04,
109,-7.812500e-04,
110,-7.812500e-04,
111,-6.250000e-04,
112,-7.812500e-04,
113,-7.812500e-04,
114,-7.812500e-04,
115,-7.812500e-04,
116,-6.250000e-04,
117,-9.375000e-04,
118,-7.812500e-04,
119,-4.687500e-04,
120,-6.250000e-04,
121,-4.687500e-04,
122,-6.250000e-04,
123,-7.812500e-04,
124,-4.687500e-04,
125,-6.250000e-04,
126,-6.250000e-04,
127,-9.375000e-04,
128,-6.250000e-04,
129,-6.250000e-04,
130,-9.375000e-04,
131,-7.812500e-04,
132,-1.093750e-03,
133,-7.812500e-04,
134,-9.375000e-04,
135,-9.375000e-04,
136,-4.687500e-04,
137,-6.250000e-04,
138,-1.093750e-03,
139,-7.812500e-04,
140,-9.375000e-04,
141,-7.812500e-04,
142,-9.375000e-04,
143,-6.250000e-04,
144,-9.375000e-04,
145,-1.093750e-03,
146,-9.375000e-04,
147,-6.250000e-04,
148,-6.250000e-04,
149,-6.250000e-04,
150,-7.812500e-04,
151,-6.250000e-04,
152,-6.250000e-04,
153,-7.812500e-04,
154,-6.250000e-04,
155,-7.812500e-04,
156,-4.687500e-04,
157,-7.812500e-04,
158,-6.250000e-04,
159,-7.812500e-04,
160,-6.250000e-04,
161,-9.375000e-04,
162,-6.250000e-04,
163,-6.250000e-04,
164,-4.687500e-04,
165,-4.687500e-04,
166,-9.375000e-04,
167,-9.375000e-04,
168,-1.093750e-03,
169,-7.812500e-04,
170,-7.812500e-04,
171,-6.250000e-04,
172,-9.375000e-04,
173,-6.250000e-04,
174,-7.812500e-04,
175,-6.250000e-04,
176,-7.812500e-04,
177,-4.687500e-04,
178,-7.812500e-04,
179,-7.812500e-04,
180,-6.250000e-04,
181,-7.812500e-04,
182,-4.687500e-04,
183,-6.250000e-04,
184,-6.250000e-04,
185,-4.687500e-04,
186,-9.375000e-04,
187,-7.812500e-04,
188,-7.812500e-04,
189,-7.812500e-04,
190,-1.093750e-03,
191,-6.250000e-04,
192,-6.250000e-04,
193,-7.812500e-04,
194,-7.812500e-04,
195,-9.375000e-04,
196,-4.687500e-04,
197,-4.687500e-04,
198,-7.812500e-04,
199,-7.812500e-04,
200,-6.250000e-04,
201,-4.687500e-04,
202,-6.250000e-04,
203,-7.812500e-04,
204,-9.375000e-04,
205,-9.375000e-04,
206,-7.812500e-04,
207,-7.812500e-04,
208,-6.250000e-04,
209,-7.812500e-04,
210,-9.375000e-04,
211,-7.812500e-04,
212,-6.250000e-04,
213,-6.250000e-04,
214,-7.812500e-04,
215,-6.250000e-04,
216,-9.375000e-04,
217,-7.812500e-04,
218,-9.375000e-04,
219,-1.093750e-03,
220,-7.812500e-04,
221,-7.812500e-04,
222,-9.375000e-04,
223,-7.812500e-04,
224,-1.093750e-03,
225,-7.812500e-04,
226,-7.812500e-04,
227,-6.250000e-04,
228,-6.250000e-04,
229,-4.687500e-04,
230,-9.375000e-04,
231,-4.687500e-04,
232,-7.812500e-04,
233,-9.375000e-04,
234,-7.812500e-04,
235,-3.125000e-04,
236,-4.687500e-04,
237,-6.250000e-04,
238,-9.375000e-04,
239,-3.125000e-04,
240,-7.812500e-04,
241,-7.812500e-04,
242,-4.687500e-04,
243,-6.250000e-04,
244,-7.812500e-04,
245,-4.687500e-04,
246,-6.250000e-04,
247,-7.812500e-04,
248,-1.093750e-03,
249,-9.375000e-04,
250,-7.812500e-04,
251,-7.812500e-04,
252,-6.250000e-04,
253,-7.812500e-04,
254,-6.250000e-04,
255,-1.093750e-03,
256,-7.812500e-04,
257,-9.375000e-04,
258,-1.093750e-03,
259,-6.250000e-04,
260,-9.375000e-04,
261,-4.687500e-04,
262,-6.250000e-04,
263,-4.687500e-04,
264,-6.250000e-04,
265,-4.687500e-04,
266,-9.375000e-04,
267,-9.375000e-04,
268,-6.250000e-04,
269,-7.812500e-04,
270,-7.812500e-04,
271,-7.812500e-04,
272,-4.687500e-04,
273,-4.687500e-04,
274,-4.687500e-04,
275,-7.812500e-04,
276,-6.250000e-04,
277,-6.250000e-04,
278,-6.250000e-04,
279,-9.375000e-04,
280,-7.812500e-04,
281,-4.687500e-04,
282,-4.687500e-04,
283,-4.687500e-04,
284,-6.250000e-04,
285,-7.812500e-04,
286,-1.250000e-03,
287,-1.093750e-03,
288,-7.812500e-04,
289,-9.375000e-04,
290,-7.812500e-04,
291,-4.687500e-04,
292,-9.375000e-04,
293,-9.375000e-04,
294,-9.375000e-04,
295,-4.687500e-04,
296,-6.250000e-04,
297,-6.250000e-04,
298,-1.093750e-03,
299,-7.812500e-04,
300,-7.812500e-04,
301,-7.812500e-04,
302,-9.375000e-04,
303,-9.375000e-04,
304,-6.250000e-04,
305,-9.375000e-04,
306,-6.250000e-04,
307,-9.375000e-04,
308,-9.375000e-04,
309,-6.250000e-04,
310,-7.812500e-04,
311,-4.687500e-04,
312,-7.812500e-04,
313,-6.250000e-04,
314,-7.812500e-04,
315,-7.812500e-04,
316,-7.812500e-04,
317,-1.093750e-03,
318,-7.812500e-04,
319,-7.812500e-04,
320,-7.812500e-04,
321,-4.687500e-04,
322,-6.250000e-04,
323,-7.812500e-04,
324,-7.812500e-04,
325,-6.250000e-04,
326,-4.687500e-04,
327,-6.250000e-04,
328,-6.250000e-04,
329,-1.093750e-03,
330,-9.375000e-04,
331,-6.250000e-04,
332,-7.812500e-04,
333,-6.250000e-04,
334,-6.250000e-04,
335,-6.250000e-04,
336,-4.687500e-04,
337,-3.125000e-04,
338,-6.250000e-04,
339,-7.812500e-04,
340,-6.250000e-04,
341,-7.812500e-04,
342,-7.812500e-04,
343,-9.375000e-04,
344,-7.812500e-04,
345,-7.812500e-04,
346,-6.250000e-04,
347,-7.812500e-04,
348,-6.250000e-04,
349,-7.812500e-04,
350,-7.812500e-04,
351,-7.812500e-04,
352,-4.687500e-04,
353,-6.250000e-04,
354,-6.250000e-04,
355,-7.812500e-04,
356,-6.250000e-04,
357,-6.250000e-04,
358,-6.250000e-04,
359,-7.812500e-04,
360,-9.375000e-04,
361,-9.375000e-04,
362,-7.812500e-04,
363,-7.812500e-04,
364,-7.812500e-04,
365,-7.812500e-04,
366,-6.250000e-04,
367,-7.812500e-04,
368,-7.812500e-04,
369,-6.250000e-04,
370,-6.250000e-04,
371,-9.375000e-04,
372,-7.812500e-04,
373,-9.375000e-04,
374,-1.093750e-03,
375,-7.812500e-04,
376,-9.375000e-04,
377,-7.812500e-04,
378,-6.250000e-04,
379,-9.375000e-04,
380,-7.812500e-04,
381,-9.375000e-04,
382,-9.375000e-04,
383,-4.687500e-04,
384,-6.250000e-04,
385,-3.125000e-04,
386,-4.687500e-04,
387,-6.250000e-04,
388,-6.250000e-04,
389,-7.812500e-04,
390,-6.250000e-04,
391,-7.812500e-04,
392,-7.812500e-04,
393,-7.812500e-04,
394,-7.812500e-04,
395,-7.812500e-04,
396,-4.687500e-04,
397,-9.375000e-04,
398,-7.812500e-04,
399,-6.250000e-04,
400,-7.812500e-04,
401,-7.812500e-04,
402,-6.250000e-04,
403,-4.687500e-04,
404,-7.812500e-04,
405,-6.250000e-04,
406,-7.812500e-04,
407,-7.812500e-04,
408,-7.812500e-04,
409,-9.375000e-04,
410,-7.812500e-04,
411,-7.812500e-04,
412,-4.687500e-04,
413,-6.250000e-04,
414,-7.812500e-04,
415,-6.250000e-04,
416,-9.375000e-04,
417,-7.812500e-04,
418,-4.687500e-04,
419,-1.562500e-04,
420,-4.687500e-04,
421,-3.125000e-04,
422,-4.687500e-04,
423,-7.812500e-04,
424,-7.812500e-04,
425,-6.250000e-04,
426,-6.250000e-04,
427,-3.125000e-04,
428,-7.812500e-04,
429,-4.687500e-04,
430,-6.250000e-04,
431,-4.687500e-04,
432,-9.375000e-04,
433,-4.687500e-04,
434,-4.687500e-04,
435,-4.687500e-04,
436,-7.812500e-04,
437,-6.250000e-04,
438,-6.250000e-04,
439,-7.812500e-04,
440,-9.375000e-04,
441,-1.250000e-03,
442,-1.093750e-03,
443,-6.250000e-04,
444,-4.687500e-04,
445,-7.812500e-04,
446,-9.375000e-04,
447,-9.375000e-04,
448,-7.812500e-04,
449,-7.812500e-04,
450,-6.250000e-04,
451,-9.375000e-04,
452,-6.250000e-04,
453,-7.812500e-04,
454,-6.250000e-04,
455,-9.375000e-04,
456,-9.375000e-04,
457,-7.812500e-04,
458,-9.375000e-04,
459,-7.812500e-04,
460,-9.375000e-04,
461,-6.250000e-04,
462,-9.375000e-04,
463,-7.812500e-04,
464,-1.250000e-03,
465,-7.812500e-04,
466,-7.812500e-04,
467,-6.250000e-04,
468,-6.250000e-04,
469,-9.375000e-04,
470,-7.812500e-04,
471,-6.250000e-04,
472,-6.250000e-04,
473,-9.375000e-04,
474,-7.812500e-04,
475,-7.812500e-04,
476,-9.375000e-04,
477,-9.375000e-04,
478,-7.812500e-04,
479,-6.250000e-04,
480,-7.812500e-04,
481,-7.812500e-04,
482,-9.375000e-04,
483,-9.375000e-04,
484,-9.375000e-04,
485,-6.250000e-04,
486,-4.687500e-04,
487,-4.687500e-04,
488,-3.125000e-04,
489,-7.812500e-04,
490,-4.687500e-04,
491,-6.250000e-04,
492,-6.250000e-04,
493,-6.250000e-04,
494,-6.250000e-04,
495,-6.250000e-04,
496,-6.250000e-04,
497,-9.375000e-04,
498,-9.375000e-04,
499,-7.812500e-04,
500,-6.250000e-04,
501,-6.250000e-04,
502,-6.250000e-04,
503,-9.375000e-04,
504,-9.375000e-04,
505,-7.812500e-04,
506,-7.812500e-04,
507,-7.812500e-04,
508,-7.812500e-04,
509,-9.375000e-04,
510,-1.093750e-03,
511,-7.812500e-04,
512,-9.375000e-04,
513,-4.687500e-04,
514,-7.812500e-04,
515,-7.812500e-04,
516,-9.375000e-04,
517,-7.812500e-04,
518,-6.250000e-04,
519,-9.375000e-04,
520,-1.093750e-03,
521,-6.250000e-04,
522,-7.812500e-04,
523,-1.093750e-03,
524,-9.375000e-04,
525,-9.375000e-04,
526,-1.250000e-03,
527,-7.812500e-04,
528,-7.812500e-04,
529,-9.375000e-04,
530,-9.375000e-04,
531,-9.375000e-04,
532,-7.812500e-04,
533,-6.250000e-04,
534,-6.250000e-04,
535,-7.812500e-04,
536,-9.375000e-04,
537,-9.375000e-04,
538,-6.250000e-04,
539,-1.093750e-03,
540,-7.812500e-04,
541,-7.812500e-04,
542,-4.687500e-04,
543,-3.125000e-04,
544,-7.812500e-04,
545,-9.375000e-04,
546,-7.812500e-04,
547,-1.250000e-03,
548,-7.812500e-04,
549,-7.812500e-04,
550,-7.812500e-04,
551,-7.812500e-04,
552,-7.812500e-04,
553,-7.812500e-04,
554,-7.812500e-04,
555,-9.375000e-04,
556,-7.812500e-04,
557,-7.812500e-04,
558,-7.812500e-04,
559,-7.812500e-04,
560,-6.250000e-04,
561,-7.812500e-04,
562,-4.687500e-04,
563,-7.812500e-04,
564,-7.812500e-04,
565,-1.093750e-03,
566,-9.375000e-04,
567,-3.125000e-04,
568,-6.250000e-04,
569,-4.687500e-04,
570,-6.250000e-04,
571,-9.375000e-04,
572,-6.250000e-04,
573,-6.250000e-04,
574,-4.687500e-04,
575,-7.812500e-04,
576,-6.250000e-04,
577,-6.250000e-04,
578,-7.812500e-04,
579,-4.687500e-04,
580,-9.375000e-04,
581,-9.375000e-04,
582,-1.093750e-03,
583,-7.812500e-04,
584,-7.812500e-04,
585,-9.375000e-04,
586,-6.250000e-04,
587,-4.687500e-04,
588,-6.250000e-04,
589,-1.093750e-03,
590,-9.375000e-04,
591,-1.093750e-03,
592,-7.812500e-04,
593,-9.375000e-04,
594,-1.093750e-03,
595,-7.812500e-04,
596,-9.375000e-04,
597,-9.375000e-04,
598,-6.250000e-04,
599,-7.812500e-04,
600,-9.375000e-04,
601,-7.812500e-04,
602,-4.687500e-04,
603,-7.812500e-04,
604,-7.812500e-04,
605,-7.812500e-04,
606,-9.375000e-04,
607,-9.375000e-04,
608,-9.375000e-04,
609,-4.687500e-04,
610,-4.687500e-04,
611,-9.375000e-04,
612,-4.687500e-04,
613,-7.812500e-04,
614,-7.812500e-04,
615,-7.812500e-04,
616,-6.250000e-04,
617,-7.812500e-04,
618,-6.250000e-04,
619,-6.250000e-04,
620,-9.375000e-04,
621,-7.812500e-04,
622,-7.812500e-04,
623,-6.250000e-04,
624,-9.375000e-04,
625,-6.250000e-04,
626,-6.250000e-04,
627,-9.375000e-04,
628,-7.812500e-04,
629,-4.687500e-04,
630,-3.125000e-04,
631,-6.250000e-04,
632,-4.687500e-04,
633,-6.250000e-04,
634,-7.812500e-04,
635,-9.375000e-04,
636,-7.812500e-04,
637,-7.812500e-04,
638,-1.093750e-03,
639,-1.093750e-03,
640,-6.250000e-04,
641,-9.375000e-04,
642,-1.093750e-03,
643,-9.375000e-04,
644,-9.375000e-04,
645,-7.812500e-04,
646,-3.125000e-04,
647,-6.250000e-04,
648,-3.125000e-04,
649,-6.250000e-04,
650,-9.375000e-04,
651,-4.687500e-04,
652,-7.812500e-04,
653,-6.250000e-04,
654,-6.250000e-04,
655,-7.812500e-04,
656,-4.687500e-04,
657,-4.687500e-04,
658,-6.250000e-04,
659,-6.250000e-04,
660,-9.375000e-04,
661,-7.812500e-04,
662,-7.812500e-04,
663,-7.812500e-04,
664,-9.375000e-04,
665,-6.250000e-04,
666,-7.812500e-04,
667,-7.812500e-04,
668,-7.812500e-04,
669,-7.812500e-04,
670,-7.812500e-04,
671,-4.687500e-04,
672,-7.812500e-04,
673,-4.687500e-04,
674,-6.250000e-04,
675,-6.250000e-04,
676,-6.250000e-04,
677,-6.250000e-04,
678,-7.812500e-04,
679,-9.375000e-04,
680,-1.093750e-03,
681,-1.093750e-03,
682,-9.375000e-04,
683,-9.375000e-04,
684,-4.687500e-04,
685,-7.812500e-04,
686,-7.812500e-04,
687,-1.093750e-03,
688,-7.812500e-04,
689,-4.687500e-04,
690,-6.250000e-04,
691,-6.250000e-04,
692,-1.093750e-03,
693,-7.812500e-04,
694,-9.375000e-04,
695,-7.812500e-04,
696,-7.812500e-04,
697,-4.687500e-04,
698,-6.250000e-04,
699,-9.375000e-04,
700,-6.250000e-04,
701,-6.250000e-04,
702,-1.093750e-03,
703,-7.812500e-04,
704,-7.812500e-04,
705,-9.375000e-04,
706,-9.375000e-04,
707,-6.250000e-04,
708,-6.250000e-04,
709,-7.812500e-04,
710,-7.812500e-04,
711,-6.250000e-04,
712,-9.375000e-04,
713,-6.250000e-04,
714,-4.687500e-04,
715,-6.250000e-04,
716,-6.250000e-04,
717,-7.812500e-04,
718,-7.812500e-04,
719,-6.250000e-04,
720,-4.687500e-04,
721,-6.250000e-04,
722,-4.687500e-04,
723,-4.687500e-04,
724,-9.375000e-04,
725,-4.687500e-04,
726,-6.250000e-04,
727,-4.687500e-04,
728,-9.375000e-04,
729,-6.250000e-04,
730,-7.812500e-04,
731,-9.375000e-04,
732,-6.250000e-04,
733,-6.250000e-04,
734,-7.812500e-04,
735,-4.687500e-04,
736,-9.375000e-04,
737,-7.812500e-04,
738,-7.812500e-04,
739,-7.812500e-04,
740,-7.812500e-04,
741,-6.250000e-04,
742,-9.375000e-04,
743,-7.812500e-04,
744,-9.375000e-04,
745,-9.375000e-04,
746,-7.812500e-04,
747,-7.812500e-04,
748,-9.375000e-04,
749,-7.812500e-04,
750,-9.375000e-04,
751,-7.812500e-04,
752,-6.250000e-04,
753,-9.375000e-04,
754,-9.375000e-04,
755,-6.250000e-04,
756,-7.812500e-04,
757,-4.687500e-04,
758,-4.687500e-04,
759,-7.812500e-04,
760,-6.250000e-04,
761,-7.812500e-04,
762,-9.375000e-04,
763,-7.812500e-04,
764,-6.250000e-04,
765,-6.250000e-04,
766,-6.250000e-04,
767,-7.812500e-04,
768,-9.375000e-04,
769,-9.375000e-04,
770,-9.375000e-04,
771,-7.812500e-04,
772,-9.375000e-04,
773,-7.812500e-04,
774,-9.375000e-04,
775,-9.375000e-04,
776,-6.250000e-04,
777,-9.375000e-04,
778,-7.812500e-04,
779,-6.250000e-04,
780,-9.375000e-04,
781,-4.687500e-04,
782,-4.687500e-04,
783,-6.250000e-04,
784,-6.250000e-04,
785,-7.812500e-04,
786,-7.812500e-04,
787,-7.812500e-04,
788,-6.250000e-04,
789,-7.812500e-04,
790,-7.812500e-04,
791,-7.812500e-04,
792,-9.375000e-04,
793,-9.375000e-04,
794,-6.250000e-04,
795,-6.250000e-04,
796,-4.687500e-04,
797,-7.812500e-04,
798,-6.250000e-04,
799,-9.375000e-04,
800,-7.812500e-04,
801,-7.812500e-04,
802,-6.250000e-04,
803,-7.812500e-04,
804,-9.375000e-04,
805,-7.812500e-04,
806,-7.812500e-04,
807,-7.812500e-04,
808,-4.687500e-04,
809,-4.687500e-04,
810,-6.250000e-04,
811,-4.687500e-04,
812,-7.812500e-04,
813,-7.812500e-04,
814,-7.812500e-04,
815,-6.250000e-04,
816,-6.250000e-04,
817,-6.250000e-04,
818,-7.812500e-04,
819,-6.250000e-04,
820,-6.250000e-04,
821,-4.687500e-04,
822,-4.687500e-04,
823,-9.375000e-04,
824,-6.250000e-04,
825,-6.250000e-04,
826,-6.250000e-04,
827,-7.812500e-04,
828,-1.250000e-03,
829,-7.812500e-04,
830,-7.812500e-04,
831,-6.250000e-04,
832,-6.250000e-04,
833,-4.687500e-04,
834,-7.812500e-04,
835,-9.375000e-04,
836,-9.375000e-04,
837,-7.812500e-04,
838,-4.687500e-04,
839,-6.250000e-04,
840,-9.375000e-04,
841,-6.250000e-04,
842,-7.812500e-04,
843,-4.687500e-04,
844,-9.375000e-04,
845,-6.250000e-04,
846,-4.687500e-04,
847,-7.812500e-04,
848,-6.250000e-04,
849,-6.250000e-04,
850,-6.250000e-04,
851,-4.687500e-04,
852,-6.250000e-04,
853,-4.687500e-04,
854,-4.687500e-04,
855,-6.250000e-04,
856,-6.250000e-04,
857,-7.812500e-04,
858,-6.250000e-04,
859,-7.812500e-04,
860,-6.250000e-04,
861,-7.812500e-04,
862,-6.250000e-04,
863,-7.812500e-04,
864,-7.812500e-04,
865,-7.812500e-04,
866,-6.250000e-04,
867,-6.250000e-04,
868,-1.093750e-03,
869,-9.375000e-04,
870,-7.812500e-04,
871,-7.812500e-04,
872,-7.812500e-04,
873,-4.687500e-04,
874,-4.687500e-04,
875,-7.812500e-04,
876,-9.375000e-04,
877,-6.250000e-04,
878,-3.125000e-04,
879,-4.687500e-04,
880,-6.250000e-04,
881,-6.250000e-04,
882,-6.250000e-04,
883,-6.250000e-04,
884,-6.250000e-04,
885,-3.125000e-04,
886,-7.812500e-04,
887,-7.812500e-04,
888,-4.687500e-04,
889,-4.687500e-04,
890,-6.250000e-04,
891,-6.250000e-04,
892,-4.687500e-04,
893,-6.250000e-04,
894,-6.250000e-04,
895,-4.687500e-04,
896,-1.562500e-04,
897,-4.687500e-04,
898,-9.375000e-04,
899,-6.250000e-04,
900,-9.375000e-04,
901,-6.250000e-04,
902,-7.812500e-04,
903,-6.250000e-04,
904,-7.812500e-04,
905,-6.250000e-04,
906,-9.375000e-04,
907,-7.812500e-04,
908,-7.812500e-04,
909,-4.687500e-04,
910,-6.250000e-04,
911,-4.687500e-04,
912,-9.375000e-04,
913,-7.812500e-04,
914,-6.250000e-04,
915,-7.812500e-04,
916,-9.375000e-04,
917,-9.375000e-04,
918,-6.250000e-04,
919,-7.812500e-04,
920,-9.375000e-04,
921,-6.250000e-04,
922,-6.250000e-04,
923,-6.250000e-04,
924,-4.687500e-04,
925,-7.812500e-04,
926,-9.375000e-04,
927,-6.250000e-04,
928,-9.375000e-04,
929,-9.375000e-04,
930,-4.687500e-04,
931,-6.250000e-04,
932,-6.250000e-04,
933,-6.250000e-04,
934,-9.375000e-04,
935,-9.375000e-04,
936,-9.375000e-04,
937,-9.375000e-04,
938,-7.812500e-04,
939,-1.093750e-03,
940,-7.812500e-04,
941,-9.375000e-04,
942,-9.375000e-04,
943,-7.812500e-04,
944,-7.812500e-04,
945,-7.812500e-04,
946,-7.812500e-04,
947,-7.812500e-04,
948,-9.375000e-04,
949,-7.812500e-04,
950,-7.812500e-04,
951,-1.093750e-03,
952,-7.812500e-04,
953,-6.250000e-04,
954,-9.375000e-04,
955,-7.812500e-04,
956,-1.562500e-03,
957,-9.375000e-04,
958,-6.250000e-04,
959,-6.250000e-04,
960,-4.687500e-04,
961,-4.687500e-04,
962,-6.250000e-04,
963,-6.250000e-04,
964,-6.250000e-04,
965,-7.812500e-04,
966,-4.687500e-04,
967,-7.812500e-04,
968,-1.093750e-03,
969,-7.812500e-04,
970,-6.250000e-04,
971,-9.375000e-04,
972,-7.812500e-04,
973,-9.375000e-04,
974,-7.812500e-04,
975,-7.812500e-04,
976,-7.812500e-04,
977,-9.375000e-04,
978,-3.125000e-04,
979,-4.687500e-04,
980,-6.250000e-04,
981,-6.250000e-04,
982,-9.375000e-04,
983,-9.375000e-04,
984,-6.250000e-04,
985,-7.812500e-04,
986,-9.375000e-04,
987,-9.375000e-04,
988,-9.375000e-04,
989,-7.812500e-04,
990,-6.250000e-04,
991,-7.812500e-04,
992,-7.812500e-04,
993,-6.250000e-04,
994,-7.812500e-04,
995,-6.250000e-04,
996,-9.375000e-04,
997,-7.812500e-04,
998,-9.375000e-04,
999,-4.687500e-04,
1000,-6.250000e-04,
1001,-9.375000e-04,
1002,-7.812500e-04,
1003,-9.375000e-04,
1004,-4.687500e-04,
1005,-7.812500e-04,
1006,-6.250000e-04,
1007,-4.687500e-04,
1008,-6.250000e-04,
1009,-4.687500e-04,
1010,-6.250000e-04,
1011,-7.812500e-04,
1012,-7.812500e-04,
1013,-4.687500e-04,
1014,-4.687500e-04,
1015,-9.375000e-04,
1016,-9.375000e-04,
1017,-4.687500e-04,
1018,-7.812500e-04,
1019,-6.250000e-04,
1020,-7.812500e-04,
1021,-9.375000e-04,
1022,-6.250000e-04,
1023,-7.812500e-04,
1024,-9.375000e-04,
1025,-6.250000e-04,
1026,-6.250000e-04,
1027,-6.250000e-04,
1028,-6.250000e-04,
1029,-7.812500e-04,
1030,-9.375000e-04,
1031,-9.375000e-04,
1032,-9.375000e-04,
1033,-9.375000e-04,
1034,-9.375000e-04,
1035,-1.093750e-03,
1036,-7.812500e-04,
1037,-7.812500e-04,
1038,-7.812500e-04,
1039,-9.375000e-04,
1040,-6.250000e-04,
1041,-4.687500e-04,
1042,-9.375000e-04,
1043,-7.812500e-04,
1044,-7.812500e-04,
1045,-7.812500e-04,
1046,-4.687500e-04,
1047,-7.812500e-04,
1048,-6.250000e-04,
1049,-7.812500e-04,
1050,-7.812500e-04,
1051,-7.812500e-04,
