laser_day1/2024-03-08 F(t) Al target 1/Newfile7.csv

X,CH1,Start,Increment,
Sequence,Volt,-5.999999e-04,2.000000e-07,
0,0.000000e+00,
1,-1.562500e-04,
2,0.000000e+00,
3,-3.125000e-04,
4,1.562500e-04,
5,-3.125000e-04,
6,-3.125000e-04,
7,-1.562500e-04,
8,0.000000e+00,
9,-3.125000e-04,
10,1.562500e-04,
11,0.000000e+00,
12,-1.562500e-04,
13,0.000000e+00,
14,1.562500e-04,
15,0.000000e+00,
16,-1.562500e-04,
17,-3.125000e-04,
18,-3.125000e-04,
19,1.562500e-04,
20,-3.125000e-04,
21,-3.125000e-04,
22,-3.125000e-04,
23,3.125000e-04,
24,1.562500e-04,
25,0.000000e+00,
26,0.000000e+00,
27,-3.125000e-04,
28,1.562500e-04,
29,0.000000e+00,
30,-3.125000e-04,
31,-1.562500e-04,
32,1.562500e-04,
33,1.562500e-04,
34,1.562500e-04,
35,0.000000e+00,
36,0.000000e+00,
37,-1.562500e-04,
38,1.562500e-04,
39,0.000000e+00,
40,-1.562500e-04,
41,-1.562500e-04,
42,0.000000e+00,
43,0.000000e+00,
44,0.000000e+00,
45,0.000000e+00,
46,0.000000e+00,
47,-1.562500e-04,
48,1.562500e-04,
49,1.562500e-04,
50,0.000000e+00,
51,1.562500e-04,
52,1.562500e-04,
53,-1.562500e-04,
54,-1.562500e-04,
55,0.000000e+00,
56,0.000000e+00,
57,-1.562500e-04,
58,-1.562500e-04,
59,1.562500e-04,
60,-1.562500e-04,
61,-1.562500e-04,
62,-1.562500e-04,
63,-3.125000e-04,
64,-1.562500e-04,
65,1.562500e-04,
66,1.562500e-04,
67,0.000000e+00,
68,1.562500e-04,
69,3.125000e-04,
70,-3.125000e-04,
71,-1.562500e-04,
72,1.562500e-04,
73,1.562500e-04,
74,0.000000e+00,
75,-1.562500e-04,
76,-3.125000e-04,
77,-1.562500e-04,
78,-1.562500e-04,
79,-1.562500e-04,
80,0.000000e+00,
81,-1.562500e-04,
82,0.000000e+00,
83,0.000000e+00,
84,-4.687500e-04,
85,-1.562500e-04,
86,1.562500e-04,
87,1.562500e-04,
88,-3.125000e-04,
89,-1.562500e-04,
90,-1.562500e-04,
91,-1.562500e-04,
92,-3.125000e-04,
93,0.000000e+00,
94,0.000000e+00,
95,0.000000e+00,
96,-1.562500e-04,
97,0.000000e+00,
98,-3.125000e-04,
99,-1.562500e-04,
100,-1.562500e-04,
101,-1.562500e-04,
102,-3.125000e-04,
103,-3.125000e-04,
104,-3.125000e-04,
105,-4.687500e-04,
106,-1.562500e-04,
107,1.562500e-04,
108,0.000000e+00,
109,-3.125000e-04,
110,0.000000e+00,
111,-1.562500e-04,
112,-4.687500e-04,
113,-3.125000e-04,
114,-3.125000e-04,
115,0.000000e+00,
116,1.562500e-04,
117,-1.562500e-04,
118,-4.687500e-04,
119,1.562500e-04,
120,-4.687500e-04,
121,0.000000e+00,
122,-3.125000e-04,
123,0.000000e+00,
124,-1.562500e-04,
125,0.000000e+00,
126,-3.125000e-04,
127,0.000000e+00,
128,0.000000e+00,
129,1.562500e-04,
130,-1.562500e-04,
131,-3.125000e-04,
132,0.000000e+00,
133,-1.562500e-04,
134,-1.562500e-04,
135,-3.125000e-04,
136,-1.562500e-04,
137,-1.562500e-04,
138,0.000000e+00,
139,1.562500e-04,
140,1.562500e-04,
141,-3.125000e-04,
142,-1.562500e-04,
143,-3.125000e-04,
144,1.562500e-04,
145,0.000000e+00,
146,0.000000e+00,
147,3.125000e-04,
148,-1.562500e-04,
149,-1.562500e-04,
150,-1.562500e-04,
151,1.562500e-04,
152,0.000000e+00,
153,0.000000e+00,
154,-1.562500e-04,
155,3.125000e-04,
156,-3.125000e-04,
157,-1.562500e-04,
158,-1.562500e-04,
159,0.000000e+00,
160,0.000000e+00,
161,-1.562500e-04,
162,1.562500e-04,
163,0.000000e+00,
164,-3.125000e-04,
165,0.000000e+00,
166,-6.250000e-04,
167,-1.562500e-04,
168,-3.125000e-04,
169,-3.125000e-04,
170,0.000000e+00,
171,0.000000e+00,
172,-1.562500e-04,
173,-1.562500e-04,
174,-3.125000e-04,
175,-1.562500e-04,
176,-1.562500e-04,
177,-1.562500e-04,
178,1.562500e-04,
179,1.562500e-04,
180,1.562500e-04,
181,-1.562500e-04,
182,0.000000e+00,
183,-4.687500e-04,
184,1.562500e-04,
185,-3.125000e-04,
186,1.562500e-04,
187,0.000000e+00,
188,0.000000e+00,
189,1.562500e-04,
190,0.000000e+00,
191,-4.687500e-04,
192,-1.562500e-04,
193,3.125000e-04,
194,0.000000e+00,
195,0.000000e+00,
196,-1.562500e-04,
197,0.000000e+00,
198,-1.562500e-04,
199,0.000000e+00,
200,1.562500e-04,
201,0.000000e+00,
202,-1.562500e-04,
203,0.000000e+00,
204,0.000000e+00,
205,0.000000e+00,
206,3.125000e-04,
207,1.562500e-04,
208,1.562500e-04,
209,3.125000e-04,
210,0.000000e+00,
211,0.000000e+00,
212,0.000000e+00,
213,0.000000e+00,
214,-1.562500e-04,
215,-1.562500e-04,
216,0.000000e+00,
217,1.562500e-04,
218,-1.562500e-04,
219,-1.562500e-04,
220,-1.562500e-04,
221,-1.562500e-04,
222,0.000000e+00,
223,0.000000e+00,
224,1.562500e-04,
225,-1.562500e-04,
226,1.562500e-04,
227,0.000000e+00,
228,-3.125000e-04,
229,1.562500e-04,
230,1.562500e-04,
231,0.000000e+00,
232,-1.562500e-04,
233,0.000000e+00,
234,-1.562500e-04,
235,-3.125000e-04,
236,-1.562500e-04,
237,-1.562500e-04,
238,1.562500e-04,
239,1.562500e-04,
240,1.562500e-04,
241,1.562500e-04,
242,-3.125000e-04,
243,-3.125000e-04,
244,-3.125000e-04,
245,-1.562500e-04,
246,-1.562500e-04,
247,0.000000e+00,
248,-1.562500e-04,
249,-1.562500e-04,
250,-3.125000e-04,
251,-1.562500e-04,
252,-1.562500e-04,
253,-3.125000e-04,
254,0.000000e+00,
255,-1.562500e-04,
256,0.000000e+00,
257,-1.562500e-04,
258,-3.125000e-04,
259,1.562500e-04,
260,0.000000e+00,
261,1.562500e-04,
262,-1.562500e-04,
263,-3.125000e-04,
264,-3.125000e-04,
265,-1.562500e-04,
266,0.000000e+00,
267,0.000000e+00,
268,1.562500e-04,
269,-1.562500e-04,
270,-3.125000e-04,
271,0.000000e+00,
272,0.000000e+00,
273,-3.125000e-04,
274,0.000000e+00,
275,-1.562500e-04,
276,0.000000e+00,
277,-1.562500e-04,
278,1.562500e-04,
279,1.562500e-04,
280,0.000000e+00,
281,0.000000e+00,
282,0.000000e+00,
283,0.000000e+00,
284,-1.562500e-04,
285,0.000000e+00,
286,0.000000e+00,
287,-1.562500e-04,
288,-1.562500e-04,
289,-1.562500e-04,
290,-1.562500e-04,
291,0.000000e+00,
292,1.562500e-04,
293,1.562500e-04,
294,0.000000e+00,
295,0.000000e+00,
296,1.562500e-04,
297,0.000000e+00,
298,3.125000e-04,
299,0.000000e+00,
300,-1.562500e-04,
301,-3.125000e-04,
302,-1.562500e-04,
303,-3.125000e-04,
304,-1.562500e-04,
305,-3.125000e-04,
306,0.000000e+00,
307,-1.562500e-04,
308,0.000000e+00,
309,1.562500e-04,
310,0.000000e+00,
311,0.000000e+00,
312,0.000000e+00,
313,-1.562500e-04,
314,-1.562500e-04,
315,0.000000e+00,
316,-3.125000e-04,
317,-3.125000e-04,
318,0.000000e+00,
319,-1.562500e-04,
320,0.000000e+00,
321,-1.562500e-04,
322,0.000000e+00,
323,0.000000e+00,
324,-4.687500e-04,
325,0.000000e+00,
326,0.000000e+00,
327,-1.562500e-04,
328,1.562500e-04,
329,0.000000e+00,
330,3.125000e-04,
331,0.000000e+00,
332,1.562500e-04,
333,0.000000e+00,
334,-1.562500e-04,
335,-4.687500e-04,
336,-1.562500e-04,
337,-1.562500e-04,
338,-4.687500e-04,
339,-4.687500e-04,
340,-1.562500e-04,
341,-3.125000e-04,
342,-3.125000e-04,
343,1.562500e-04,
344,0.000000e+00,
345,1.562500e-04,
346,0.000000e+00,
347,0.000000e+00,
348,0.000000e+00,
349,3.125000e-04,
350,-1.562500e-04,
351,-1.562500e-04,
352,0.000000e+00,
353,-4.687500e-04,
354,-1.562500e-04,
355,1.562500e-04,
356,0.000000e+00,
357,-4.687500e-04,
358,1.562500e-04,
359,0.000000e+00,
360,-3.125000e-04,
361,-1.562500e-04,
362,0.000000e+00,
363,-3.125000e-04,
364,0.000000e+00,
365,-1.562500e-04,
366,0.000000e+00,
367,1.562500e-04,
368,1.562500e-04,
369,0.000000e+00,
370,1.562500e-04,
371,0.000000e+00,
372,0.000000e+00,
373,-1.562500e-04,
374,1.562500e-04,
375,1.562500e-04,
376,-1.562500e-04,
377,0.000000e+00,
378,-4.687500e-04,
379,-1.562500e-04,
380,-3.125000e-04,
381,-1.562500e-04,
382,0.000000e+00,
383,-3.125000e-04,
384,-4.687500e-04,
385,-1.562500e-04,
386,-3.125000e-04,
387,1.562500e-04,
388,1.562500e-04,
389,-3.125000e-04,
390,-3.125000e-04,
391,-1.562500e-04,
392,-1.562500e-04,
393,-3.125000e-04,
394,-3.125000e-04,
395,0.000000e+00,
396,1.562500e-04,
397,-1.562500e-04,
398,0.000000e+00,
399,0.000000e+00,
400,0.000000e+00,
401,-3.125000e-04,
402,-3.125000e-04,
403,0.000000e+00,
404,-3.125000e-04,
405,-3.125000e-04,
406,0.000000e+00,
407,0.000000e+00,
408,-3.125000e-04,
409,-3.125000e-04,
410,-4.687500e-04,
411,1.562500e-04,
412,0.000000e+00,
413,0.000000e+00,
414,0.000000e+00,
415,0.000000e+00,
416,-1.562500e-04,
417,-1.562500e-04,
418,1.562500e-04,
419,1.562500e-04,
420,0.000000e+00,
421,-1.562500e-04,
422,-1.562500e-04,
423,0.000000e+00,
424,0.000000e+00,
425,-1.562500e-04,
426,1.562500e-04,
427,-1.562500e-04,
428,-3.125000e-04,
429,0.000000e+00,
430,-4.687500e-04,
431,-1.562500e-04,
432,-1.562500e-04,
433,-3.125000e-04,
434,-3.125000e-04,
435,-1.562500e-04,
436,-1.562500e-04,
437,1.562500e-04,
438,-1.562500e-04,
439,-3.125000e-04,
440,0.000000e+00,
441,-1.562500e-04,
442,-1.562500e-04,
443,-1.562500e-04,
444,1.562500e-04,
445,-3.125000e-04,
446,0.000000e+00,
447,-1.562500e-04,
448,0.000000e+00,
449,4.687500e-04,
450,0.000000e+00,
451,1.562500e-04,
452,-1.562500e-04,
453,-1.562500e-04,
454,-1.562500e-04,
455,3.125000e-04,
456,-1.562500e-04,
457,-1.562500e-04,
458,-4.687500e-04,
459,-3.125000e-04,
460,-3.125000e-04,
461,-3.125000e-04,
462,-1.562500e-04,
463,-1.562500e-04,
464,1.562500e-04,
465,-1.562500e-04,
466,-1.562500e-04,
467,-3.125000e-04,
468,-1.562500e-04,
469,-3.125000e-04,
470,-1.562500e-04,
471,-1.562500e-04,
472,-1.562500e-04,
473,-3.125000e-04,
474,-4.687500e-04,
475,-3.125000e-04,
476,-3.125000e-04,
477,0.000000e+00,
478,-1.562500e-04,
479,-1.562500e-04,
480,3.125000e-04,
481,-1.562500e-04,
482,0.000000e+00,
483,-1.562500e-04,
484,-4.687500e-04,
485,-1.562500e-04,
486,-3.125000e-04,
487,-3.125000e-04,
488,0.000000e+00,
489,-1.562500e-04,
490,-3.125000e-04,
491,0.000000e+00,
492,-1.562500e-04,
493,-4.687500e-04,
494,0.000000e+00,
495,0.000000e+00,
496,3.125000e-04,
497,1.562500e-04,
498,-1.562500e-04,
499,0.000000e+00,
500,-3.125000e-04,
501,-3.125000e-04,
502,0.000000e+00,
503,-3.125000e-04,
504,-1.562500e-04,
505,3.125000e-04,
506,-3.125000e-04,
507,-3.125000e-04,
508,-1.562500e-04,
509,0.000000e+00,
510,-1.562500e-04,
511,1.562500e-04,
512,0.000000e+00,
513,-3.125000e-04,
514,1.562500e-04,
515,0.000000e+00,
516,0.000000e+00,
517,0.000000e+00,
518,-3.125000e-04,
519,-3.125000e-04,
520,-1.562500e-04,
521,-1.562500e-04,
522,0.000000e+00,
523,-1.562500e-04,
524,-1.562500e-04,
525,1.562500e-04,
526,-1.562500e-04,
527,-1.562500e-04,
528,-3.125000e-04,
529,0.000000e+00,
530,-3.125000e-04,
531,0.000000e+00,
532,-1.562500e-04,
533,-3.125000e-04,
534,-3.125000e-04,
535,0.000000e+00,
536,-1.562500e-04,
537,0.000000e+00,
538,0.000000e+00,
539,1.562500e-04,
540,1.562500e-04,
541,-1.562500e-04,
542,-1.562500e-04,
543,-1.562500e-04,
544,0.000000e+00,
545,-1.562500e-04,
546,-1.562500e-04,
547,-1.562500e-04,
548,0.000000e+00,
549,-3.125000e-04,
550,1.562500e-04,
551,0.000000e+00,
552,1.562500e-04,
553,-3.125000e-04,
554,-1.562500e-04,
555,-1.562500e-04,
556,0.000000e+00,
557,0.000000e+00,
558,0.000000e+00,
559,0.000000e+00,
560,-1.562500e-04,
561,-3.125000e-04,
562,-1.562500e-04,
563,-3.125000e-04,
564,-4.687500e-04,
565,-3.125000e-04,
566,-1.562500e-04,
567,-1.562500e-04,
568,-1.562500e-04,
569,-4.687500e-04,
570,-1.562500e-04,
571,1.562500e-04,
572,-1.562500e-04,
573,0.000000e+00,
574,0.000000e+00,
575,0.000000e+00,
576,0.000000e+00,
577,-3.125000e-04,
578,-1.562500e-04,
579,-4.687500e-04,
580,-1.562500e-04,
581,-3.125000e-04,
582,-4.687500e-04,
583,-1.562500e-04,
584,-1.562500e-04,
585,-1.562500e-04,
586,0.000000e+00,
587,0.000000e+00,
588,0.000000e+00,
589,-1.562500e-04,
590,0.000000e+00,
591,0.000000e+00,
592,-1.562500e-04,
593,-3.125000e-04,
594,-4.687500e-04,
595,-3.125000e-04,
596,0.000000e+00,
597,-1.562500e-04,
598,-1.562500e-04,
599,-3.125000e-04,
600,-1.562500e-04,
601,0.000000e+00,
602,-1.562500e-04,
603,0.000000e+00,
604,-4.687500e-04,
605,-1.562500e-04,
606,0.000000e+00,
607,0.000000e+00,
608,-3.125000e-04,
609,-3.125000e-04,
610,-3.125000e-04,
611,-3.125000e-04,
612,-4.687500e-04,
613,-3.125000e-04,
614,0.000000e+00,
615,0.000000e+00,
616,-1.562500e-04,
617,1.562500e-04,
618,1.562500e-04,
619,-4.687500e-04,
620,-1.562500e-04,
621,-1.562500e-04,
622,-1.562500e-04,
623,-1.562500e-04,
624,-3.125000e-04,
625,-3.125000e-04,
626,-3.125000e-04,
627,-1.562500e-04,
628,0.000000e+00,
629,0.000000e+00,
630,-3.125000e-04,
631,-3.125000e-04,
632,-3.125000e-04,
633,-3.125000e-04,
634,-1.562500e-04,
635,0.000000e+00,
636,0.000000e+00,
637,-3.125000e-04,
638,-3.125000e-04,
639,-1.562500e-04,
640,-4.687500e-04,
641,-1.562500e-04,
642,-1.562500e-04,
643,-1.562500e-04,
644,-1.562500e-04,
645,-1.562500e-04,
646,-3.125000e-04,
647,-3.125000e-04,
648,-1.562500e-04,
649,1.562500e-04,
650,1.562500e-04,
651,-3.125000e-04,
652,-3.125000e-04,
653,-3.125000e-04,
654,-3.125000e-04,
655,-1.562500e-04,
656,-3.125000e-04,
657,0.000000e+00,
658,3.125000e-04,
659,0.000000e+00,
660,-3.125000e-04,
661,-1.562500e-04,
662,-3.125000e-04,
663,0.000000e+00,
664,0.000000e+00,
665,0.000000e+00,
666,0.000000e+00,
667,0.000000e+00,
668,-3.125000e-04,
669,-1.562500e-04,
670,-4.687500e-04,
671,-1.562500e-04,
672,0.000000e+00,
673,0.000000e+00,
674,0.000000e+00,
675,-1.562500e-04,
676,-1.562500e-04,
677,-1.562500e-04,
678,-4.687500e-04,
679,-3.125000e-04,
680,-1.562500e-04,
681,-1.562500e-04,
682,-1.562500e-04,
683,-4.687500e-04,
684,-3.125000e-04,
685,-3.125000e-04,
686,-4.687500e-04,
687,-4.687500e-04,
688,-6.250000e-04,
689,-6.250000e-04,
690,-7.812500e-04,
691,-4.687500e-04,
692,-6.250000e-04,
693,-3.125000e-04,
694,-3.125000e-04,
695,-3.125000e-04,
696,-3.125000e-04,
697,-3.125000e-04,
698,-1.562500e-04,
699,-3.125000e-04,
700,-3.125000e-04,
701,-3.125000e-04,
702,-1.562500e-04,
703,-4.687500e-04,
704,-4.687500e-04,
705,-6.250000e-04,
706,-3.125000e-04,
707,-1.562500e-04,
708,-3.125000e-04,
709,-1.562500e-04,
710,-3.125000e-04,
711,-3.125000e-04,
712,0.000000e+00,
713,-3.125000e-04,
714,0.000000e+00,
715,0.000000e+00,
716,-3.125000e-04,
717,-1.562500e-04,
718,1.562500e-04,
719,-1.562500e-04,
720,1.562500e-04,
721,-1.562500e-04,
722,-6.250000e-04,
723,-1.562500e-04,
724,-1.562500e-04,
725,-4.687500e-04,
726,0.000000e+00,
727,-4.687500e-04,
728,-3.125000e-04,
729,-3.125000e-04,
730,-1.562500e-04,
731,0.000000e+00,
732,-1.562500e-04,
733,-1.562500e-04,
734,-1.562500e-04,
735,-4.687500e-04,
736,0.000000e+00,
737,3.125000e-04,
738,0.000000e+00,
739,-1.562500e-04,
740,-3.125000e-04,
741,-1.562500e-04,
742,-1.562500e-04,
743,-1.562500e-04,
744,1.562500e-04,
745,-3.125000e-04,
746,-1.562500e-04,
747,-3.125000e-04,
748,0.000000e+00,
749,-1.562500e-04,
750,-3.125000e-04,
751,-1.562500e-04,
752,-1.562500e-04,
753,-1.562500e-04,
754,0.000000e+00,
755,-4.687500e-04,
756,-1.562500e-04,
757,-3.125000e-04,
758,-3.125000e-04,
759,0.000000e+00,
760,-3.125000e-04,
761,-3.125000e-04,
762,-3.125000e-04,
763,-1.562500e-04,
764,1.562500e-04,
765,0.000000e+00,
766,0.000000e+00,
767,-3.125000e-04,
768,-3.125000e-04,
769,-1.562500e-04,
770,-3.125000e-04,
771,-1.562500e-04,
772,-3.125000e-04,
773,-1.562500e-04,
774,-6.250000e-04,
775,-4.687500e-04,
776,-1.562500e-04,
777,-3.125000e-04,
778,-1.562500e-04,
779,-1.562500e-04,
780,-1.562500e-04,
781,0.000000e+00,
782,-1.562500e-04,
783,1.562500e-04,
784,-3.125000e-04,
785,-1.562500e-04,
786,0.000000e+00,
787,-1.562500e-04,
788,-1.562500e-04,
789,-4.687500e-04,
790,-4.687500e-04,
791,0.000000e+00,
792,-1.562500e-04,
793,0.000000e+00,
794,-1.562500e-04,
795,-6.250000e-04,
796,-4.687500e-04,
797,-3.125000e-04,
798,-3.125000e-04,
799,-4.687500e-04,
800,-6.250000e-04,
801,0.000000e+00,
802,-1.562500e-04,
803,-1.562500e-04,
804,-3.125000e-04,
805,-3.125000e-04,
806,-1.562500e-04,
807,-3.125000e-04,
808,-1.562500e-04,
809,-1.562500e-04,
810,-3.125000e-04,
811,-3.125000e-04,
812,-3.125000e-04,
813,-1.562500e-04,
814,-3.125000e-04,
815,-4.687500e-04,
816,-3.125000e-04,
817,-1.562500e-04,
818,3.125000e-04,
819,-3.125000e-04,
820,-3.125000e-04,
821,-3.125000e-04,
822,-1.562500e-04,
823,-3.125000e-04,
824,0.000000e+00,
825,0.000000e+00,
826,0.000000e+00,
827,1.562500e-04,
828,-3.125000e-04,
829,-1.562500e-04,
830,-3.125000e-04,
831,-1.562500e-04,
832,-3.125000e-04,
833,-4.687500e-04,
834,-3.125000e-04,
835,-4.687500e-04,
836,-7.812500e-04,
837,-3.125000e-04,
838,-6.250000e-04,
839,-3.125000e-04,
840,-4.687500e-04,
841,0.000000e+00,
842,-1.562500e-04,
843,-3.125000e-04,
844,-1.562500e-04,
845,-1.562500e-04,
846,-3.125000e-04,
847,-6.250000e-04,
848,-3.125000e-04,
849,-3.125000e-04,
850,0.000000e+00,
851,-6.250000e-04,
852,-3.125000e-04,
853,-1.562500e-04,
854,-4.687500e-04,
855,-6.250000e-04,
856,-3.125000e-04,
857,-4.687500e-04,
858,-3.125000e-04,
859,-3.125000e-04,
860,-4.687500e-04,
861,-7.812500e-04,
862,-6.250000e-04,
863,-3.125000e-04,
864,0.000000e+00,
865,0.000000e+00,
866,-1.562500e-04,
867,0.000000e+00,
868,0.000000e+00,
869,-3.125000e-04,
870,1.562500e-04,
871,-1.562500e-04,
872,-3.125000e-04,
873,-3.125000e-04,
874,-4.687500e-04,
875,-4.687500e-04,
876,-1.562500e-04,
877,-6.250000e-04,
878,-3.125000e-04,
879,0.000000e+00,
880,-1.562500e-04,
881,-4.687500e-04,
882,-4.687500e-04,
883,-1.562500e-04,
884,-4.687500e-04,
885,1.562500e-04,
886,0.000000e+00,
887,0.000000e+00,
888,-1.562500e-04,
889,-1.562500e-04,
890,0.000000e+00,
891,-3.125000e-04,
892,0.000000e+00,
893,-3.125000e-04,
894,-3.125000e-04,
895,-3.125000e-04,
896,0.000000e+00,
897,-1.562500e-04,
898,-3.125000e-04,
899,-4.687500e-04,
900,-1.562500e-04,
901,0.000000e+00,
902,-3.125000e-04,
903,-3.125000e-04,
904,-3.125000e-04,
905,-1.562500e-04,
906,-1.562500e-04,
907,-3.125000e-04,
908,-3.125000e-04,
909,-1.562500e-04,
910,0.000000e+00,
911,-4.687500e-04,
912,-4.687500e-04,
913,0.000000e+00,
914,-3.125000e-04,
915,-4.687500e-04,
916,-3.125000e-04,
917,-1.562500e-04,
918,-3.125000e-04,
919,-1.562500e-04,
920,-4.687500e-04,
921,-1.562500e-04,
922,-3.125000e-04,
923,-1.562500e-04,
924,-3.125000e-04,
925,-1.562500e-04,
926,1.562500e-04,
927,-3.125000e-04,
928,-1.562500e-04,
929,-3.125000e-04,
930,0.000000e+00,
931,-1.562500e-04,
932,-4.687500e-04,
933,-3.125000e-04,
934,-1.562500e-04,
935,-3.125000e-04,
936,-3.125000e-04,
937,-3.125000e-04,
938,-3.125000e-04,
939,-1.562500e-04,
940,-1.562500e-04,
941,0.000000e+00,
942,0.000000e+00,
943,1.562500e-04,
944,-1.562500e-04,
945,-1.562500e-04,
946,-4.687500e-04,
947,-1.562500e-04,
948,-3.125000e-04,
949,-3.125000e-04,
950,0.000000e+00,
951,0.000000e+00,
952,-1.562500e-04,
953,-1.562500e-04,
954,1.562500e-04,
955,0.000000e+00,
956,1.562500e-04,
957,1.562500e-04,
958,-3.125000e-04,
959,-1.562500e-04,
960,0.000000e+00,
961,-1.562500e-04,
962,0.000000e+00,
963,-1.562500e-04,
964,-3.125000e-04,
965,-1.562500e-04,
966,-3.125000e-04,
967,-3.125000e-04,
968,-3.125000e-04,
969,-3.125000e-04,
970,3.125000e-04,
971,-3.125000e-04,
972,-4.687500e-04,
973,-1.562500e-04,
974,-4.687500e-04,
975,-3.125000e-04,
976,0.000000e+00,
977,-3.125000e-04,
978,-1.562500e-04,
979,0.000000e+00,
980,0.000000e+00,
981,-1.562500e-04,
982,-3.125000e-04,
983,-3.125000e-04,
984,-3.125000e-04,
985,-1.562500e-04,
986,-1.562500e-04,
987,0.000000e+00,
988,-4.687500e-04,
989,-4.687500e-04,
990,-3.125000e-04,
991,-1.562500e-04,
992,-3.125000e-04,
993,-3.125000e-04,
994,-1.562500e-04,
995,-1.562500e-04,
996,1.562500e-04,
997,0.000000e+00,
998,-1.562500e-04,
999,-1.562500e-04,
1000,-3.125000e-04,
1001,1.562500e-04,
1002,0.000000e+00,
1003,-3.125000e-04,
1004,-1.562500e-04,
1005,0.000000e+00,
1006,1.562500e-04,
1007,-1.562500e-04,
1008,-1.562500e-04,
1009,-3.125000e-04,
1010,-1.562500e-04,
1011,-3.125000e-04,
1012,-3.125000e-04,
1013,-4.687500e-04,
1014,0.000000e+00,
1015,-3.125000e-04,
1016,-1.562500e-04,
1017,0.000000e+00,
1018,0.000000e+00,
1019,0.000000e+00,
1020,0.000000e+00,
1021,1.562500e-04,
1022,-1.562500e-04,
1023,-1.562500e-04,
1024,0.000000e+00,
1025,0.000000e+00,
1026,-1.562500e-04,
1027,0.000000e+00,
1028,-1.562500e-04,
1029,0.000000e+00,
1030,-3.125000e-04,
1031,-4.687500e-04,
1032,-3.125000e-04,
1033,-4.687500e-04,
1034,-3.125000e-04,
1035,0.000000e+00,
1036,-3.125000e-04,
1037,-1.562500e-04,
1038,-1.562500e-04,
1039,-1.562500e-04,
1040,1.562500e-04,
1041,1.562500e-04,
1042,-1.562500e-04,
1043,0.000000e+00,
1044,1.562500e-04,
1045,1.562500e-04,
1046,1.562500e-04,
1047,0.000000e+00,
1048,-3.125000e-04,
1049,0.000000e+00,
1050,1.562500e-04,
1051,-3.125000e-04,
1052,-1.562500e-04,
1053,1.562500e-04,
1054,-1.562500e-04,
1055,-1.562500e-04,
1056,-1.562500e-04,
1057,0.000000e+00,
1058,-4.687500e-04,
1059,1.562500e-04,
1060,0.000000e+00,
1061,-1.562500e-04,
1062,-3.125000e-04,
1063,-4.687500e-04,
1064,-1.562500e-04,
1065,0.000000e+00,
1066,-1.562500e-04,
1067,1.562500e-04,
1068,0.000000e+00,
1069,-1.562500e-04,
1070,1.562500e-04,
1071,-1.562500e-04,
