laser_day1/2024-03-08 F(t) Al target 1/Newfile9_CH4.csv

X,CH4,Start,Increment,
Sequence,Volt,-5.999999e-04,2.000000e-07,
0,0.000000e+00,
1,-3.125000e-04,
2,0.000000e+00,
3,-3.125000e-04,
4,6.250000e-04,
5,3.125000e-04,
6,3.125000e-04,
7,3.125000e-04,
8,0.000000e+00,
9,0.000000e+00,
10,-3.125000e-04,
11,0.000000e+00,
12,0.000000e+00,
13,0.000000e+00,
14,0.000000e+00,
15,-3.125000e-04,
16,0.000000e+00,
17,3.125000e-04,
18,0.000000e+00,
19,3.125000e-04,
20,3.125000e-04,
21,-3.125000e-04,
22,0.000000e+00,
23,-3.125000e-04,
24,0.000000e+00,
25,3.125000e-04,
26,6.250000e-04,
27,3.125000e-04,
28,0.000000e+00,
29,0.000000e+00,
30,3.125000e-04,
31,-3.125000e-04,
32,0.000000e+00,
33,0.000000e+00,
34,3.125000e-04,
35,3.125000e-04,
36,-6.250000e-04,
37,6.250000e-04,
38,-3.125000e-04,
39,3.125000e-04,
40,3.125000e-04,
41,0.000000e+00,
42,0.000000e+00,
43,3.125000e-04,
44,0.000000e+00,
45,3.125000e-04,
46,0.000000e+00,
47,3.125000e-04,
48,6.250000e-04,
49,0.000000e+00,
50,0.000000e+00,
51,-3.125000e-04,
52,0.000000e+00,
53,3.125000e-04,
54,3.125000e-04,
55,-3.125000e-04,
56,3.125000e-04,
57,0.000000e+00,
58,-3.125000e-04,
59,3.125000e-04,
60,-3.125000e-04,
61,-3.125000e-04,
62,6.250000e-04,
63,0.000000e+00,
64,3.125000e-04,
65,0.000000e+00,
66,3.125000e-04,
67,6.250000e-04,
68,3.125000e-04,
69,3.125000e-04,
70,0.000000e+00,
71,6.250000e-04,
72,0.000000e+00,
73,0.000000e+00,
74,-3.125000e-04,
75,3.125000e-04,
76,3.125000e-04,
77,3.125000e-04,
78,3.125000e-04,
79,0.000000e+00,
80,-3.125000e-04,
81,6.250000e-04,
82,3.125000e-04,
83,0.000000e+00,
84,3.125000e-04,
85,0.000000e+00,
86,3.125000e-04,
87,3.125000e-04,
88,0.000000e+00,
89,0.000000e+00,
90,3.125000e-04,
91,3.125000e-04,
92,6.250000e-04,
93,0.000000e+00,
94,0.000000e+00,
95,3.125000e-04,
96,6.250000e-04,
97,0.000000e+00,
98,3.125000e-04,
99,0.000000e+00,
100,0.000000e+00,
101,0.000000e+00,
102,6.250000e-04,
103,9.375000e-04,
104,3.125000e-04,
105,3.125000e-04,
106,-3.125000e-04,
107,6.250000e-04,
108,3.125000e-04,
109,0.000000e+00,
110,0.000000e+00,
111,0.000000e+00,
112,6.250000e-04,
113,0.000000e+00,
114,0.000000e+00,
115,3.125000e-04,
116,3.125000e-04,
117,3.125000e-04,
118,3.125000e-04,
119,6.250000e-04,
120,0.000000e+00,
121,6.250000e-04,
122,6.250000e-04,
123,0.000000e+00,
124,0.000000e+00,
125,3.125000e-04,
126,3.125000e-04,
127,-3.125000e-04,
128,0.000000e+00,
129,0.000000e+00,
130,0.000000e+00,
131,-3.125000e-04,
132,-3.125000e-04,
133,-3.125000e-04,
134,-3.125000e-04,
135,0.000000e+00,
136,0.000000e+00,
137,3.125000e-04,
138,0.000000e+00,
139,3.125000e-04,
140,0.000000e+00,
141,-3.125000e-04,
142,3.125000e-04,
143,3.125000e-04,
144,0.000000e+00,
145,0.000000e+00,
146,3.125000e-04,
147,-9.375000e-04,
148,0.000000e+00,
149,3.125000e-04,
150,0.000000e+00,
151,0.000000e+00,
152,3.125000e-04,
153,3.125000e-04,
154,0.000000e+00,
155,3.125000e-04,
156,0.000000e+00,
157,3.125000e-04,
158,-6.250000e-04,
159,0.000000e+00,
160,0.000000e+00,
161,6.250000e-04,
162,6.250000e-04,
163,3.125000e-04,
164,0.000000e+00,
165,3.125000e-04,
166,0.000000e+00,
167,3.125000e-04,
168,-3.125000e-04,
169,3.125000e-04,
170,0.000000e+00,
171,6.250000e-04,
172,0.000000e+00,
173,3.125000e-04,
174,9.375000e-04,
175,3.125000e-04,
176,0.000000e+00,
177,0.000000e+00,
178,-3.125000e-04,
179,6.250000e-04,
180,3.125000e-04,
181,0.000000e+00,
182,0.000000e+00,
183,-3.125000e-04,
184,0.000000e+00,
185,6.250000e-04,
186,0.000000e+00,
187,0.000000e+00,
188,0.000000e+00,
189,3.125000e-04,
190,3.125000e-04,
191,-3.125000e-04,
192,6.250000e-04,
193,3.125000e-04,
194,0.000000e+00,
195,0.000000e+00,
196,0.000000e+00,
197,0.000000e+00,
198,-3.125000e-04,
199,-3.125000e-04,
200,3.125000e-04,
201,3.125000e-04,
202,0.000000e+00,
203,3.125000e-04,
204,3.125000e-04,
205,0.000000e+00,
206,0.000000e+00,
207,0.000000e+00,
208,0.000000e+00,
209,0.000000e+00,
210,0.000000e+00,
211,3.125000e-04,
212,6.250000e-04,
213,3.125000e-04,
214,-3.125000e-04,
215,0.000000e+00,
216,0.000000e+00,
217,0.000000e+00,
218,3.125000e-04,
219,0.000000e+00,
220,6.250000e-04,
221,6.250000e-04,
222,6.250000e-04,
223,0.000000e+00,
224,0.000000e+00,
225,0.000000e+00,
226,3.125000e-04,
227,0.000000e+00,
228,0.000000e+00,
229,-3.125000e-04,
230,-3.125000e-04,
231,3.125000e-04,
232,6.250000e-04,
233,0.000000e+00,
234,0.000000e+00,
235,0.000000e+00,
236,3.125000e-04,
237,-3.125000e-04,
238,3.125000e-04,
239,0.000000e+00,
240,3.125000e-04,
241,0.000000e+00,
242,0.000000e+00,
243,3.125000e-04,
244,0.000000e+00,
245,3.125000e-04,
246,3.125000e-04,
247,0.000000e+00,
248,9.375000e-04,
249,0.000000e+00,
250,-3.125000e-04,
251,0.000000e+00,
252,3.125000e-04,
253,-3.125000e-04,
254,-3.125000e-04,
255,3.125000e-04,
256,-3.125000e-04,
257,0.000000e+00,
258,3.125000e-04,
259,-3.125000e-04,
260,3.125000e-04,
261,0.000000e+00,
262,0.000000e+00,
263,0.000000e+00,
264,3.125000e-04,
265,3.125000e-04,
266,3.125000e-04,
267,3.125000e-04,
268,0.000000e+00,
269,3.125000e-04,
270,3.125000e-04,
271,0.000000e+00,
272,0.000000e+00,
273,-3.125000e-04,
274,0.000000e+00,
275,0.000000e+00,
276,3.125000e-04,
277,0.000000e+00,
278,6.250000e-04,
279,3.125000e-04,
280,0.000000e+00,
281,0.000000e+00,
282,-3.125000e-04,
283,3.125000e-04,
284,6.250000e-04,
285,-3.125000e-04,
286,3.125000e-04,
287,3.125000e-04,
288,0.000000e+00,
289,0.000000e+00,
290,0.000000e+00,
291,0.000000e+00,
292,0.000000e+00,
293,0.000000e+00,
294,3.125000e-04,
295,0.000000e+00,
296,0.000000e+00,
297,0.000000e+00,
298,3.125000e-04,
299,-3.125000e-04,
300,3.125000e-04,
301,3.125000e-04,
302,0.000000e+00,
303,-3.125000e-04,
304,0.000000e+00,
305,0.000000e+00,
306,-3.125000e-04,
307,6.250000e-04,
308,3.125000e-04,
309,0.000000e+00,
310,0.000000e+00,
311,0.000000e+00,
312,-3.125000e-04,
313,-3.125000e-04,
314,3.125000e-04,
315,3.125000e-04,
316,3.125000e-04,
317,0.000000e+00,
318,6.250000e-04,
319,-3.125000e-04,
320,3.125000e-04,
321,6.250000e-04,
322,3.125000e-04,
323,0.000000e+00,
324,3.125000e-04,
325,-3.125000e-04,
326,0.000000e+00,
327,3.125000e-04,
328,0.000000e+00,
329,-3.125000e-04,
330,-3.125000e-04,
331,0.000000e+00,
332,3.125000e-04,
333,0.000000e+00,
334,0.000000e+00,
335,3.125000e-04,
336,-3.125000e-04,
337,3.125000e-04,
338,3.125000e-04,
339,0.000000e+00,
340,0.000000e+00,
341,0.000000e+00,
342,6.250000e-04,
343,3.125000e-04,
344,3.125000e-04,
345,3.125000e-04,
346,0.000000e+00,
347,-3.125000e-04,
348,-3.125000e-04,
349,3.125000e-04,
350,0.000000e+00,
351,-3.125000e-04,
352,0.000000e+00,
353,0.000000e+00,
354,0.000000e+00,
355,3.125000e-04,
356,0.000000e+00,
357,3.125000e-04,
358,3.125000e-04,
359,-3.125000e-04,
360,3.125000e-04,
361,3.125000e-04,
362,0.000000e+00,
363,-3.125000e-04,
364,0.000000e+00,
365,0.000000e+00,
366,3.125000e-04,
367,0.000000e+00,
368,3.125000e-04,
369,3.125000e-04,
370,3.125000e-04,
371,0.000000e+00,
372,0.000000e+00,
373,-3.125000e-04,
374,3.125000e-04,
375,-3.125000e-04,
376,3.125000e-04,
377,-9.375000e-04,
378,0.000000e+00,
379,0.000000e+00,
380,0.000000e+00,
381,-3.125000e-04,
382,-3.125000e-04,
383,3.125000e-04,
384,0.000000e+00,
385,3.125000e-04,
386,0.000000e+00,
387,3.125000e-04,
388,3.125000e-04,
389,3.125000e-04,
390,-3.125000e-04,
391,3.125000e-04,
392,0.000000e+00,
393,-3.125000e-04,
394,0.000000e+00,
395,3.125000e-04,
396,6.250000e-04,
397,-3.125000e-04,
398,0.000000e+00,
399,-3.125000e-04,
400,6.250000e-04,
401,6.250000e-04,
402,3.125000e-04,
403,0.000000e+00,
404,-3.125000e-04,
405,3.125000e-04,
406,6.250000e-04,
407,0.000000e+00,
408,3.125000e-04,
409,0.000000e+00,
410,-3.125000e-04,
411,0.000000e+00,
412,0.000000e+00,
413,0.000000e+00,
414,3.125000e-04,
415,0.000000e+00,
416,3.125000e-04,
417,3.125000e-04,
418,3.125000e-04,
419,6.250000e-04,
420,0.000000e+00,
421,0.000000e+00,
422,-3.125000e-04,
423,3.125000e-04,
424,3.125000e-04,
425,0.000000e+00,
426,0.000000e+00,
427,-3.125000e-04,
428,-3.125000e-04,
429,6.250000e-04,
430,3.125000e-04,
431,0.000000e+00,
432,3.125000e-04,
433,0.000000e+00,
434,0.000000e+00,
435,0.000000e+00,
436,-3.125000e-04,
437,0.000000e+00,
438,6.250000e-04,
439,0.000000e+00,
440,-3.125000e-04,
441,0.000000e+00,
442,0.000000e+00,
443,0.000000e+00,
444,3.125000e-04,
445,0.000000e+00,
446,3.125000e-04,
447,3.125000e-04,
448,6.250000e-04,
449,3.125000e-04,
450,3.125000e-04,
451,0.000000e+00,
452,0.000000e+00,
453,0.000000e+00,
454,0.000000e+00,
455,6.250000e-04,
456,6.250000e-04,
457,3.125000e-04,
458,0.000000e+00,
459,0.000000e+00,
460,-3.125000e-04,
461,0.000000e+00,
462,-6.250000e-04,
463,3.125000e-04,
464,0.000000e+00,
465,6.250000e-04,
466,0.000000e+00,
467,-3.125000e-04,
468,3.125000e-04,
469,3.125000e-04,
470,3.125000e-04,
471,6.250000e-04,
472,0.000000e+00,
473,0.000000e+00,
474,0.000000e+00,
475,-3.125000e-04,
476,0.000000e+00,
477,3.125000e-04,
478,6.250000e-04,
479,3.125000e-04,
480,3.125000e-04,
481,3.125000e-04,
482,0.000000e+00,
483,6.250000e-04,
484,3.125000e-04,
485,3.125000e-04,
486,3.125000e-04,
487,0.000000e+00,
488,3.125000e-04,
489,3.125000e-04,
490,3.125000e-04,
491,0.000000e+00,
492,0.000000e+00,
493,6.250000e-04,
494,0.000000e+00,
495,3.125000e-04,
496,6.250000e-04,
497,0.000000e+00,
498,0.000000e+00,
499,0.000000e+00,
500,0.000000e+00,
501,3.125000e-04,
502,6.250000e-04,
503,0.000000e+00,
504,3.125000e-04,
505,0.000000e+00,
506,3.125000e-04,
507,0.000000e+00,
508,3.125000e-04,
509,-3.125000e-04,
510,3.125000e-04,
511,0.000000e+00,
512,3.125000e-04,
513,3.125000e-04,
514,-3.125000e-04,
515,6.250000e-04,
516,-3.125000e-04,
517,3.125000e-04,
518,6.250000e-04,
519,3.125000e-04,
520,0.000000e+00,
521,0.000000e+00,
522,0.000000e+00,
523,0.000000e+00,
524,0.000000e+00,
525,3.125000e-04,
526,3.125000e-04,
527,3.125000e-04,
528,6.250000e-04,
529,0.000000e+00,
530,-3.125000e-04,
531,-3.125000e-04,
532,3.125000e-04,
533,0.000000e+00,
534,-3.125000e-04,
535,3.125000e-04,
536,0.000000e+00,
537,3.125000e-04,
538,0.000000e+00,
539,0.000000e+00,
540,0.000000e+00,
541,0.000000e+00,
542,3.125000e-04,
543,0.000000e+00,
544,0.000000e+00,
545,0.000000e+00,
546,0.000000e+00,
547,3.125000e-04,
548,3.125000e-04,
549,0.000000e+00,
550,3.125000e-04,
551,-3.125000e-04,
552,-3.125000e-04,
553,0.000000e+00,
554,3.125000e-04,
555,0.000000e+00,
556,6.250000e-04,
557,3.125000e-04,
558,6.250000e-04,
559,3.125000e-04,
560,0.000000e+00,
561,-3.125000e-04,
562,-3.125000e-04,
563,-3.125000e-04,
564,0.000000e+00,
565,3.125000e-04,
566,3.125000e-04,
567,3.125000e-04,
568,3.125000e-04,
569,3.125000e-04,
570,6.250000e-04,
571,6.250000e-04,
572,3.125000e-04,
573,3.125000e-04,
574,6.250000e-04,
575,-3.125000e-04,
576,0.000000e+00,
577,0.000000e+00,
578,-3.125000e-04,
579,0.000000e+00,
580,0.000000e+00,
581,0.000000e+00,
582,0.000000e+00,
583,3.125000e-04,
584,3.125000e-04,
585,3.125000e-04,
586,-3.125000e-04,
587,0.000000e+00,
588,0.000000e+00,
589,-3.125000e-04,
590,0.000000e+00,
591,0.000000e+00,
592,3.125000e-04,
593,3.125000e-04,
594,0.000000e+00,
595,3.125000e-04,
596,3.125000e-04,
597,0.000000e+00,
598,0.000000e+00,
599,0.000000e+00,
600,3.125000e-04,
601,-3.125000e-04,
602,3.125000e-04,
603,0.000000e+00,
604,6.250000e-04,
605,0.000000e+00,
606,0.000000e+00,
607,-3.125000e-04,
608,6.250000e-04,
609,0.000000e+00,
610,0.000000e+00,
611,3.125000e-04,
612,6.250000e-04,
613,0.000000e+00,
614,6.250000e-04,
615,3.125000e-04,
616,0.000000e+00,
617,0.000000e+00,
618,3.125000e-04,
619,0.000000e+00,
620,0.000000e+00,
621,3.125000e-04,
622,3.125000e-04,
623,3.125000e-04,
624,0.000000e+00,
625,6.250000e-04,
626,3.125000e-04,
627,0.000000e+00,
628,0.000000e+00,
629,3.125000e-04,
630,6.250000e-04,
631,3.125000e-04,
632,0.000000e+00,
633,3.125000e-04,
634,-3.125000e-04,
635,0.000000e+00,
636,3.125000e-04,
637,-3.125000e-04,
638,0.000000e+00,
639,3.125000e-04,
640,3.125000e-04,
641,-3.125000e-04,
642,0.000000e+00,
643,-3.125000e-04,
644,3.125000e-04,
645,3.125000e-04,
646,3.125000e-04,
647,3.125000e-04,
648,0.000000e+00,
649,0.000000e+00,
650,-3.125000e-04,
651,-3.125000e-04,
652,0.000000e+00,
653,3.125000e-04,
654,0.000000e+00,
655,3.125000e-04,
656,0.000000e+00,
657,3.125000e-04,
658,3.125000e-04,
659,0.000000e+00,
660,0.000000e+00,
661,6.250000e-04,
662,0.000000e+00,
663,3.125000e-04,
664,0.000000e+00,
665,-3.125000e-04,
666,-3.125000e-04,
667,0.000000e+00,
668,0.000000e+00,
669,0.000000e+00,
670,0.000000e+00,
671,0.000000e+00,
672,3.125000e-04,
673,3.125000e-04,
674,0.000000e+00,
675,3.125000e-04,
676,0.000000e+00,
677,3.125000e-04,
678,0.000000e+00,
679,3.125000e-04,
680,0.000000e+00,
681,-3.125000e-04,
682,3.125000e-04,
683,0.000000e+00,
684,3.125000e-04,
685,-6.250000e-04,
686,6.250000e-04,
687,3.125000e-04,
688,-6.250000e-04,
689,-3.125000e-04,
690,-3.125000e-04,
691,3.125000e-04,
692,3.125000e-04,
693,-3.125000e-04,
694,0.000000e+00,
695,0.000000e+00,
696,0.000000e+00,
697,3.125000e-04,
698,0.000000e+00,
699,-3.125000e-04,
700,0.000000e+00,
701,-3.125000e-04,
702,0.000000e+00,
703,3.125000e-04,
704,0.000000e+00,
705,0.000000e+00,
706,0.000000e+00,
707,6.250000e-04,
708,0.000000e+00,
709,0.000000e+00,
710,0.000000e+00,
711,-3.125000e-04,
712,-3.125000e-04,
713,3.125000e-04,
714,-3.125000e-04,
715,0.000000e+00,
716,3.125000e-04,
717,0.000000e+00,
718,3.125000e-04,
719,3.125000e-04,
720,0.000000e+00,
721,6.250000e-04,
722,0.000000e+00,
723,3.125000e-04,
724,6.250000e-04,
725,0.000000e+00,
726,6.250000e-04,
727,3.125000e-04,
728,-3.125000e-04,
729,0.000000e+00,
730,3.125000e-04,
731,3.125000e-04,
732,-3.125000e-04,
733,-3.125000e-04,
734,0.000000e+00,
735,3.125000e-04,
736,3.125000e-04,
737,0.000000e+00,
738,0.000000e+00,
739,0.000000e+00,
740,0.000000e+00,
741,0.000000e+00,
742,0.000000e+00,
743,6.250000e-04,
744,6.250000e-04,
745,0.000000e+00,
746,0.000000e+00,
747,0.000000e+00,
748,0.000000e+00,
749,3.125000e-04,
750,-3.125000e-04,
751,6.250000e-04,
752,3.125000e-04,
753,0.000000e+00,
754,0.000000e+00,
755,6.250000e-04,
756,-3.125000e-04,
757,0.000000e+00,
758,0.000000e+00,
759,0.000000e+00,
760,0.000000e+00,
761,-3.125000e-04,
762,3.125000e-04,
763,0.000000e+00,
764,0.000000e+00,
765,0.000000e+00,
766,0.000000e+00,
767,-3.125000e-04,
768,3.125000e-04,
769,3.125000e-04,
770,0.000000e+00,
771,0.000000e+00,
772,3.125000e-04,
773,3.125000e-04,
774,6.250000e-04,
775,0.000000e+00,
776,0.000000e+00,
777,0.000000e+00,
778,6.250000e-04,
779,3.125000e-04,
780,6.250000e-04,
781,3.125000e-04,
782,0.000000e+00,
783,0.000000e+00,
784,0.000000e+00,
785,3.125000e-04,
786,-3.125000e-04,
787,-3.125000e-04,
788,3.125000e-04,
789,3.125000e-04,
790,0.000000e+00,
791,3.125000e-04,
792,3.125000e-04,
793,-3.125000e-04,
794,0.000000e+00,
795,0.000000e+00,
796,0.000000e+00,
797,3.125000e-04,
798,0.000000e+00,
799,-3.125000e-04,
800,6.250000e-04,
801,3.125000e-04,
802,-6.250000e-04,
803,0.000000e+00,
804,0.000000e+00,
805,0.000000e+00,
806,0.000000e+00,
807,3.125000e-04,
808,3.125000e-04,
809,3.125000e-04,
810,6.250000e-04,
811,3.125000e-04,
812,0.000000e+00,
813,-6.250000e-04,
814,6.250000e-04,
815,0.000000e+00,
816,0.000000e+00,
817,6.250000e-04,
818,3.125000e-04,
819,0.000000e+00,
820,-3.125000e-04,
821,3.125000e-04,
822,-3.125000e-04,
823,0.000000e+00,
824,3.125000e-04,
825,3.125000e-04,
826,3.125000e-04,
827,3.125000e-04,
828,3.125000e-04,
829,3.125000e-04,
830,0.000000e+00,
831,0.000000e+00,
832,-3.125000e-04,
833,0.000000e+00,
834,3.125000e-04,
835,0.000000e+00,
836,3.125000e-04,
837,0.000000e+00,
838,3.125000e-04,
839,3.125000e-04,
840,6.250000e-04,
841,3.125000e-04,
842,0.000000e+00,
843,0.000000e+00,
844,6.250000e-04,
845,0.000000e+00,
846,3.125000e-04,
847,3.125000e-04,
848,0.000000e+00,
849,3.125000e-04,
850,0.000000e+00,
851,0.000000e+00,
852,6.250000e-04,
853,3.125000e-04,
854,3.125000e-04,
855,0.000000e+00,
856,3.125000e-04,
857,0.000000e+00,
858,3.125000e-04,
859,0.000000e+00,
860,0.000000e+00,
861,3.125000e-04,
862,3.125000e-04,
863,3.125000e-04,
864,0.000000e+00,
865,3.125000e-04,
866,-3.125000e-04,
867,3.125000e-04,
868,3.125000e-04,
869,0.000000e+00,
870,6.250000e-04,
871,0.000000e+00,
872,3.125000e-04,
873,3.125000e-04,
874,0.000000e+00,
875,6.250000e-04,
876,0.000000e+00,
877,6.250000e-04,
878,0.000000e+00,
879,3.125000e-04,
880,6.250000e-04,
881,3.125000e-04,
882,6.250000e-04,
883,6.250000e-04,
884,0.000000e+00,
885,-3.125000e-04,
886,3.125000e-04,
887,0.000000e+00,
888,3.125000e-04,
889,6.250000e-04,
890,-3.125000e-04,
891,3.125000e-04,
892,3.125000e-04,
893,3.125000e-04,
894,-3.125000e-04,
895,3.125000e-04,
896,6.250000e-04,
897,3.125000e-04,
898,3.125000e-04,
899,3.125000e-04,
900,3.125000e-04,
901,0.000000e+00,
902,0.000000e+00,
903,-3.125000e-04,
904,0.000000e+00,
905,0.000000e+00,
906,0.000000e+00,
907,0.000000e+00,
908,3.125000e-04,
909,3.125000e-04,
910,0.000000e+00,
911,-3.125000e-04,
912,3.125000e-04,
913,3.125000e-04,
914,3.125000e-04,
915,6.250000e-04,
916,3.125000e-04,
917,-3.125000e-04,
918,3.125000e-04,
919,6.250000e-04,
920,3.125000e-04,
921,1.250000e-03,
922,3.125000e-04,
923,6.250000e-04,
924,0.000000e+00,
925,6.250000e-04,
926,-3.125000e-04,
927,0.000000e+00,
928,0.000000e+00,
929,3.125000e-04,
930,-3.125000e-04,
931,0.000000e+00,
932,3.125000e-04,
933,0.000000e+00,
934,0.000000e+00,
935,0.000000e+00,
936,6.250000e-04,
937,0.000000e+00,
938,3.125000e-04,
939,3.125000e-04,
940,3.125000e-04,
941,3.125000e-04,
942,3.125000e-04,
943,0.000000e+00,
944,3.125000e-04,
945,6.250000e-04,
946,6.250000e-04,
947,0.000000e+00,
948,3.125000e-04,
949,3.125000e-04,
950,0.000000e+00,
951,0.000000e+00,
952,0.000000e+00,
953,0.000000e+00,
954,3.125000e-04,
955,0.000000e+00,
956,0.000000e+00,
957,3.125000e-04,
958,-3.125000e-04,
959,0.000000e+00,
960,0.000000e+00,
961,6.250000e-04,
962,0.000000e+00,
963,-3.125000e-04,
964,0.000000e+00,
965,0.000000e+00,
966,0.000000e+00,
967,6.250000e-04,
968,9.375000e-04,
969,3.125000e-04,
970,6.250000e-04,
971,3.125000e-04,
972,3.125000e-04,
973,3.125000e-04,
974,3.125000e-04,
975,-3.125000e-04,
976,6.250000e-04,
977,0.000000e+00,
978,3.125000e-04,
979,0.000000e+00,
980,3.125000e-04,
981,0.000000e+00,
982,3.125000e-04,
983,3.125000e-04,
984,-3.125000e-04,
985,0.000000e+00,
986,3.125000e-04,
987,0.000000e+00,
988,3.125000e-04,
989,0.000000e+00,
990,3.125000e-04,
991,3.125000e-04,
992,0.000000e+00,
993,3.125000e-04,
994,0.000000e+00,
995,0.000000e+00,
996,0.000000e+00,
997,3.125000e-04,
998,3.125000e-04,
999,-3.125000e-04,
1000,3.125000e-04,
1001,3.125000e-04,
1002,6.250000e-04,
1003,0.000000e+00,
1004,0.000000e+00,
1005,0.000000e+00,
1006,3.125000e-04,
1007,6.250000e-04,
1008,0.000000e+00,
1009,3.125000e-04,
1010,0.000000e+00,
1011,6.250000e-04,
1012,3.125000e-04,
1013,3.125000e-04,
1014,0.000000e+00,
1015,9.375000e-04,
1016,3.125000e-04,
1017,3.125000e-04,
1018,3.125000e-04,
1019,0.000000e+00,
1020,3.125000e-04,
1021,0.000000e+00,
1022,0.000000e+00,
1023,3.125000e-04,
1024,3.125000e-04,
1025,-3.125000e-04,
1026,-3.125000e-04,
1027,3.125000e-04,
1028,0.000000e+00,
1029,-3.125000e-04,
1030,-3.125000e-04,
1031,6.250000e-04,
1032,6.250000e-04,
1033,-3.125000e-04,
1034,3.125000e-04,
1035,3.125000e-04,
1036,-3.125000e-04,
1037,6.250000e-04,
1038,6.250000e-04,
1039,0.000000e+00,
1040,0.000000e+00,
1041,3.125000e-04,
1042,0.000000e+00,
1043,0.000000e+00,
1044,3.125000e-04,
1045,0.000000e+00,
1046,6.250000e-04,
1047,0.000000e+00,
1048,0.000000e+00,
1049,3.125000e-04,
1050,0.000000e+00,
1051,0.000000e+00,
1052,3.125000e-04,
1053,0.000000e+00,
1054,6.250000e-04,
1055,0.000000e+00,
1056,3.125000e-04,
1057,3.125000e-04,
1058,0.000000e+00,
1059,3.125000e-04,
1060,3.125000e-04,
1061,6.250000e-04,
1062,6.250000e-04,
1063,0.000000e+00,
1064,0.000000e+00,
1065,0.000000e+00,
1066,3.125000e-04,
1067,0.000000e+00,
1068,3.125000e-04,
1069,0.000000e+00,
1070,0.000000e+00,
1071,3.125000e-04,
1072,0.000000e+00,
1073,0.000000e+00,
1074,6.250000e-04,
1075,0.000000e+00,
1076,3.125000e-04,
1077,3.125000e-04,
1078,0.000000e+00,
1079,-3.125000e-04,
1080,3.125000e-04,
1081,3.125000e-04,
1082,0.000000e+00,
1083,0.000000e+00,
1084,-3.125000e-04,
1085,3.125000e-04,
1086,3.125000e-04,
1087,6.250000e-04,
1088,0.000000e+00,
1089,6.250000e-04,
1090,0.000000e+00,
1091,0.000000e+00,
1092,0.000000e+00,
1093,3.125000e-04,
1094,-3.125000e-04,
1095,0.000000e+00,
1096,3.125000e-04,
1097,-3.125000e-04,
1098,0.000000e+00,
