laser_day1/2024-03-08 F(t) Al target 2 (multishots)/Newfile25_CH4.csv

X,CH4,Start,Increment,
Sequence,Volt,-5.999999e-04,2.000000e-07,
0,0.000000e+00,
1,3.125000e-04,
2,3.125000e-04,
3,0.000000e+00,
4,-3.125000e-04,
5,3.125000e-04,
6,6.250000e-04,
7,0.000000e+00,
8,-6.250000e-04,
9,-3.125000e-04,
10,6.250000e-04,
11,0.000000e+00,
12,0.000000e+00,
13,3.125000e-04,
14,0.000000e+00,
15,0.000000e+00,
16,3.125000e-04,
17,0.000000e+00,
18,3.125000e-04,
19,3.125000e-04,
20,3.125000e-04,
21,3.125000e-04,
22,3.125000e-04,
23,0.000000e+00,
24,0.000000e+00,
25,3.125000e-04,
26,6.250000e-04,
27,0.000000e+00,
28,6.250000e-04,
29,0.000000e+00,
30,-3.125000e-04,
31,0.000000e+00,
32,-3.125000e-04,
33,-3.125000e-04,
34,3.125000e-04,
35,0.000000e+00,
36,6.250000e-04,
37,0.000000e+00,
38,3.125000e-04,
39,0.000000e+00,
40,0.000000e+00,
41,3.125000e-04,
42,3.125000e-04,
43,3.125000e-04,
44,3.125000e-04,
45,0.000000e+00,
46,0.000000e+00,
47,0.000000e+00,
48,0.000000e+00,
49,-3.125000e-04,
50,0.000000e+00,
51,0.000000e+00,
52,0.000000e+00,
53,0.000000e+00,
54,0.000000e+00,
55,3.125000e-04,
56,0.000000e+00,
57,0.000000e+00,
58,0.000000e+00,
59,6.250000e-04,
60,-3.125000e-04,
61,0.000000e+00,
62,0.000000e+00,
63,6.250000e-04,
64,3.125000e-04,
65,3.125000e-04,
66,3.125000e-04,
67,3.125000e-04,
68,0.000000e+00,
69,6.250000e-04,
70,3.125000e-04,
71,-3.125000e-04,
72,0.000000e+00,
73,-3.125000e-04,
74,-3.125000e-04,
75,3.125000e-04,
76,0.000000e+00,
77,0.000000e+00,
78,6.250000e-04,
79,3.125000e-04,
80,0.000000e+00,
81,6.250000e-04,
82,0.000000e+00,
83,3.125000e-04,
84,3.125000e-04,
85,3.125000e-04,
86,3.125000e-04,
87,-3.125000e-04,
88,0.000000e+00,
89,3.125000e-04,
90,-3.125000e-04,
91,-3.125000e-04,
92,0.000000e+00,
93,0.000000e+00,
94,0.000000e+00,
95,0.000000e+00,
96,3.125000e-04,
97,0.000000e+00,
98,0.000000e+00,
99,3.125000e-04,
100,0.000000e+00,
101,3.125000e-04,
102,0.000000e+00,
103,3.125000e-04,
104,-6.250000e-04,
105,3.125000e-04,
106,3.125000e-04,
107,0.000000e+00,
108,-9.375000e-04,
109,6.250000e-04,
110,0.000000e+00,
111,3.125000e-04,
112,0.000000e+00,
113,-3.125000e-04,
114,0.000000e+00,
115,3.125000e-04,
116,3.125000e-04,
117,3.125000e-04,
118,6.250000e-04,
119,3.125000e-04,
120,6.250000e-04,
121,0.000000e+00,
122,3.125000e-04,
123,3.125000e-04,
124,3.125000e-04,
125,0.000000e+00,
126,0.000000e+00,
127,-3.125000e-04,
128,3.125000e-04,
129,3.125000e-04,
130,0.000000e+00,
131,6.250000e-04,
132,0.000000e+00,
133,0.000000e+00,
134,0.000000e+00,
135,3.125000e-04,
136,0.000000e+00,
137,3.125000e-04,
138,0.000000e+00,
139,3.125000e-04,
140,0.000000e+00,
141,-3.125000e-04,
142,3.125000e-04,
143,3.125000e-04,
144,3.125000e-04,
145,3.125000e-04,
146,3.125000e-04,
147,0.000000e+00,
148,0.000000e+00,
149,3.125000e-04,
150,3.125000e-04,
151,0.000000e+00,
152,6.250000e-04,
153,3.125000e-04,
154,-3.125000e-04,
155,-3.125000e-04,
156,0.000000e+00,
157,0.000000e+00,
158,-3.125000e-04,
159,6.250000e-04,
160,0.000000e+00,
161,-3.125000e-04,
162,3.125000e-04,
163,-3.125000e-04,
164,0.000000e+00,
165,3.125000e-04,
166,0.000000e+00,
167,3.125000e-04,
168,3.125000e-04,
169,0.000000e+00,
170,0.000000e+00,
171,3.125000e-04,
172,3.125000e-04,
173,9.375000e-04,
174,3.125000e-04,
175,0.000000e+00,
176,0.000000e+00,
177,0.000000e+00,
178,0.000000e+00,
179,0.000000e+00,
180,0.000000e+00,
181,0.000000e+00,
182,3.125000e-04,
183,-3.125000e-04,
184,3.125000e-04,
185,-3.125000e-04,
186,0.000000e+00,
187,-3.125000e-04,
188,0.000000e+00,
189,3.125000e-04,
190,0.000000e+00,
191,-3.125000e-04,
192,3.125000e-04,
193,0.000000e+00,
194,0.000000e+00,
195,0.000000e+00,
196,0.000000e+00,
197,3.125000e-04,
198,-3.125000e-04,
199,3.125000e-04,
200,3.125000e-04,
201,0.000000e+00,
202,0.000000e+00,
203,0.000000e+00,
204,0.000000e+00,
205,6.250000e-04,
206,0.000000e+00,
207,-3.125000e-04,
208,0.000000e+00,
209,0.000000e+00,
210,3.125000e-04,
211,6.250000e-04,
212,6.250000e-04,
213,3.125000e-04,
214,-3.125000e-04,
215,3.125000e-04,
216,3.125000e-04,
217,0.000000e+00,
218,3.125000e-04,
219,0.000000e+00,
220,0.000000e+00,
221,6.250000e-04,
222,0.000000e+00,
223,0.000000e+00,
224,0.000000e+00,
225,0.000000e+00,
226,3.125000e-04,
227,3.125000e-04,
228,0.000000e+00,
229,-3.125000e-04,
230,3.125000e-04,
231,3.125000e-04,
232,3.125000e-04,
233,0.000000e+00,
234,6.250000e-04,
235,-3.125000e-04,
236,-6.250000e-04,
237,0.000000e+00,
238,-3.125000e-04,
239,-6.250000e-04,
240,0.000000e+00,
241,-6.250000e-04,
242,-3.125000e-04,
243,0.000000e+00,
244,6.250000e-04,
245,0.000000e+00,
246,3.125000e-04,
247,-6.250000e-04,
248,3.125000e-04,
249,3.125000e-04,
250,3.125000e-04,
251,3.125000e-04,
252,0.000000e+00,
253,0.000000e+00,
254,3.125000e-04,
255,3.125000e-04,
256,3.125000e-04,
257,6.250000e-04,
258,3.125000e-04,
259,6.250000e-04,
260,0.000000e+00,
261,3.125000e-04,
262,3.125000e-04,
263,0.000000e+00,
264,0.000000e+00,
265,0.000000e+00,
266,3.125000e-04,
267,3.125000e-04,
268,3.125000e-04,
269,3.125000e-04,
270,0.000000e+00,
271,-3.125000e-04,
272,0.000000e+00,
273,3.125000e-04,
274,3.125000e-04,
275,0.000000e+00,
276,6.250000e-04,
277,0.000000e+00,
278,3.125000e-04,
279,0.000000e+00,
280,3.125000e-04,
281,3.125000e-04,
282,0.000000e+00,
283,6.250000e-04,
284,3.125000e-04,
285,3.125000e-04,
286,-3.125000e-04,
287,3.125000e-04,
288,3.125000e-04,
289,0.000000e+00,
290,3.125000e-04,
291,3.125000e-04,
292,3.125000e-04,
293,0.000000e+00,
294,3.125000e-04,
295,-3.125000e-04,
296,3.125000e-04,
297,0.000000e+00,
298,0.000000e+00,
299,3.125000e-04,
300,0.000000e+00,
301,-3.125000e-04,
302,3.125000e-04,
303,3.125000e-04,
304,0.000000e+00,
305,3.125000e-04,
306,-6.250000e-04,
307,3.125000e-04,
308,9.375000e-04,
309,-3.125000e-04,
310,0.000000e+00,
311,3.125000e-04,
312,-3.125000e-04,
313,3.125000e-04,
314,0.000000e+00,
315,0.000000e+00,
316,3.125000e-04,
317,3.125000e-04,
318,-3.125000e-04,
319,0.000000e+00,
320,3.125000e-04,
321,0.000000e+00,
322,0.000000e+00,
323,0.000000e+00,
324,0.000000e+00,
325,0.000000e+00,
326,6.250000e-04,
327,3.125000e-04,
328,3.125000e-04,
329,0.000000e+00,
330,0.000000e+00,
331,3.125000e-04,
332,-3.125000e-04,
333,3.125000e-04,
334,-3.125000e-04,
335,0.000000e+00,
336,0.000000e+00,
337,6.250000e-04,
338,0.000000e+00,
339,3.125000e-04,
340,6.250000e-04,
341,-3.125000e-04,
342,3.125000e-04,
343,-3.125000e-04,
344,3.125000e-04,
345,3.125000e-04,
346,3.125000e-04,
347,3.125000e-04,
348,3.125000e-04,
349,3.125000e-04,
350,3.125000e-04,
351,0.000000e+00,
352,0.000000e+00,
353,3.125000e-04,
354,3.125000e-04,
355,3.125000e-04,
356,-3.125000e-04,
357,0.000000e+00,
358,-3.125000e-04,
359,1.250000e-03,
360,6.250000e-04,
361,-3.125000e-04,
362,3.125000e-04,
363,0.000000e+00,
364,0.000000e+00,
365,3.125000e-04,
366,3.125000e-04,
367,0.000000e+00,
368,3.125000e-04,
369,0.000000e+00,
370,-3.125000e-04,
371,0.000000e+00,
372,0.000000e+00,
373,3.125000e-04,
374,3.125000e-04,
375,3.125000e-04,
376,3.125000e-04,
377,3.125000e-04,
378,0.000000e+00,
379,3.125000e-04,
380,9.375000e-04,
381,0.000000e+00,
382,0.000000e+00,
383,-3.125000e-04,
384,3.125000e-04,
385,0.000000e+00,
386,3.125000e-04,
387,6.250000e-04,
388,3.125000e-04,
389,3.125000e-04,
390,6.250000e-04,
391,6.250000e-04,
392,3.125000e-04,
393,6.250000e-04,
394,6.250000e-04,
395,0.000000e+00,
396,3.125000e-04,
397,0.000000e+00,
398,3.125000e-04,
399,0.000000e+00,
400,0.000000e+00,
401,3.125000e-04,
402,3.125000e-04,
403,0.000000e+00,
404,3.125000e-04,
405,3.125000e-04,
406,3.125000e-04,
407,3.125000e-04,
408,3.125000e-04,
409,3.125000e-04,
410,0.000000e+00,
411,0.000000e+00,
412,3.125000e-04,
413,0.000000e+00,
414,3.125000e-04,
415,3.125000e-04,
416,-3.125000e-04,
417,0.000000e+00,
418,0.000000e+00,
419,0.000000e+00,
420,0.000000e+00,
421,0.000000e+00,
422,3.125000e-04,
423,6.250000e-04,
424,3.125000e-04,
425,3.125000e-04,
426,3.125000e-04,
427,3.125000e-04,
428,3.125000e-04,
429,3.125000e-04,
430,3.125000e-04,
431,3.125000e-04,
432,3.125000e-04,
433,-3.125000e-04,
434,3.125000e-04,
435,3.125000e-04,
436,0.000000e+00,
437,0.000000e+00,
438,0.000000e+00,
439,0.000000e+00,
440,0.000000e+00,
441,3.125000e-04,
442,0.000000e+00,
443,3.125000e-04,
444,3.125000e-04,
445,3.125000e-04,
446,3.125000e-04,
447,3.125000e-04,
448,3.125000e-04,
449,-3.125000e-04,
450,6.250000e-04,
451,3.125000e-04,
452,3.125000e-04,
453,0.000000e+00,
454,3.125000e-04,
455,0.000000e+00,
456,6.250000e-04,
457,0.000000e+00,
458,3.125000e-04,
459,3.125000e-04,
460,3.125000e-04,
461,6.250000e-04,
462,3.125000e-04,
463,3.125000e-04,
464,3.125000e-04,
465,0.000000e+00,
466,3.125000e-04,
467,3.125000e-04,
468,3.125000e-04,
469,3.125000e-04,
470,3.125000e-04,
471,3.125000e-04,
472,3.125000e-04,
473,6.250000e-04,
474,3.125000e-04,
475,0.000000e+00,
476,6.250000e-04,
477,0.000000e+00,
478,6.250000e-04,
479,3.125000e-04,
480,0.000000e+00,
481,-3.125000e-04,
482,3.125000e-04,
483,3.125000e-04,
484,3.125000e-04,
485,6.250000e-04,
486,0.000000e+00,
487,0.000000e+00,
488,0.000000e+00,
489,0.000000e+00,
490,0.000000e+00,
491,0.000000e+00,
492,3.125000e-04,
493,0.000000e+00,
494,0.000000e+00,
495,-3.125000e-04,
496,0.000000e+00,
497,0.000000e+00,
498,6.250000e-04,
499,0.000000e+00,
500,3.125000e-04,
501,3.125000e-04,
502,3.125000e-04,
503,3.125000e-04,
504,0.000000e+00,
505,0.000000e+00,
506,3.125000e-04,
507,0.000000e+00,
508,3.125000e-04,
509,6.250000e-04,
510,0.000000e+00,
511,3.125000e-04,
512,0.000000e+00,
513,3.125000e-04,
514,0.000000e+00,
515,3.125000e-04,
516,6.250000e-04,
517,6.250000e-04,
518,3.125000e-04,
519,6.250000e-04,
520,-6.250000e-04,
521,3.125000e-04,
522,0.000000e+00,
523,6.250000e-04,
524,3.125000e-04,
525,3.125000e-04,
526,6.250000e-04,
527,-6.250000e-04,
528,6.250000e-04,
529,0.000000e+00,
530,3.125000e-04,
531,3.125000e-04,
532,-3.125000e-04,
533,0.000000e+00,
534,3.125000e-04,
535,0.000000e+00,
536,3.125000e-04,
537,0.000000e+00,
538,0.000000e+00,
539,6.250000e-04,
540,-3.125000e-04,
541,0.000000e+00,
542,3.125000e-04,
543,3.125000e-04,
544,-3.125000e-04,
545,3.125000e-04,
546,0.000000e+00,
547,3.125000e-04,
548,3.125000e-04,
549,3.125000e-04,
550,0.000000e+00,
551,0.000000e+00,
552,6.250000e-04,
553,0.000000e+00,
554,0.000000e+00,
555,0.000000e+00,
556,0.000000e+00,
557,3.125000e-04,
558,-3.125000e-04,
559,-3.125000e-04,
560,0.000000e+00,
561,0.000000e+00,
562,3.125000e-04,
563,-3.125000e-04,
564,3.125000e-04,
565,3.125000e-04,
566,3.125000e-04,
567,0.000000e+00,
568,3.125000e-04,
569,3.125000e-04,
570,6.250000e-04,
571,3.125000e-04,
572,3.125000e-04,
573,0.000000e+00,
574,0.000000e+00,
575,3.125000e-04,
576,0.000000e+00,
577,3.125000e-04,
578,3.125000e-04,
579,3.125000e-04,
580,0.000000e+00,
581,3.125000e-04,
582,0.000000e+00,
583,3.125000e-04,
584,0.000000e+00,
585,3.125000e-04,
586,0.000000e+00,
587,0.000000e+00,
588,-6.250000e-04,
589,3.125000e-04,
590,3.125000e-04,
591,3.125000e-04,
592,3.125000e-04,
593,-3.125000e-04,
594,6.250000e-04,
595,0.000000e+00,
596,0.000000e+00,
597,3.125000e-04,
598,0.000000e+00,
599,0.000000e+00,
600,6.250000e-04,
601,3.125000e-04,
602,0.000000e+00,
603,-3.125000e-04,
604,-3.125000e-04,
605,0.000000e+00,
606,3.125000e-04,
607,0.000000e+00,
608,3.125000e-04,
609,3.125000e-04,
610,-3.125000e-04,
611,3.125000e-04,
612,6.250000e-04,
613,0.000000e+00,
614,3.125000e-04,
615,6.250000e-04,
616,0.000000e+00,
617,3.125000e-04,
618,3.125000e-04,
619,0.000000e+00,
620,6.250000e-04,
621,0.000000e+00,
622,0.000000e+00,
623,0.000000e+00,
624,0.000000e+00,
625,6.250000e-04,
626,3.125000e-04,
627,0.000000e+00,
628,0.000000e+00,
629,3.125000e-04,
630,3.125000e-04,
631,0.000000e+00,
632,3.125000e-04,
633,3.125000e-04,
634,6.250000e-04,
635,3.125000e-04,
636,-3.125000e-04,
637,9.375000e-04,
638,0.000000e+00,
639,6.250000e-04,
640,0.000000e+00,
641,0.000000e+00,
642,3.125000e-04,
643,0.000000e+00,
644,0.000000e+00,
645,3.125000e-04,
646,0.000000e+00,
647,0.000000e+00,
648,3.125000e-04,
649,6.250000e-04,
650,0.000000e+00,
651,6.250000e-04,
652,3.125000e-04,
653,0.000000e+00,
654,6.250000e-04,
655,-3.125000e-04,
656,3.125000e-04,
657,0.000000e+00,
658,0.000000e+00,
659,0.000000e+00,
660,3.125000e-04,
661,-3.125000e-04,
662,6.250000e-04,
663,3.125000e-04,
664,3.125000e-04,
665,0.000000e+00,
666,3.125000e-04,
667,0.000000e+00,
668,3.125000e-04,
669,3.125000e-04,
670,0.000000e+00,
671,0.000000e+00,
672,6.250000e-04,
673,0.000000e+00,
674,3.125000e-04,
675,0.000000e+00,
676,0.000000e+00,
677,0.000000e+00,
678,3.125000e-04,
679,0.000000e+00,
680,6.250000e-04,
681,0.000000e+00,
682,3.125000e-04,
683,3.125000e-04,
684,0.000000e+00,
685,3.125000e-04,
686,3.125000e-04,
687,0.000000e+00,
688,3.125000e-04,
689,3.125000e-04,
690,0.000000e+00,
691,3.125000e-04,
692,3.125000e-04,
693,6.250000e-04,
694,3.125000e-04,
695,3.125000e-04,
696,0.000000e+00,
697,3.125000e-04,
698,0.000000e+00,
699,0.000000e+00,
700,6.250000e-04,
701,-3.125000e-04,
702,0.000000e+00,
703,3.125000e-04,
704,3.125000e-04,
705,0.000000e+00,
706,0.000000e+00,
707,3.125000e-04,
708,-3.125000e-04,
709,0.000000e+00,
710,3.125000e-04,
711,0.000000e+00,
712,3.125000e-04,
713,-3.125000e-04,
714,-3.125000e-04,
715,3.125000e-04,
716,3.125000e-04,
717,3.125000e-04,
718,-3.125000e-04,
719,3.125000e-04,
720,-3.125000e-04,
721,-3.125000e-04,
722,3.125000e-04,
723,0.000000e+00,
724,0.000000e+00,
725,6.250000e-04,
726,0.000000e+00,
727,6.250000e-04,
728,3.125000e-04,
729,3.125000e-04,
730,0.000000e+00,
731,3.125000e-04,
732,3.125000e-04,
733,0.000000e+00,
734,0.000000e+00,
735,3.125000e-04,
736,3.125000e-04,
737,3.125000e-04,
738,6.250000e-04,
739,0.000000e+00,
740,3.125000e-04,
741,0.000000e+00,
742,0.000000e+00,
743,0.000000e+00,
744,0.000000e+00,
745,3.125000e-04,
746,0.000000e+00,
747,3.125000e-04,
748,0.000000e+00,
749,3.125000e-04,
750,6.250000e-04,
751,3.125000e-04,
752,3.125000e-04,
753,3.125000e-04,
754,3.125000e-04,
755,0.000000e+00,
756,3.125000e-04,
757,0.000000e+00,
758,0.000000e+00,
759,-3.125000e-04,
760,3.125000e-04,
761,0.000000e+00,
762,3.125000e-04,
763,0.000000e+00,
764,0.000000e+00,
765,3.125000e-04,
766,-3.125000e-04,
767,3.125000e-04,
768,-6.250000e-04,
769,3.125000e-04,
770,0.000000e+00,
771,-3.125000e-04,
772,3.125000e-04,
773,6.250000e-04,
774,0.000000e+00,
775,0.000000e+00,
776,0.000000e+00,
777,3.125000e-04,
778,0.000000e+00,
779,-3.125000e-04,
780,3.125000e-04,
781,3.125000e-04,
782,0.000000e+00,
783,3.125000e-04,
784,0.000000e+00,
785,6.250000e-04,
786,3.125000e-04,
787,3.125000e-04,
788,0.000000e+00,
789,3.125000e-04,
790,0.000000e+00,
791,9.375000e-04,
792,0.000000e+00,
793,-3.125000e-04,
794,3.125000e-04,
795,3.125000e-04,
796,6.250000e-04,
797,0.000000e+00,
798,-3.125000e-04,
799,3.125000e-04,
800,-3.125000e-04,
801,0.000000e+00,
802,3.125000e-04,
803,3.125000e-04,
804,-3.125000e-04,
805,3.125000e-04,
806,6.250000e-04,
807,3.125000e-04,
808,3.125000e-04,
809,0.000000e+00,
810,0.000000e+00,
811,3.125000e-04,
812,0.000000e+00,
813,-3.125000e-04,
814,9.375000e-04,
815,0.000000e+00,
816,3.125000e-04,
817,3.125000e-04,
818,6.250000e-04,
819,3.125000e-04,
820,0.000000e+00,
821,0.000000e+00,
822,0.000000e+00,
823,0.000000e+00,
824,6.250000e-04,
825,6.250000e-04,
826,3.125000e-04,
827,3.125000e-04,
828,0.000000e+00,
829,-3.125000e-04,
830,3.125000e-04,
831,3.125000e-04,
832,0.000000e+00,
833,3.125000e-04,
834,0.000000e+00,
835,0.000000e+00,
836,3.125000e-04,
837,-3.125000e-04,
838,3.125000e-04,
839,6.250000e-04,
840,6.250000e-04,
841,0.000000e+00,
842,0.000000e+00,
843,0.000000e+00,
844,0.000000e+00,
845,0.000000e+00,
846,6.250000e-04,
847,-3.125000e-04,
848,0.000000e+00,
849,-3.125000e-04,
850,3.125000e-04,
851,-6.250000e-04,
852,0.000000e+00,
853,-3.125000e-04,
854,0.000000e+00,
855,3.125000e-04,
856,-3.125000e-04,
857,0.000000e+00,
858,0.000000e+00,
859,-3.125000e-04,
860,0.000000e+00,
861,6.250000e-04,
862,3.125000e-04,
863,0.000000e+00,
864,0.000000e+00,
865,0.000000e+00,
866,-3.125000e-04,
867,0.000000e+00,
868,0.000000e+00,
869,3.125000e-04,
870,0.000000e+00,
871,3.125000e-04,
872,3.125000e-04,
873,3.125000e-04,
874,-3.125000e-04,
875,6.250000e-04,
876,3.125000e-04,
877,3.125000e-04,
878,-3.125000e-04,
879,0.000000e+00,
880,3.125000e-04,
881,3.125000e-04,
882,3.125000e-04,
883,0.000000e+00,
884,6.250000e-04,
885,6.250000e-04,
886,0.000000e+00,
887,3.125000e-04,
888,-3.125000e-04,
889,0.000000e+00,
890,0.000000e+00,
891,0.000000e+00,
892,0.000000e+00,
893,0.000000e+00,
894,0.000000e+00,
895,3.125000e-04,
896,3.125000e-04,
897,3.125000e-04,
898,-3.125000e-04,
899,-3.125000e-04,
900,3.125000e-04,
901,0.000000e+00,
902,0.000000e+00,
903,6.250000e-04,
904,-3.125000e-04,
905,3.125000e-04,
906,3.125000e-04,
907,9.375000e-04,
908,0.000000e+00,
909,6.250000e-04,
910,0.000000e+00,
911,0.000000e+00,
912,3.125000e-04,
913,6.250000e-04,
914,0.000000e+00,
915,3.125000e-04,
916,6.250000e-04,
917,-3.125000e-04,
918,3.125000e-04,
919,0.000000e+00,
920,3.125000e-04,
921,0.000000e+00,
922,-3.125000e-04,
923,3.125000e-04,
924,0.000000e+00,
925,0.000000e+00,
926,3.125000e-04,
927,-3.125000e-04,
928,0.000000e+00,
929,-3.125000e-04,
930,6.250000e-04,
931,3.125000e-04,
932,0.000000e+00,
933,0.000000e+00,
934,3.125000e-04,
935,3.125000e-04,
936,0.000000e+00,
937,3.125000e-04,
938,3.125000e-04,
939,0.000000e+00,
940,3.125000e-04,
941,0.000000e+00,
942,3.125000e-04,
943,3.125000e-04,
944,3.125000e-04,
945,0.000000e+00,
946,3.125000e-04,
947,3.125000e-04,
948,0.000000e+00,
949,9.375000e-04,
950,0.000000e+00,
951,0.000000e+00,
952,-3.125000e-04,
953,-3.125000e-04,
954,3.125000e-04,
955,-3.125000e-04,
956,0.000000e+00,
957,6.250000e-04,
958,0.000000e+00,
959,-6.250000e-04,
960,3.125000e-04,
961,6.250000e-04,
962,0.000000e+00,
963,0.000000e+00,
964,0.000000e+00,
965,-3.125000e-04,
966,9.375000e-04,
967,0.000000e+00,
968,6.250000e-04,
969,3.125000e-04,
970,0.000000e+00,
971,3.125000e-04,
972,9.375000e-04,
973,0.000000e+00,
974,3.125000e-04,
975,0.000000e+00,
976,6.250000e-04,
977,3.125000e-04,
978,-3.125000e-04,
979,3.125000e-04,
980,6.250000e-04,
981,6.250000e-04,
982,3.125000e-04,
983,3.125000e-04,
984,3.125000e-04,
985,0.000000e+00,
986,0.000000e+00,
987,0.000000e+00,
988,3.125000e-04,
989,3.125000e-04,
990,0.000000e+00,
991,6.250000e-04,
992,6.250000e-04,
993,0.000000e+00,
994,0.000000e+00,
995,3.125000e-04,
996,-3.125000e-04,
997,-3.125000e-04,
998,3.125000e-04,
999,3.125000e-04,
1000,0.000000e+00,
1001,3.125000e-04,
1002,3.125000e-04,
1003,0.000000e+00,
1004,0.000000e+00,
1005,3.125000e-04,
1006,6.250000e-04,
1007,0.000000e+00,
1008,6.250000e-04,
1009,0.000000e+00,
1010,3.125000e-04,
1011,0.000000e+00,
1012,6.250000e-04,
1013,3.125000e-04,
1014,3.125000e-04,
1015,3.125000e-04,
1016,3.125000e-04,
1017,0.000000e+00,
1018,3.125000e-04,
1019,3.125000e-04,
1020,3.125000e-04,
1021,3.125000e-04,
1022,6.250000e-04,
1023,0.000000e+00,
1024,3.125000e-04,
1025,3.125000e-04,
1026,3.125000e-04,
1027,6.250000e-04,
1028,0.000000e+00,
1029,3.125000e-04,
1030,3.125000e-04,
1031,0.000000e+00,
1032,3.125000e-04,
1033,0.000000e+00,
1034,0.000000e+00,
1035,3.125000e-04,
1036,3.125000e-04,
1037,0.000000e+00,
1038,3.125000e-04,
1039,0.000000e+00,
1040,6.250000e-04,
1041,-3.125000e-04,
1042,3.125000e-04,
1043,3.125000e-04,
1044,0.000000e+00,
1045,9.375000e-04,
1046,0.000000e+00,
1047,0.000000e+00,
1048,3.125000e-04,
1049,3.125000e-04,
1050,3.125000e-04,
1051,3.125000e-04,
1052,3.125000e-04,
1053,3.125000e-04,
1054,0.000000e+00,
1055,3.125000e-04,
1056,0.000000e+00,
1057,3.125000e-04,
1058,3.125000e-04,
1059,3.125000e-04,
1060,0.000000e+00,
1061,-3.125000e-04,
1062,3.125000e-04,
1063,0.000000e+00,
1064,3.125000e-04,
1065,3.125000e-04,
1066,0.000000e+00,
1067,0.000000e+00,
1068,-3.125000e-04,
1069,3.125000e-04,
1070,0.000000e+00,
1071,0.000000e+00,
1072,0.000000e+00,
1073,3.125000e-04,
1074,3.125000e-04,
1075,3.125000e-04,
1076,3.125000e-04,
1077,0.000000e+00,
1078,0.000000e+00,
1079,0.000000e+00,
1080,3.125000e-04,
1081,3.125000e-04,
1082,3.125000e-04,
1083,6.250000e-04,
1084,0.000000e+00,
1085,3.125000e-04,
1086,0.000000e+00,
1087,6.250000e-04,
1088,-3.125000e-04,
1089,-3.125000e-04,
1090,3.125000e-04,
1091,0.000000e+00,
1092,3.125000e-04,
1093,0.000000e+00,
1094,3.125000e-04,
1095,3.125000e-04,
1096,0.000000e+00,
1097,0.000000e+00,
1098,-3.125000e-04,
1099,0.000000e+00,
